Dimension de la grilla: 313 x 313 bloques
Dimension del bloque: 32 x 32 threads
Se usa placa 0: GeForce GTX 980
Tamanio de Matrix : 10000 x  10000 
Inicializacion de matrices en host  4517.689636 msec
Suma de matrices en host  798.950259 msec
Último índice: x = 0..10015 ; y = 0..10015
Suma de matrices en GPU  7.625344 msec
Test pasado! 

