Tamaño del arreglo: 10000
Veces: 1
Grilla de 40 x 1 bloques
Bloque de 256 x 1 threads
Computer name: Tesla V100-PCIE-16GB 
 Inicializacion vector A 
Inicializacion vector B 
Suma secuencial (CPU)
Tiempo en CPU: 0.033 ms 
Suma paralela (GPU) 
Tiempo en GPU: 0.043872 ms 
Test pasado! 
