srun: job 1454168 queued and waiting for resources
srun: job 1454168 has been allocated resources
==110498== NVPROF is profiling process 110498, command: ./suma_vectores 1000000 1 3907 1 256 1
==110498== Some kernel(s) will be replayed on device 0 in order to collect all events/metrics.
==110498== Profiling application: ./suma_vectores 1000000 1 3907 1 256 1
==110498== Profiling result:
==110498== Event result:
Invocations                                Event Name         Min         Max         Avg       Total
Device "GeForce GTX 980 (0)"
    Kernel: kernel_suma(float*, float*, int)
          1                 tex0_cache_sector_queries      375024      375024      375024      375024
          1                 tex1_cache_sector_queries      374976      374976      374976      374976
          1                  tex0_cache_sector_misses      250016      250016      250016      250016
          1                  tex1_cache_sector_misses      249984      249984      249984      249984
          1                     fb_subp0_read_sectors      125008      125008      125008      125008
          1                     fb_subp1_read_sectors      125000      125000      125000      125000
          1                    fb_subp0_write_sectors       61975       61975       61975       61975
          1                    fb_subp1_write_sectors       62201       62201       62201       62201
          1              l2_subp0_write_sector_misses       62025       62025       62025       62025
          1              l2_subp1_write_sector_misses       62097       62097       62097       62097
          1               l2_subp0_read_sector_misses      125000      125000      125000      125000
          1               l2_subp1_read_sector_misses      125008      125008      125008      125008
          1          l2_subp0_read_tex_sector_queries      125000      125000      125000      125000
          1          l2_subp1_read_tex_sector_queries      125000      125000      125000      125000
          1         l2_subp0_write_tex_sector_queries       62504       62504       62504       62504
          1         l2_subp1_write_tex_sector_queries       62496       62496       62496       62496
          1             l2_subp0_read_tex_hit_sectors           0           0           0           0
          1             l2_subp1_read_tex_hit_sectors           0           0           0           0
          1            l2_subp0_write_tex_hit_sectors       62500       62500       62500       62500
          1            l2_subp1_write_tex_hit_sectors       62492       62492       62492       62492
          1        l2_subp0_total_read_sector_queries      125032      125032      125032      125032
          1        l2_subp1_total_read_sector_queries      125039      125039      125039      125039
          1       l2_subp0_total_write_sector_queries       62508       62508       62508       62508
          1       l2_subp1_total_write_sector_queries       62498       62498       62498       62498
          1       l2_subp0_read_sysmem_sector_queries           0           0           0           0
          1       l2_subp1_read_sysmem_sector_queries           0           0           0           0
          1      l2_subp0_write_sysmem_sector_queries           4           4           4           4
          1      l2_subp1_write_sysmem_sector_queries           1           1           1           1
          1                         elapsed_cycles_sm     1264952     1264952     1264952     1264952
          1                             gld_inst_8bit           0           0           0           0
          1                            gld_inst_16bit           0           0           0           0
          1                            gld_inst_32bit     2000000     2000000     2000000     2000000
          1                            gld_inst_64bit           0           0           0           0
          1                           gld_inst_128bit           0           0           0           0
          1                             gst_inst_8bit           0           0           0           0
          1                            gst_inst_16bit           0           0           0           0
          1                            gst_inst_32bit     1000000     1000000     1000000     1000000
          1                            gst_inst_64bit           0           0           0           0
          1                           gst_inst_128bit           0           0           0           0
          1                           prof_trigger_00           0           0           0           0
          1                           prof_trigger_01           0           0           0           0
          1                           prof_trigger_02           0           0           0           0
          1                           prof_trigger_03           0           0           0           0
          1                           prof_trigger_04           0           0           0           0
          1                           prof_trigger_05           0           0           0           0
          1                           prof_trigger_06           0           0           0           0
          1                           prof_trigger_07           0           0           0           0
          1                            warps_launched       31256       31256       31256       31256
          1                              inst_issued0     4232963     4232963     4232963     4232963
          1                              inst_issued1      533479      533479      533479      533479
          1                              inst_issued2       31250       31250       31250       31250
          1                             inst_executed      593798      593798      593798      593798
          1                      thread_inst_executed    19001536    19001536    19001536    19001536
          1   not_predicated_off_thread_inst_executed    18001536    18001536    18001536    18001536
          1                               local_store           0           0           0           0
          1                                local_load           0           0           0           0
          1                               shared_load           0           0           0           0
          1                              shared_store           0           0           0           0
          1                           shared_atom_cas           0           0           0           0
          1                               shared_atom           0           0           0           0
          1                           global_atom_cas           0           0           0           0
          1                                atom_count           0           0           0           0
          1                                gred_count           0           0           0           0
          1                               global_load       62500       62500       62500       62500
          1                              global_store       31250       31250       31250       31250
          1                          divergent_branch           0           0           0           0
          1                                    branch       62506       62506       62506       62506
          1                             active_cycles     1206155     1206155     1206155     1206155
          1                              active_warps    68070802    68070802    68070802    68070802
          1                               active_ctas     9060016     9060016     9060016     9060016
          1                           sm_cta_launched        3907        3907        3907        3907
          1                   shared_ld_bank_conflict           0           0           0           0
          1                   shared_st_bank_conflict           0           0           0           0
          1                    shared_ld_transactions           0           0           0           0
          1                    shared_st_transactions           0           0           0           0
