Tamaño del arreglo: 10000000
Veces: 200
Grilla de 39063 x 1 bloques
Bloque de 256 x 1 threads
Computer name: GeForce GTX 980 
 Inicializacion vector A 
Inicializacion vector B 
Suma secuencial (CPU)
Tiempo en CPU: 21802.4 ms 
Suma paralela (GPU) 
Tiempo en GPU: 376692 ms 
Test pasado! 
