Tamaño del arreglo: 10000000
Veces: 300
Grilla de 9766 x 1 bloques
Bloque de 1024 x 1 threads
Computer name: Tesla V100-PCIE-16GB 
 Inicializacion vector A 
Inicializacion vector B 
Suma secuencial (CPU)
Tiempo en CPU: 9628.86 ms 
Suma paralela (GPU) 
Tiempo en GPU: 46.5194 ms 
Test pasado! 
