srun: job 1454202 queued and waiting for resources
srun: job 1454202 has been allocated resources
==61502== NVPROF is profiling process 61502, command: ./suma_vectores 10000000 200 39063 1 256 1
==61502== Some kernel(s) will be replayed on device 0 in order to collect all events/metrics.
==61502== Profiling application: ./suma_vectores 10000000 200 39063 1 256 1
==61502== Profiling result:
==61502== Metric result:
Invocations                               Metric Name                                    Metric Description         Min         Max         Avg
Device "GeForce GTX 980 (0)"
    Kernel: kernel_suma(float*, float*, int)
        200                             sm_efficiency                               Multiprocessor Activity      98.54%      99.51%      99.45%
        200                        achieved_occupancy                                    Achieved Occupancy    0.882937    0.889724    0.886780
        200                                       ipc                                          Executed IPC    0.483186    0.484475    0.483933
        200                                issued_ipc                                            Issued IPC    0.483313    0.484723    0.484095
        200                             inst_per_warp                                 Instructions per warp   18.999859   18.999859   18.999859
        200                         branch_efficiency                                     Branch Efficiency     100.00%     100.00%     100.00%
        200                 warp_execution_efficiency                             Warp Execution Efficiency     100.00%     100.00%     100.00%
        200         warp_nonpred_execution_efficiency              Warp Non-Predicated Execution Efficiency      94.74%      94.74%      94.74%
        200                      inst_replay_overhead                           Instruction Replay Overhead    0.000312    0.000454    0.000372
        200                    issue_slot_utilization                                Issue Slot Utilization      11.45%      11.48%      11.47%
        200      shared_load_transactions_per_request           Shared Memory Load Transactions Per Request    0.000000    0.000000    0.000000
        200     shared_store_transactions_per_request          Shared Memory Store Transactions Per Request    0.000000    0.000000    0.000000
        200       local_load_transactions_per_request            Local Memory Load Transactions Per Request    0.000000    0.000000    0.000000
        200      local_store_transactions_per_request           Local Memory Store Transactions Per Request    0.000000    0.000000    0.000000
        200              gld_transactions_per_request                  Global Load Transactions Per Request    8.000000    8.000000    8.000000
        200              gst_transactions_per_request                 Global Store Transactions Per Request    4.000000    4.000000    4.000000
        200                 shared_store_transactions                             Shared Store Transactions           0           0           0
        200                  shared_load_transactions                              Shared Load Transactions           0           0           0
        200                   local_load_transactions                               Local Load Transactions           0           0           0
        200                  local_store_transactions                              Local Store Transactions           0           0           0
        200                          gld_transactions                              Global Load Transactions     5000000     5000000     5000000
        200                          gst_transactions                             Global Store Transactions     1250000     1250000     1250000
        200                    dram_read_transactions                       Device Memory Read Transactions     2500008     2500080     2500019
        200                   dram_write_transactions                      Device Memory Write Transactions     1247673     1250502     1249642
        200                           global_hit_rate                                       Global Hit Rate      50.00%      50.00%      50.00%
        200                            local_hit_rate                                        Local Hit Rate       0.00%       0.00%       0.00%
        200                  gld_requested_throughput                      Requested Global Load Throughput  107.39GB/s  107.56GB/s  107.51GB/s
        200                  gst_requested_throughput                     Requested Global Store Throughput  53.695GB/s  53.779GB/s  53.757GB/s
        200                            gld_throughput                                Global Load Throughput  107.39GB/s  107.56GB/s  107.51GB/s
        200                            gst_throughput                               Global Store Throughput  53.695GB/s  53.779GB/s  53.757GB/s
        200                      dram_read_throughput                         Device Memory Read Throughput  107.39GB/s  107.56GB/s  107.51GB/s
        200                     dram_write_throughput                        Device Memory Write Throughput  53.672GB/s  53.784GB/s  53.741GB/s
        200                      tex_cache_throughput                              Unified Cache Throughput  107.39GB/s  107.56GB/s  107.51GB/s
        200                     local_load_throughput                          Local Memory Load Throughput  0.00000B/s  0.00000B/s  0.00000B/s
        200                    local_store_throughput                         Local Memory Store Throughput  0.00000B/s  0.00000B/s  0.00000B/s
        200                    shared_load_throughput                         Shared Memory Load Throughput  0.00000B/s  0.00000B/s  0.00000B/s
        200                   shared_store_throughput                        Shared Memory Store Throughput  0.00000B/s  0.00000B/s  0.00000B/s
        200                            gld_efficiency                         Global Memory Load Efficiency     100.00%     100.00%     100.00%
        200                            gst_efficiency                        Global Memory Store Efficiency     100.00%     100.00%     100.00%
        200                    tex_cache_transactions                            Unified Cache Transactions     2500000     2500000     2500000
        200                         cf_fu_utilization                Control-Flow Function Unit Utilization     Low (1)     Low (1)     Low (1)
        200                        tex_fu_utilization                     Texture Function Unit Utilization     Low (2)     Low (2)     Low (2)
        200                       ldst_fu_utilization                  Load/Store Function Unit Utilization     Low (1)     Low (1)     Low (1)
        200           double_precision_fu_utilization            Double-Precision Function Unit Utilization    Idle (0)    Idle (0)    Idle (0)
        200                    special_fu_utilization                     Special Function Unit Utilization    Idle (0)    Idle (0)    Idle (0)
        200           single_precision_fu_utilization            Single-Precision Function Unit Utilization     Low (1)     Low (1)     Low (1)
        200                             flop_count_dp           Floating Point Operations(Double Precision)           0           0           0
        200                         flop_count_dp_add       Floating Point Operations(Double Precision Add)           0           0           0
        200                         flop_count_dp_fma       Floating Point Operations(Double Precision FMA)           0           0           0
        200                         flop_count_dp_mul       Floating Point Operations(Double Precision Mul)           0           0           0
        200                             flop_count_sp           Floating Point Operations(Single Precision)    10000000    10000000    10000000
        200                         flop_count_sp_add       Floating Point Operations(Single Precision Add)    10000000    10000000    10000000
        200                         flop_count_sp_fma       Floating Point Operations(Single Precision FMA)           0           0           0
        200                         flop_count_sp_mul        Floating Point Operation(Single Precision Mul)           0           0           0
        200                     flop_count_sp_special   Floating Point Operations(Single Precision Special)           0           0           0
        200                             inst_executed                                 Instructions Executed     5937532     5937532     5937532
        200                               inst_issued                                   Instructions Issued     5939382     5940227     5939741
        200                          dram_utilization                             Device Memory Utilization    High (8)    High (8)    High (8)
        200                           tex_utilization                             Unified Cache Utilization     Low (2)     Low (2)     Low (2)
        200                         shared_efficiency                              Shared Memory Efficiency       0.00%       0.00%       0.00%
        200                        shared_utilization                             Shared Memory Utilization    Idle (0)    Idle (0)    Idle (0)
        200                                inst_fp_32                               FP Instructions(Single)    10000000    10000000    10000000
        200                                inst_fp_64                               FP Instructions(Double)           0           0           0
        200                              inst_integer                                  Integer Instructions   100000512   100000512   100000512
        200                          inst_bit_convert                              Bit-Convert Instructions           0           0           0
        200                              inst_control                             Control-Flow Instructions    10000128    10000128    10000128
        200                        inst_compute_ld_st                               Load/Store Instructions    30000000    30000000    30000000
        200                                 inst_misc                                     Misc Instructions    30000384    30000384    30000384
        200           inst_inter_thread_communication                             Inter-Thread Instructions           0           0           0
        200                               issue_slots                                           Issue Slots     5626882     5627712     5627238
        200                                 cf_issued                      Issued Control-Flow Instructions      625004      625004      625004
        200                               cf_executed                    Executed Control-Flow Instructions      625004      625004      625004
        200                               ldst_issued                        Issued Load/Store Instructions     4375008     4375008     4375008
        200                             ldst_executed                      Executed Load/Store Instructions     1562508     1562508     1562508
        200                       atomic_transactions                                   Atomic Transactions           0           0           0
        200           atomic_transactions_per_request                       Atomic Transactions Per Request    0.000000    0.000000    0.000000
        200                          stall_inst_fetch              Issue Stall Reasons (Instructions Fetch)       1.01%       1.07%       1.03%
        200                     stall_exec_dependency            Issue Stall Reasons (Execution Dependency)       3.65%       3.69%       3.66%
        200                   stall_memory_dependency                    Issue Stall Reasons (Data Request)      92.49%      92.62%      92.56%
        200                             stall_texture                         Issue Stall Reasons (Texture)       0.00%       0.00%       0.00%
        200                                stall_sync                 Issue Stall Reasons (Synchronization)       0.00%       0.00%       0.00%
        200                               stall_other                           Issue Stall Reasons (Other)       1.47%       1.52%       1.49%
        200          stall_constant_memory_dependency              Issue Stall Reasons (Immediate constant)       0.05%       0.08%       0.06%
        200                           stall_pipe_busy                       Issue Stall Reasons (Pipe Busy)       0.09%       0.10%       0.10%
        200                     stall_memory_throttle                 Issue Stall Reasons (Memory Throttle)       0.83%       0.86%       0.84%
        200                        stall_not_selected                    Issue Stall Reasons (Not Selected)       0.24%       0.26%       0.25%
        200                  sysmem_read_transactions                       System Memory Read Transactions           0           0           0
        200                 sysmem_write_transactions                      System Memory Write Transactions           5           5           5
        200                      l2_read_transactions                                  L2 Read Transactions     2500071     2500351     2500117
        200                     l2_write_transactions                                 L2 Write Transactions     1250006     1250006     1250006
        200                          ecc_transactions                                      ECC Transactions           0           0           0
        200                     local_memory_overhead                                 Local Memory Overhead       0.00%       0.00%       0.00%
        200                        tex_cache_hit_rate                                Unified Cache Hit Rate      50.00%      50.00%      50.00%
        200                      l2_tex_read_hit_rate                           L2 Hit Rate (Texture Reads)       0.00%       0.00%       0.00%
        200                     l2_tex_write_hit_rate                          L2 Hit Rate (Texture Writes)      99.99%     100.00%     100.00%
        200                    l2_tex_read_throughput                         L2 Throughput (Texture Reads)  107.39GB/s  107.56GB/s  107.51GB/s
        200                   l2_tex_write_throughput                        L2 Throughput (Texture Writes)  53.695GB/s  53.779GB/s  53.757GB/s
        200                  l2_tex_read_transactions                       L2 Transactions (Texture Reads)     2500000     2500000     2500000
        200                 l2_tex_write_transactions                      L2 Transactions (Texture Writes)     1250000     1250000     1250000
        200                        l2_read_throughput                                 L2 Throughput (Reads)  107.40GB/s  107.56GB/s  107.52GB/s
        200                       l2_write_throughput                                L2 Throughput (Writes)  53.695GB/s  53.779GB/s  53.757GB/s
        200                    sysmem_read_throughput                         System Memory Read Throughput  0.00000B/s  0.00000B/s  0.00000B/s
        200                   sysmem_write_throughput                        System Memory Write Throughput  225.21KB/s  225.56KB/s  0.00000B/s
        200                            l2_utilization                                  L2 Cache Utilization     Mid (4)     Mid (4)     Mid (4)
        200                      l2_atomic_throughput                       L2 Throughput (Atomic requests)  0.00000B/s  0.00000B/s  0.00000B/s
        200                    l2_atomic_transactions                     L2 Transactions (Atomic requests)           0           0           0
        200                        sysmem_utilization                             System Memory Utilization     Low (1)     Low (1)     Low (1)
        200                            ecc_throughput                                        ECC Throughput  0.00000B/s  0.00000B/s  0.00000B/s
        200                   sysmem_read_utilization                        System Memory Read Utilization    Idle (0)    Idle (0)    Idle (0)
        200                  sysmem_write_utilization                       System Memory Write Utilization     Low (1)     Low (1)     Low (1)
        200                  eligible_warps_per_cycle                       Eligible Warps Per Active Cycle    0.592966    0.604299    0.598244
        200                        flop_sp_efficiency                          FLOP Efficiency(Peak Single)       0.31%       0.32%       0.32%
        200                        flop_dp_efficiency                          FLOP Efficiency(Peak Double)       0.00%       0.00%       0.00%
