srun: job 1480202 queued and waiting for resources
srun: job 1480202 has been allocated resources
==146403== NVPROF is profiling process 146403, command: ./suma_vectores 100 300 1 1 256 1
==146403== Profiling application: ./suma_vectores 100 300 1 1 256 1
==146403== Profiling result:
Time(%)      Time     Calls       Avg       Min       Max  Name
 99.13%  367.62us       300  1.2250us  1.1840us  2.5920us  kernel_suma(float*, float*, int)
  0.55%  2.0480us         2  1.0240us     800ns  1.2480us  [CUDA memcpy HtoD]
  0.32%  1.1840us         1  1.1840us  1.1840us  1.1840us  [CUDA memcpy DtoH]

==146403== API calls:
Time(%)      Time     Calls       Avg       Min       Max  Name
 99.18%  605.65ms         2  302.82ms  10.117us  605.64ms  cudaMalloc
  0.34%  2.0892ms       300  6.9630us  6.2020us  43.885us  cudaLaunch
  0.25%  1.5010ms       300  5.0030us  4.3030us  21.337us  cudaDeviceSynchronize
  0.06%  358.69us        91  3.9410us     159ns  156.54us  cuDeviceGetAttribute
  0.06%  351.12us         1  351.12us  351.12us  351.12us  cudaGetDeviceProperties
  0.03%  194.26us       900     215ns     173ns  11.282us  cudaSetupArgument
  0.02%  136.16us         2  68.080us  12.577us  123.58us  cudaFree
  0.02%  93.936us         1  93.936us  93.936us  93.936us  cuDeviceTotalMem
  0.01%  71.707us       304     235ns     205ns  2.3220us  cudaGetLastError
  0.01%  64.100us       300     213ns     192ns     977ns  cudaConfigureCall
  0.01%  55.945us         3  18.648us  6.1790us  27.956us  cudaMemcpy
  0.01%  40.900us         1  40.900us  40.900us  40.900us  cuDeviceGetName
  0.00%  11.908us         2  5.9540us  3.5710us  8.3370us  cudaEventRecord
  0.00%  7.8080us         2  3.9040us  1.0470us  6.7610us  cudaEventCreate
  0.00%  4.1170us         1  4.1170us  4.1170us  4.1170us  cudaEventSynchronize
  0.00%  3.3260us         1  3.3260us  3.3260us  3.3260us  cudaEventElapsedTime
  0.00%  2.3940us         3     798ns     192ns  1.9580us  cuDeviceGetCount
  0.00%  1.2230us         3     407ns     191ns     678ns  cuDeviceGet
