srun: job 1454219 queued and waiting for resources
srun: job 1454219 has been allocated resources
==56196== NVPROF is profiling process 56196, command: ./suma_vectores 1000 1 4 1 256 1
==56196== Some kernel(s) will be replayed on device 0 in order to collect all events/metrics.
==56196== Profiling application: ./suma_vectores 1000 1 4 1 256 1
==56196== Profiling result:
==56196== Event result:
Invocations                                Event Name         Min         Max         Avg       Total
Device "GeForce GTX 980 (0)"
    Kernel: kernel_suma(float*, float*, int)
          1                 tex0_cache_sector_queries         366         366         366         366
          1                 tex1_cache_sector_queries         384         384         384         384
          1                  tex0_cache_sector_misses         256         256         256         256
          1                  tex1_cache_sector_misses         244         244         244         244
          1                     fb_subp0_read_sectors           0           0           0           0
          1                     fb_subp1_read_sectors           0           0           0           0
          1                    fb_subp0_write_sectors           6           6           6           6
          1                    fb_subp1_write_sectors           0           0           0           0
          1              l2_subp0_write_sector_misses           6           6           6           6
          1              l2_subp1_write_sector_misses           8           8           8           8
          1               l2_subp0_read_sector_misses           0           0           0           0
          1               l2_subp1_read_sector_misses           0           0           0           0
          1          l2_subp0_read_tex_sector_queries         128         128         128         128
          1          l2_subp1_read_tex_sector_queries         122         122         122         122
          1         l2_subp0_write_tex_sector_queries          64          64          64          64
          1         l2_subp1_write_tex_sector_queries          61          61          61          61
          1             l2_subp0_read_tex_hit_sectors         128         128         128         128
          1             l2_subp1_read_tex_hit_sectors         122         122         122         122
          1            l2_subp0_write_tex_hit_sectors          64          64          64          64
          1            l2_subp1_write_tex_hit_sectors          61          61          61          61
          1        l2_subp0_total_read_sector_queries         160         160         160         160
          1        l2_subp1_total_read_sector_queries         161         161         161         161
          1       l2_subp0_total_write_sector_queries          69          69          69          69
          1       l2_subp1_total_write_sector_queries          62          62          62          62
          1       l2_subp0_read_sysmem_sector_queries           0           0           0           0
          1       l2_subp1_read_sysmem_sector_queries           0           0           0           0
          1      l2_subp0_write_sysmem_sector_queries           5           5           5           5
          1      l2_subp1_write_sysmem_sector_queries           0           0           0           0
          1                         elapsed_cycles_sm       68612       68612       68612       68612
          1                             gld_inst_8bit           0           0           0           0
          1                            gld_inst_16bit           0           0           0           0
          1                            gld_inst_32bit        2000        2000        2000        2000
          1                            gld_inst_64bit           0           0           0           0
          1                           gld_inst_128bit           0           0           0           0
          1                             gst_inst_8bit           0           0           0           0
          1                            gst_inst_16bit           0           0           0           0
          1                            gst_inst_32bit        1000        1000        1000        1000
          1                            gst_inst_64bit           0           0           0           0
          1                           gst_inst_128bit           0           0           0           0
          1                           prof_trigger_00           0           0           0           0
          1                           prof_trigger_01           0           0           0           0
          1                           prof_trigger_02           0           0           0           0
          1                           prof_trigger_03           0           0           0           0
          1                           prof_trigger_04           0           0           0           0
          1                           prof_trigger_05           0           0           0           0
          1                           prof_trigger_06           0           0           0           0
          1                           prof_trigger_07           0           0           0           0
          1                            warps_launched          32          32          32          32
          1                              inst_issued0       19120       19120       19120       19120
          1                              inst_issued1         608         608         608         608
          1                              inst_issued2          32          32          32          32
          1                             inst_executed         608         608         608         608
          1                      thread_inst_executed       19192       19192       19192       19192
          1   not_predicated_off_thread_inst_executed       18192       18192       18192       18192
          1                               local_store           0           0           0           0
          1                                local_load           0           0           0           0
          1                               shared_load           0           0           0           0
          1                              shared_store           0           0           0           0
          1                           shared_atom_cas           0           0           0           0
          1                               shared_atom           0           0           0           0
          1                           global_atom_cas           0           0           0           0
          1                                atom_count           0           0           0           0
          1                                gred_count           0           0           0           0
          1                               global_load          64          64          64          64
          1                              global_store          32          32          32          32
          1                          divergent_branch           0           0           0           0
          1                                    branch          64          64          64          64
          1                             active_cycles        3241        3241        3241        3241
          1                              active_warps       25400       25400       25400       25400
          1                               active_ctas        3226        3226        3226        3226
          1                           sm_cta_launched           4           4           4           4
          1                   shared_ld_bank_conflict           0           0           0           0
          1                   shared_st_bank_conflict           0           0           0           0
          1                    shared_ld_transactions           0           0           0           0
          1                    shared_st_transactions           0           0           0           0
