Tamaño del arreglo: 10000000
Veces: 200
Grilla de 9766 x 1 bloques
Bloque de 1024 x 1 threads
Computer name: GeForce GTX 980 
 Inicializacion vector A 
Inicializacion vector B 
Suma secuencial (CPU)
Tiempo en CPU: 14213.6 ms 
Suma paralela (GPU) 
Tiempo en GPU: 283.143 ms 
Test pasado! 
