Tamaño del arreglo: 100
Veces: 1
Grilla de 1 x 1 bloques
Bloque de 256 x 1 threads
Computer name: Tesla V100-PCIE-16GB 
 Inicializacion vector A 
Inicializacion vector B 
Suma secuencial (CPU)
Tiempo en CPU: 0 ms 
Suma paralela (GPU) 
Tiempo en GPU: 0.042976 ms 
Test pasado! 
