Tamaño del arreglo: 100
Veces: 200
Grilla de 1 x 1 bloques
Bloque de 256 x 1 threads
Computer name: GeForce GTX 980 
 Inicializacion vector A 
Inicializacion vector B 
Suma secuencial (CPU)
Tiempo en CPU: 0.082 ms 
Suma paralela (GPU) 
Tiempo en GPU: 2.95117 ms 
Test pasado! 
