srun: job 1454212 queued and waiting for resources
srun: job 1454212 has been allocated resources
==46363== NVPROF is profiling process 46363, command: ./suma_vectores 100 1 1 1 256 1
==46363== Profiling application: ./suma_vectores 100 1 1 1 256 1
==46363== Profiling result:
Time(%)      Time     Calls       Avg       Min       Max  Name
 44.20%  2.5600us         1  2.5600us  2.5600us  2.5600us  kernel_suma(float*, float*, int)
 35.36%  2.0480us         2  1.0240us     800ns  1.2480us  [CUDA memcpy HtoD]
 20.44%  1.1840us         1  1.1840us  1.1840us  1.1840us  [CUDA memcpy DtoH]

==46363== API calls:
Time(%)      Time     Calls       Avg       Min       Max  Name
 99.81%  543.03ms         2  271.52ms  10.796us  543.02ms  cudaMalloc
  0.06%  321.63us        91  3.5340us     158ns  139.27us  cuDeviceGetAttribute
  0.06%  312.39us         1  312.39us  312.39us  312.39us  cudaGetDeviceProperties
  0.03%  137.30us         2  68.649us  12.708us  124.59us  cudaFree
  0.02%  89.909us         1  89.909us  89.909us  89.909us  cuDeviceTotalMem
  0.01%  54.275us         3  18.091us  6.2670us  24.694us  cudaMemcpy
  0.01%  46.037us         1  46.037us  46.037us  46.037us  cuDeviceGetName
  0.01%  39.275us         1  39.275us  39.275us  39.275us  cudaLaunch
  0.00%  15.260us         5  3.0520us     233ns  11.821us  cudaGetLastError
  0.00%  10.940us         2  5.4700us  3.5250us  7.4150us  cudaEventRecord
  0.00%  7.1730us         1  7.1730us  7.1730us  7.1730us  cudaDeviceSynchronize
  0.00%  6.9950us         2  3.4970us  1.1170us  5.8780us  cudaEventCreate
  0.00%  3.9580us         1  3.9580us  3.9580us  3.9580us  cudaEventSynchronize
  0.00%  3.2880us         1  3.2880us  3.2880us  3.2880us  cudaEventElapsedTime
  0.00%  3.1000us         3  1.0330us     193ns  2.5680us  cuDeviceGetCount
  0.00%  1.3350us         3     445ns     182ns     690ns  cuDeviceGet
  0.00%  1.2340us         3     411ns     254ns     544ns  cudaSetupArgument
  0.00%     798ns         1     798ns     798ns     798ns  cudaConfigureCall
