Tamaño del arreglo: 10000000
Veces: 200
Grilla de 39063 x 1 bloques
Bloque de 256 x 1 threads
Computer name: Tesla V100-PCIE-16GB 
 Inicializacion vector A 
Inicializacion vector B 
Suma secuencial (CPU)
Tiempo en CPU: 6303.1 ms 
Suma paralela (GPU) 
Tiempo en GPU: 31.0348 ms 
Test pasado! 
