Tamaño del arreglo: 1000
Veces: 1
Grilla de 4 x 1 bloques
Bloque de 256 x 1 threads
Computer name: GeForce GTX 980 
 Inicializacion vector A 
Inicializacion vector B 
Suma secuencial (CPU)
Tiempo en CPU: 0.004 ms 
Suma paralela (GPU) 
Tiempo en GPU: 584.701 ms 
Test pasado! 
