srun: job 1454190 queued and waiting for resources
srun: job 1454190 has been allocated resources
==63031== NVPROF is profiling process 63031, command: ./suma_vectores 1000000 1 3907 1 256 1
==63031== Some kernel(s) will be replayed on device 0 in order to collect all events/metrics.
==63031== Profiling application: ./suma_vectores 1000000 1 3907 1 256 1
==63031== Profiling result:
==63031== Metric result:
Invocations                               Metric Name                                    Metric Description         Min         Max         Avg
Device "GeForce GTX 980 (0)"
    Kernel: kernel_suma(float*, float*, int)
          1                             sm_efficiency                               Multiprocessor Activity      94.63%      94.63%      94.63%
          1                        achieved_occupancy                                    Achieved Occupancy    0.881998    0.881998    0.881998
          1                                       ipc                                          Executed IPC    0.490195    0.490195    0.490195
          1                                issued_ipc                                            Issued IPC    0.494517    0.494517    0.494517
          1                             inst_per_warp                                 Instructions per warp   18.997888   18.997888   18.997888
          1                         branch_efficiency                                     Branch Efficiency     100.00%     100.00%     100.00%
          1                 warp_execution_efficiency                             Warp Execution Efficiency     100.00%     100.00%     100.00%
          1         warp_nonpred_execution_efficiency              Warp Non-Predicated Execution Efficiency      94.74%      94.74%      94.74%
          1                      inst_replay_overhead                           Instruction Replay Overhead    0.003449    0.003449    0.003449
          1                    issue_slot_utilization                                Issue Slot Utilization      11.71%      11.71%      11.71%
          1      shared_load_transactions_per_request           Shared Memory Load Transactions Per Request    0.000000    0.000000    0.000000
          1     shared_store_transactions_per_request          Shared Memory Store Transactions Per Request    0.000000    0.000000    0.000000
          1       local_load_transactions_per_request            Local Memory Load Transactions Per Request    0.000000    0.000000    0.000000
          1      local_store_transactions_per_request           Local Memory Store Transactions Per Request    0.000000    0.000000    0.000000
          1              gld_transactions_per_request                  Global Load Transactions Per Request    8.000000    8.000000    8.000000
          1              gst_transactions_per_request                 Global Store Transactions Per Request    4.000000    4.000000    4.000000
          1                 shared_store_transactions                             Shared Store Transactions           0           0           0
          1                  shared_load_transactions                              Shared Load Transactions           0           0           0
          1                   local_load_transactions                               Local Load Transactions           0           0           0
          1                  local_store_transactions                              Local Store Transactions           0           0           0
          1                          gld_transactions                              Global Load Transactions      500000      500000      500000
          1                          gst_transactions                             Global Store Transactions      125000      125000      125000
          1                    dram_read_transactions                       Device Memory Read Transactions      250024      250024      250024
          1                   dram_write_transactions                      Device Memory Write Transactions      124276      124276      124276
          1                           global_hit_rate                                       Global Hit Rate      50.00%      50.00%      50.00%
          1                            local_hit_rate                                        Local Hit Rate       0.00%       0.00%       0.00%
          1                  gld_requested_throughput                      Requested Global Load Throughput  105.51GB/s  105.51GB/s  105.51GB/s
          1                  gst_requested_throughput                     Requested Global Store Throughput  52.756GB/s  52.756GB/s  52.755GB/s
          1                            gld_throughput                                Global Load Throughput  105.51GB/s  105.51GB/s  105.51GB/s
          1                            gst_throughput                               Global Store Throughput  52.756GB/s  52.756GB/s  52.755GB/s
          1                      dram_read_throughput                         Device Memory Read Throughput  105.52GB/s  105.52GB/s  105.52GB/s
          1                     dram_write_throughput                        Device Memory Write Throughput  52.450GB/s  52.450GB/s  52.449GB/s
          1                      tex_cache_throughput                              Unified Cache Throughput  105.51GB/s  105.51GB/s  105.51GB/s
          1                     local_load_throughput                          Local Memory Load Throughput  0.00000B/s  0.00000B/s  0.00000B/s
          1                    local_store_throughput                         Local Memory Store Throughput  0.00000B/s  0.00000B/s  0.00000B/s
          1                    shared_load_throughput                         Shared Memory Load Throughput  0.00000B/s  0.00000B/s  0.00000B/s
          1                   shared_store_throughput                        Shared Memory Store Throughput  0.00000B/s  0.00000B/s  0.00000B/s
          1                            gld_efficiency                         Global Memory Load Efficiency     100.00%     100.00%     100.00%
          1                            gst_efficiency                        Global Memory Store Efficiency     100.00%     100.00%     100.00%
          1                    tex_cache_transactions                            Unified Cache Transactions      250000      250000      250000
          1                         cf_fu_utilization                Control-Flow Function Unit Utilization     Low (1)     Low (1)     Low (1)
          1                        tex_fu_utilization                     Texture Function Unit Utilization     Low (2)     Low (2)     Low (2)
          1                       ldst_fu_utilization                  Load/Store Function Unit Utilization     Low (1)     Low (1)     Low (1)
          1           double_precision_fu_utilization            Double-Precision Function Unit Utilization    Idle (0)    Idle (0)    Idle (0)
          1                    special_fu_utilization                     Special Function Unit Utilization    Idle (0)    Idle (0)    Idle (0)
          1           single_precision_fu_utilization            Single-Precision Function Unit Utilization     Low (1)     Low (1)     Low (1)
          1                             flop_count_dp           Floating Point Operations(Double Precision)           0           0           0
          1                         flop_count_dp_add       Floating Point Operations(Double Precision Add)           0           0           0
          1                         flop_count_dp_fma       Floating Point Operations(Double Precision FMA)           0           0           0
          1                         flop_count_dp_mul       Floating Point Operations(Double Precision Mul)           0           0           0
          1                             flop_count_sp           Floating Point Operations(Single Precision)     1000000     1000000     1000000
          1                         flop_count_sp_add       Floating Point Operations(Single Precision Add)     1000000     1000000     1000000
          1                         flop_count_sp_fma       Floating Point Operations(Single Precision FMA)           0           0           0
          1                         flop_count_sp_mul        Floating Point Operation(Single Precision Mul)           0           0           0
          1                     flop_count_sp_special   Floating Point Operations(Single Precision Special)           0           0           0
          1                             inst_executed                                 Instructions Executed      593798      593798      593798
          1                               inst_issued                                   Instructions Issued      595937      595937      595937
          1                          dram_utilization                             Device Memory Utilization    High (8)    High (8)    High (8)
          1                           tex_utilization                             Unified Cache Utilization     Low (1)     Low (1)     Low (1)
          1                         shared_efficiency                              Shared Memory Efficiency       0.00%       0.00%       0.00%
          1                        shared_utilization                             Shared Memory Utilization    Idle (0)    Idle (0)    Idle (0)
          1                                inst_fp_32                               FP Instructions(Single)     1000000     1000000     1000000
          1                                inst_fp_64                               FP Instructions(Double)           0           0           0
          1                              inst_integer                                  Integer Instructions    10000768    10000768    10000768
          1                          inst_bit_convert                              Bit-Convert Instructions           0           0           0
          1                              inst_control                             Control-Flow Instructions     1000192     1000192     1000192
          1                        inst_compute_ld_st                               Load/Store Instructions     3000000     3000000     3000000
          1                                 inst_misc                                     Misc Instructions     3000576     3000576     3000576
          1           inst_inter_thread_communication                             Inter-Thread Instructions           0           0           0
          1                               issue_slots                                           Issue Slots      564687      564687      564687
          1                                 cf_issued                      Issued Control-Flow Instructions       62506       62506       62506
          1                               cf_executed                    Executed Control-Flow Instructions       62506       62506       62506
          1                               ldst_issued                        Issued Load/Store Instructions      437512      437512      437512
          1                             ldst_executed                      Executed Load/Store Instructions      156262      156262      156262
          1                       atomic_transactions                                   Atomic Transactions           0           0           0
          1           atomic_transactions_per_request                       Atomic Transactions Per Request    0.000000    0.000000    0.000000
          1                          stall_inst_fetch              Issue Stall Reasons (Instructions Fetch)       1.08%       1.08%       1.08%
          1                     stall_exec_dependency            Issue Stall Reasons (Execution Dependency)       3.78%       3.78%       3.78%
          1                   stall_memory_dependency                    Issue Stall Reasons (Data Request)      91.59%      91.59%      91.59%
          1                             stall_texture                         Issue Stall Reasons (Texture)       0.00%       0.00%       0.00%
          1                                stall_sync                 Issue Stall Reasons (Synchronization)       0.00%       0.00%       0.00%
          1                               stall_other                           Issue Stall Reasons (Other)       1.70%       1.70%       1.70%
          1          stall_constant_memory_dependency              Issue Stall Reasons (Immediate constant)       0.64%       0.64%       0.64%
          1                           stall_pipe_busy                       Issue Stall Reasons (Pipe Busy)       0.10%       0.10%       0.10%
          1                     stall_memory_throttle                 Issue Stall Reasons (Memory Throttle)       0.86%       0.86%       0.86%
          1                        stall_not_selected                    Issue Stall Reasons (Not Selected)       0.25%       0.25%       0.25%
          1                  sysmem_read_transactions                       System Memory Read Transactions           0           0           0
          1                 sysmem_write_transactions                      System Memory Write Transactions           5           5           5
          1                      l2_read_transactions                                  L2 Read Transactions      250071      250071      250071
          1                     l2_write_transactions                                 L2 Write Transactions      125006      125006      125006
          1                          ecc_transactions                                      ECC Transactions           0           0           0
          1                     local_memory_overhead                                 Local Memory Overhead       0.00%       0.00%       0.00%
          1                        tex_cache_hit_rate                                Unified Cache Hit Rate      50.00%      50.00%      50.00%
          1                      l2_tex_read_hit_rate                           L2 Hit Rate (Texture Reads)       0.00%       0.00%       0.00%
          1                     l2_tex_write_hit_rate                          L2 Hit Rate (Texture Writes)     100.00%     100.00%     100.00%
          1                    l2_tex_read_throughput                         L2 Throughput (Texture Reads)  105.51GB/s  105.51GB/s  105.51GB/s
          1                   l2_tex_write_throughput                        L2 Throughput (Texture Writes)  52.756GB/s  52.756GB/s  52.755GB/s
          1                  l2_tex_read_transactions                       L2 Transactions (Texture Reads)      250000      250000      250000
          1                 l2_tex_write_transactions                      L2 Transactions (Texture Writes)      125000      125000      125000
          1                        l2_read_throughput                                 L2 Throughput (Reads)  105.54GB/s  105.54GB/s  105.54GB/s
          1                       l2_write_throughput                                L2 Throughput (Writes)  52.758GB/s  52.758GB/s  52.758GB/s
          1                    sysmem_read_throughput                         System Memory Read Throughput  0.00000B/s  0.00000B/s  0.00000B/s
          1                   sysmem_write_throughput                        System Memory Write Throughput  2.1609MB/s  2.1609MB/s  1.9073MB/s
          1                            l2_utilization                                  L2 Cache Utilization     Low (3)     Low (3)     Low (3)
          1                      l2_atomic_throughput                       L2 Throughput (Atomic requests)  0.00000B/s  0.00000B/s  0.00000B/s
          1                    l2_atomic_transactions                     L2 Transactions (Atomic requests)           0           0           0
          1                        sysmem_utilization                             System Memory Utilization     Low (1)     Low (1)     Low (1)
          1                            ecc_throughput                                        ECC Throughput  0.00000B/s  0.00000B/s  0.00000B/s
          1                   sysmem_read_utilization                        System Memory Read Utilization    Idle (0)    Idle (0)    Idle (0)
          1                  sysmem_write_utilization                       System Memory Write Utilization     Low (1)     Low (1)     Low (1)
          1                  eligible_warps_per_cycle                       Eligible Warps Per Active Cycle    0.605700    0.605700    0.605700
          1                        flop_sp_efficiency                          FLOP Efficiency(Peak Single)       0.31%       0.31%       0.31%
          1                        flop_dp_efficiency                          FLOP Efficiency(Peak Double)       0.00%       0.00%       0.00%
