Escribiendo en archivo: output_sec.txt 
Escribiendo en archivo: output_par.txt 
Sobel -> [(Filas x Columnas) imagen /ms_cpu/ms_gpu]= (750x499) 41.341111 1.174336
-- Comparación:
leyenda: col, fila (arr_index) gpu_out != cpu_out
