Dimension de la grilla: 4 x 4 bloques
Dimension del bloque: 32 x 32 threads
Se usa placa 0: Tesla V100-PCIE-16GB
Tamanio de Matrix : 100 x  100 
Inicializacion de matrices en host  0.460132 msec
Suma de matrices en host  0.037652 msec
Último índice: x = 0..127 ; y = 0..127
Suma de matrices en GPU  0.050208 msec
Test pasado! 

