Dimension de la grilla: 32 x 32 bloques
Dimension del bloque: 32 x 32 threads
Se usa placa 0: GeForce GTX 980
Tamanio de Matrix : 1000 x  1000 
Inicializacion de matrices en host  62.828149 msec
Suma de matrices en host  5.263894 msec
Último índice: x = 0..1023 ; y = 0..1023
Suma de matrices en GPU  256.452271 msec
Test pasado! 

