Dimension de la grilla: 32 x 32 bloques
Dimension del bloque: 32 x 32 threads
Se usa placa 0: Tesla V100-PCIE-16GB
Tamanio de Matrix : 1000 x  1000 
Inicializacion de matrices en host  48.484472 msec
Suma de matrices en host  3.753126 msec
Último índice: x = 0..1023 ; y = 0..1023
Suma de matrices en GPU  0.039168 msec
Test pasado! 

