Input size N: 1280000
Filter size M: 128

Device 0: "Tesla V100-PCIE-16GB" 
d_filter y d_input, tiempo de memcpy HtoD: 0.993792
houtput <- doutput tiempo de memcpy DtoH: 6.266944
[N/M/ms_cpu/ms_gpu/ms_gpu_sm/ms_gpu_cm]= [1280000/128/566.384298/0.544032/0.509504/0.500864] 
