srun: job 1512995 queued and waiting for resources
srun: job 1512995 has been allocated resources
==124795== NVPROF is profiling process 124795, command: ./convolucion_double 1280000 32
==124795== Profiling application: ./convolucion_double 1280000 32
==124795== Profiling result:
Time(%)      Time     Calls       Avg       Min       Max  Name
 39.92%  7.8111ms         3  2.6037ms  1.0560us  7.8089ms  [CUDA memcpy HtoD]
 37.21%  7.2805ms         3  2.4268ms  1.0967ms  4.8863ms  [CUDA memcpy DtoH]
 10.51%  2.0564ms         1  2.0564ms  2.0564ms  2.0564ms  conv_gpu(double const *, double*, double const *, int, int)
  6.86%  1.3423ms         1  1.3423ms  1.3423ms  1.3423ms  conv_gpu_shared_memory(double const *, double*, double const *, int, int)
  5.48%  1.0723ms         1  1.0723ms  1.0723ms  1.0723ms  conv_gpu_constant_memory(double const *, double*, int, int)
  0.01%  2.4640us         3     821ns     672ns  1.1200us  [CUDA memset]

==124795== API calls:
Time(%)      Time     Calls       Avg       Min       Max  Name
 89.96%  240.62ms         5  48.124ms  153.58us  240.00ms  cudaMalloc
  6.37%  17.047ms         5  3.4094ms  181.27us  8.4394ms  cudaMemcpy
  1.67%  4.4797ms         6  746.61us  3.8680us  2.0537ms  cudaEventSynchronize
  1.30%  3.4778ms         5  695.56us  288.35us  799.63us  cudaFree
  0.21%  567.65us        91  6.2370us     309ns  241.35us  cuDeviceGetAttribute
  0.20%  545.84us         1  545.84us  545.84us  545.84us  cudaGetDeviceProperties
  0.06%  171.60us         1  171.60us  171.60us  171.60us  cuDeviceTotalMem
  0.05%  142.87us         3  47.623us  27.365us  61.286us  cudaLaunch
  0.04%  105.51us        18  5.8610us  2.5880us  18.554us  cudaEventRecord
  0.03%  86.061us         3  28.687us  11.167us  59.305us  cudaMemset
  0.02%  66.813us         1  66.813us  66.813us  66.813us  cuDeviceGetName
  0.02%  47.867us        12  3.9880us     705ns  14.216us  cudaEventCreate
  0.01%  36.728us         1  36.728us  36.728us  36.728us  cudaMemcpyToSymbol
  0.01%  28.313us         1  28.313us  28.313us  28.313us  cudaGetDevice
  0.01%  16.876us         6  2.8120us  1.8610us  4.6810us  cudaEventElapsedTime
  0.01%  14.611us        12  1.2170us     648ns  4.8230us  cudaEventDestroy
  0.00%  6.0740us        11     552ns     261ns     883ns  cudaGetLastError
  0.00%  5.4400us        14     388ns     187ns  1.2410us  cudaSetupArgument
  0.00%  4.1520us         3  1.3840us     380ns  3.1340us  cuDeviceGetCount
  0.00%  3.7610us         3  1.2530us     415ns  2.1800us  cudaConfigureCall
  0.00%  2.2140us         3     738ns     349ns  1.1200us  cuDeviceGet
