Input size N: 1280000
Filter size M: 32

Device 0: "GeForce GTX 980" 
d_filter y d_input, tiempo de memcpy HtoD: 8.495200
houtput <- doutput tiempo de memcpy DtoH: 5.678240
[N/M/ms_cpu/ms_gpu/ms_gpu_sm/ms_gpu_cm]= [1280000/32/168.519960/2.128160/1.399424/1.102240] 
