srun: job 1512918 queued and waiting for resources
srun: job 1512918 has been allocated resources
==34065== NVPROF is profiling process 34065, command: ./convolucion_float 1280000 32
==34065== Some kernel(s) will be replayed on device 0 in order to collect all events/metrics.
==34065== Profiling application: ./convolucion_float 1280000 32
==34065== Profiling result:
==34065== Event result:
Invocations                                Event Name         Min         Max         Avg       Total
Device "GeForce GTX TITAN X (0)"
    Kernel: conv_gpu_constant_memory(float const *, float*, int, int)
          1                 tex0_cache_sector_queries    11358296    11358296    11358296    11358296
          1                 tex1_cache_sector_queries    11361704    11361704    11361704    11361704
          1                  tex0_cache_sector_misses     8400420     8400420     8400420     8400420
          1                  tex1_cache_sector_misses     8399580     8399580     8399580     8399580
          1                     fb_subp0_read_sectors       80020       80020       80020       80020
          1                     fb_subp1_read_sectors       80024       80024       80024       80024
          1                    fb_subp0_write_sectors       83017       83017       83017       83017
          1                    fb_subp1_write_sectors       82947       82947       82947       82947
          1              l2_subp0_write_sector_misses       82970       82970       82970       82970
          1              l2_subp1_write_sector_misses       83026       83026       83026       83026
          1               l2_subp0_read_sector_misses       80032       80032       80032       80032
          1               l2_subp1_read_sector_misses       80016       80016       80016       80016
          1          l2_subp0_read_tex_sector_queries     3120076     3120076     3120076     3120076
          1          l2_subp1_read_tex_sector_queries     3119924     3119924     3119924     3119924
          1         l2_subp0_write_tex_sector_queries     2640000     2640000     2640000     2640000
          1         l2_subp1_write_tex_sector_queries     2640000     2640000     2640000     2640000
          1             l2_subp0_read_tex_hit_sectors     3040072     3040072     3040072     3040072
          1             l2_subp1_read_tex_hit_sectors     3039924     3039924     3039924     3039924
          1            l2_subp0_write_tex_hit_sectors     2560000     2560000     2560000     2560000
          1            l2_subp1_write_tex_hit_sectors     2560000     2560000     2560000     2560000
          1        l2_subp0_total_read_sector_queries     3120172     3120172     3120172     3120172
          1        l2_subp1_total_read_sector_queries     3119979     3119979     3119979     3119979
          1       l2_subp0_total_write_sector_queries     2640005     2640005     2640005     2640005
          1       l2_subp1_total_write_sector_queries     2640001     2640001     2640001     2640001
          1       l2_subp0_read_sysmem_sector_queries           0           0           0           0
          1       l2_subp1_read_sysmem_sector_queries           0           0           0           0
          1      l2_subp0_write_sysmem_sector_queries           5           5           5           5
          1      l2_subp1_write_sysmem_sector_queries           0           0           0           0
          1                         elapsed_cycles_sm    13072616    13072616    13072616    13072616
          1                             gld_inst_8bit           0           0           0           0
          1                            gld_inst_16bit           0           0           0           0
          1                            gld_inst_32bit    40960000    40960000    40960000    40960000
          1                            gld_inst_64bit           0           0           0           0
          1                           gld_inst_128bit           0           0           0           0
          1                             gst_inst_8bit           0           0           0           0
          1                            gst_inst_16bit           0           0           0           0
          1                            gst_inst_32bit    42240000    42240000    42240000    42240000
          1                            gst_inst_64bit           0           0           0           0
          1                           gst_inst_128bit           0           0           0           0
          1                           prof_trigger_00           0           0           0           0
          1                           prof_trigger_01           0           0           0           0
          1                           prof_trigger_02           0           0           0           0
          1                           prof_trigger_03           0           0           0           0
          1                           prof_trigger_04           0           0           0           0
          1                           prof_trigger_05           0           0           0           0
          1                           prof_trigger_06           0           0           0           0
          1                           prof_trigger_07           0           0           0           0
          1                            warps_launched       40000       40000       40000       40000
          1                              inst_issued0    36200941    36200941    36200941    36200941
          1                              inst_issued1    12320773    12320773    12320773    12320773
          1                              inst_issued2     2560000     2560000     2560000     2560000
          1                             inst_executed    17440000    17440000    17440000    17440000
          1                      thread_inst_executed   558080000   558080000   558080000   558080000
          1   not_predicated_off_thread_inst_executed   555520000   555520000   555520000   555520000
          1                               local_store           0           0           0           0
          1                                local_load           0           0           0           0
          1                               shared_load           0           0           0           0
          1                              shared_store           0           0           0           0
          1                           shared_atom_cas           0           0           0           0
          1                               shared_atom           0           0           0           0
          1                           global_atom_cas           0           0           0           0
          1                                atom_count           0           0           0           0
          1                                gred_count           0           0           0           0
          1                               global_load     1280000     1280000     1280000     1280000
          1                              global_store     1320000     1320000     1320000     1320000
          1                          divergent_branch           0           0           0           0
          1                                    branch     1360000     1360000     1360000     1360000
          1                             active_cycles    12915754    12915754    12915754    12915754
          1                              active_warps   404633904   404633904   404633904   404633904
          1                               active_ctas   404069259   404069259   404069259   404069259
          1                           sm_cta_launched       40000       40000       40000       40000
          1                   shared_ld_bank_conflict           0           0           0           0
          1                   shared_st_bank_conflict           0           0           0           0
          1                    shared_ld_transactions           0           0           0           0
          1                    shared_st_transactions           0           0           0           0
    Kernel: conv_gpu_shared_memory(float const *, float*, float const *, int, int)
          1                 tex0_cache_sector_queries    11519424    11519424    11519424    11519424
          1                 tex1_cache_sector_queries    11520576    11520576    11520576    11520576
          1                  tex0_cache_sector_misses     8479576     8479576     8479576     8479576
          1                  tex1_cache_sector_misses     8480424     8480424     8480424     8480424
          1                     fb_subp0_read_sectors       80004       80004       80004       80004
          1                     fb_subp1_read_sectors       80011       80011       80011       80011
          1                    fb_subp0_write_sectors       83213       83213       83213       83213
          1                    fb_subp1_write_sectors       82999       82999       82999       82999
          1              l2_subp0_write_sector_misses       83106       83106       83106       83106
          1              l2_subp1_write_sector_misses       83082       83082       83082       83082
          1               l2_subp0_read_sector_misses       80011       80011       80011       80011
          1               l2_subp1_read_sector_misses       80004       80004       80004       80004
          1          l2_subp0_read_tex_sector_queries     3120076     3120076     3120076     3120076
          1          l2_subp1_read_tex_sector_queries     3279924     3279924     3279924     3279924
          1         l2_subp0_write_tex_sector_queries     2640000     2640000     2640000     2640000
          1         l2_subp1_write_tex_sector_queries     2640000     2640000     2640000     2640000
          1             l2_subp0_read_tex_hit_sectors     3040072     3040072     3040072     3040072
          1             l2_subp1_read_tex_hit_sectors     3199920     3199920     3199920     3199920
          1            l2_subp0_write_tex_hit_sectors     2560000     2560000     2560000     2560000
          1            l2_subp1_write_tex_hit_sectors     2560000     2560000     2560000     2560000
          1        l2_subp0_total_read_sector_queries     3120272     3120272     3120272     3120272
          1        l2_subp1_total_read_sector_queries     3280123     3280123     3280123     3280123
          1       l2_subp0_total_write_sector_queries     2640001     2640001     2640001     2640001
          1       l2_subp1_total_write_sector_queries     2640005     2640005     2640005     2640005
          1       l2_subp0_read_sysmem_sector_queries           0           0           0           0
          1       l2_subp1_read_sysmem_sector_queries           0           0           0           0
          1      l2_subp0_write_sysmem_sector_queries           5           5           5           5
          1      l2_subp1_write_sysmem_sector_queries           0           0           0           0
          1                         elapsed_cycles_sm    13599996    13599996    13599996    13599996
          1                             gld_inst_8bit           0           0           0           0
          1                            gld_inst_16bit           0           0           0           0
          1                            gld_inst_32bit    42240000    42240000    42240000    42240000
          1                            gld_inst_64bit           0           0           0           0
          1                           gld_inst_128bit           0           0           0           0
          1                             gst_inst_8bit           0           0           0           0
          1                            gst_inst_16bit           0           0           0           0
          1                            gst_inst_32bit    42240000    42240000    42240000    42240000
          1                            gst_inst_64bit           0           0           0           0
          1                           gst_inst_128bit           0           0           0           0
          1                           prof_trigger_00           0           0           0           0
          1                           prof_trigger_01           0           0           0           0
          1                           prof_trigger_02           0           0           0           0
          1                           prof_trigger_03           0           0           0           0
          1                           prof_trigger_04           0           0           0           0
          1                           prof_trigger_05           0           0           0           0
          1                           prof_trigger_06           0           0           0           0
          1                           prof_trigger_07           0           0           0           0
          1                            warps_launched       40000       40000       40000       40000
          1                              inst_issued0    47335398    47335398    47335398    47335398
          1                              inst_issued1     3200204     3200204     3200204     3200204
          1                              inst_issued2     3000266     3000266     3000266     3000266
          1                             inst_executed     9200000     9200000     9200000     9200000
          1                      thread_inst_executed   294400000   294400000   294400000   294400000
          1   not_predicated_off_thread_inst_executed   290560000   290560000   290560000   290560000
          1                               local_store           0           0           0           0
          1                                local_load           0           0           0           0
          1                               shared_load     1280000     1280000     1280000     1280000
          1                              shared_store       40000       40000       40000       40000
          1                           shared_atom_cas           0           0           0           0
          1                               shared_atom           0           0           0           0
          1                           global_atom_cas           0           0           0           0
          1                                atom_count           0           0           0           0
          1                                gred_count           0           0           0           0
          1                               global_load     1320000     1320000     1320000     1320000
          1                              global_store     1320000     1320000     1320000     1320000
          1                          divergent_branch           0           0           0           0
          1                                    branch      480000      480000      480000      480000
          1                             active_cycles    13474530    13474530    13474530    13474530
          1                              active_warps   422662030   422662030   422662030   422662030
          1                               active_ctas   426998875   426998875   426998875   426998875
          1                           sm_cta_launched       40000       40000       40000       40000
          1                   shared_ld_bank_conflict           0           0           0           0
          1                   shared_st_bank_conflict           0           0           0           0
          1                    shared_ld_transactions     1280000     1280000     1280000     1280000
          1                    shared_st_transactions       40000       40000       40000       40000
    Kernel: conv_gpu(float const *, float*, float const *, int, int)
          1                 tex0_cache_sector_queries    13920696    13920696    13920696    13920696
          1                 tex1_cache_sector_queries    13919304    13919304    13919304    13919304
          1                  tex0_cache_sector_misses     9040904     9040904     9040904     9040904
          1                  tex1_cache_sector_misses     9039096     9039096     9039096     9039096
          1                     fb_subp0_read_sectors       80004       80004       80004       80004
          1                     fb_subp1_read_sectors       80011       80011       80011       80011
          1                    fb_subp0_write_sectors       83019       83019       83019       83019
          1                    fb_subp1_write_sectors       83081       83081       83081       83081
          1              l2_subp0_write_sector_misses       83042       83042       83042       83042
          1              l2_subp1_write_sector_misses       82990       82990       82990       82990
          1               l2_subp0_read_sector_misses       80011       80011       80011       80011
          1               l2_subp1_read_sector_misses       80004       80004       80004       80004
          1          l2_subp0_read_tex_sector_queries     3120076     3120076     3120076     3120076
          1          l2_subp1_read_tex_sector_queries     4399924     4399924     4399924     4399924
          1         l2_subp0_write_tex_sector_queries     2640000     2640000     2640000     2640000
          1         l2_subp1_write_tex_sector_queries     2640000     2640000     2640000     2640000
          1             l2_subp0_read_tex_hit_sectors     3040072     3040072     3040072     3040072
          1             l2_subp1_read_tex_hit_sectors     4319920     4319920     4319920     4319920
          1            l2_subp0_write_tex_hit_sectors     2560000     2560000     2560000     2560000
          1            l2_subp1_write_tex_hit_sectors     2560000     2560000     2560000     2560000
          1        l2_subp0_total_read_sector_queries     3120220     3120220     3120220     3120220
          1        l2_subp1_total_read_sector_queries     4400075     4400075     4400075     4400075
          1       l2_subp0_total_write_sector_queries     2640001     2640001     2640001     2640001
          1       l2_subp1_total_write_sector_queries     2640005     2640005     2640005     2640005
          1       l2_subp0_read_sysmem_sector_queries           0           0           0           0
          1       l2_subp1_read_sysmem_sector_queries           0           0           0           0
          1      l2_subp0_write_sysmem_sector_queries           1           1           1           1
          1      l2_subp1_write_sysmem_sector_queries           4           4           4           4
          1                         elapsed_cycles_sm    43107792    43107792    43107792    43107792
          1                             gld_inst_8bit           0           0           0           0
          1                            gld_inst_16bit           0           0           0           0
          1                            gld_inst_32bit    81920000    81920000    81920000    81920000
          1                            gld_inst_64bit           0           0           0           0
          1                           gld_inst_128bit           0           0           0           0
          1                             gst_inst_8bit           0           0           0           0
          1                            gst_inst_16bit           0           0           0           0
          1                            gst_inst_32bit    42240000    42240000    42240000    42240000
          1                            gst_inst_64bit           0           0           0           0
          1                           gst_inst_128bit           0           0           0           0
          1                           prof_trigger_00           0           0           0           0
          1                           prof_trigger_01           0           0           0           0
          1                           prof_trigger_02           0           0           0           0
          1                           prof_trigger_03           0           0           0           0
          1                           prof_trigger_04           0           0           0           0
          1                           prof_trigger_05           0           0           0           0
          1                           prof_trigger_06           0           0           0           0
          1                           prof_trigger_07           0           0           0           0
          1                            warps_launched       40000       40000       40000       40000
          1                              inst_issued0   153887662   153887662   153887662   153887662
          1                              inst_issued1    16200883    16200883    16200883    16200883
          1                              inst_issued2     1280000     1280000     1280000     1280000
          1                             inst_executed    18760000    18760000    18760000    18760000
          1                      thread_inst_executed   600320000   600320000   600320000   600320000
          1   not_predicated_off_thread_inst_executed   597760000   597760000   597760000   597760000
          1                               local_store           0           0           0           0
          1                                local_load           0           0           0           0
          1                               shared_load           0           0           0           0
          1                              shared_store           0           0           0           0
          1                           shared_atom_cas           0           0           0           0
          1                               shared_atom           0           0           0           0
          1                           global_atom_cas           0           0           0           0
          1                                atom_count           0           0           0           0
          1                                gred_count           0           0           0           0
          1                               global_load     2560000     2560000     2560000     2560000
          1                              global_store     1320000     1320000     1320000     1320000
          1                          divergent_branch           0           0           0           0
          1                                    branch     1360000     1360000     1360000     1360000
          1                             active_cycles    42854305    42854305    42854305    42854305
          1                              active_warps  1362786752  1362786752  1362786752  1362786752
          1                               active_ctas  1360208791  1360208791  1360208791  1360208791
          1                           sm_cta_launched       40000       40000       40000       40000
          1                   shared_ld_bank_conflict           0           0           0           0
          1                   shared_st_bank_conflict           0           0           0           0
          1                    shared_ld_transactions           0           0           0           0
          1                    shared_st_transactions           0           0           0           0
