Input size N: 1280000
Filter size M: 100

Device 0: "GeForce GTX TITAN X" 
d_filter y d_input, tiempo de memcpy HtoD: 1.455840
houtput <- doutput tiempo de memcpy DtoH: 4.001472
[N/M/ms_cpu/ms_gpu/ms_gpu_sm/ms_gpu_cm]= [1280000/100/536.090791/426.383881/311.325989/300.019714] 

