Input size N: 1920000
Filter size M: 128

Device 0: "Tesla V100-PCIE-16GB" 
d_filter y d_input, tiempo de memcpy HtoD: 1.396128
houtput <- doutput tiempo de memcpy DtoH: 10.365280
[N/M/ms_cpu/ms_gpu/ms_gpu_sm/ms_gpu_cm]= [1920000/128/844.528443/0.826240/0.757984/0.744480] 
