srun: job 1512975 queued and waiting for resources
srun: job 1512975 has been allocated resources
==46119== NVPROF is profiling process 46119, command: ./convolucion_float 640000 128
==46119== Some kernel(s) will be replayed on device 0 in order to collect all events/metrics.
==46119== Profiling application: ./convolucion_float 640000 128
==46119== Profiling result:
==46119== Metric result:
Invocations                               Metric Name                                    Metric Description         Min         Max         Avg
Device "GeForce GTX TITAN X (0)"
    Kernel: conv_gpu_constant_memory(float const *, float*, int, int)
          1                             sm_efficiency                               Multiprocessor Activity      97.23%      97.23%      97.23%
          1                        achieved_occupancy                                    Achieved Occupancy    0.987012    0.987012    0.987012
          1                                       ipc                                          Executed IPC    1.775070    1.775070    1.775070
          1                                issued_ipc                                            Issued IPC    1.774899    1.774899    1.774899
          1                             inst_per_warp                                 Instructions per warp  1.6840e+03  1.6840e+03  1.6840e+03
          1                         branch_efficiency                                     Branch Efficiency     100.00%     100.00%     100.00%
          1                 warp_execution_efficiency                             Warp Execution Efficiency     100.00%     100.00%     100.00%
          1         warp_nonpred_execution_efficiency              Warp Non-Predicated Execution Efficiency      99.88%      99.88%      99.88%
          1                      inst_replay_overhead                           Instruction Replay Overhead    0.000078    0.000078    0.000078
          1                    issue_slot_utilization                                Issue Slot Utilization      37.63%      37.63%      37.63%
          1      shared_load_transactions_per_request           Shared Memory Load Transactions Per Request    0.000000    0.000000    0.000000
          1     shared_store_transactions_per_request          Shared Memory Store Transactions Per Request    0.000000    0.000000    0.000000
          1       local_load_transactions_per_request            Local Memory Load Transactions Per Request    0.000000    0.000000    0.000000
          1      local_store_transactions_per_request           Local Memory Store Transactions Per Request    0.000000    0.000000    0.000000
          1              gld_transactions_per_request                  Global Load Transactions Per Request    9.500000    9.500000    9.500000
          1              gst_transactions_per_request                 Global Store Transactions Per Request    4.000000    4.000000    4.000000
          1                 shared_store_transactions                             Shared Store Transactions           0           0           0
          1                  shared_load_transactions                              Shared Load Transactions           0           0           0
          1                   local_load_transactions                               Local Load Transactions           0           0           0
          1                  local_store_transactions                              Local Store Transactions           0           0           0
          1                          gld_transactions                              Global Load Transactions    24320000    24320000    24320000
          1                          gst_transactions                             Global Store Transactions    10320000    10320000    10320000
          1                    dram_read_transactions                       Device Memory Read Transactions       79812       79812       79812
          1                   dram_write_transactions                      Device Memory Write Transactions       85644       85644       85644
          1                           global_hit_rate                                       Global Hit Rate      48.68%      48.68%      48.68%
          1                            local_hit_rate                                        Local Hit Rate       0.00%       0.00%       0.00%
          1                  gld_requested_throughput                      Requested Global Load Throughput  426.91GB/s  426.91GB/s  426.91GB/s
          1                  gst_requested_throughput                     Requested Global Store Throughput  430.25GB/s  430.25GB/s  430.25GB/s
          1                            gld_throughput                                Global Load Throughput  520.30GB/s  520.30GB/s  520.30GB/s
          1                            gst_throughput                               Global Store Throughput  430.25GB/s  430.25GB/s  430.25GB/s
          1                      dram_read_throughput                         Device Memory Read Throughput  3.3274GB/s  3.3274GB/s  3.3267GB/s
          1                     dram_write_throughput                        Device Memory Write Throughput  3.5706GB/s  3.5706GB/s  3.5698GB/s
          1                      tex_cache_throughput                              Unified Cache Throughput  426.91GB/s  426.91GB/s  426.91GB/s
          1                     local_load_throughput                          Local Memory Load Throughput  0.00000B/s  0.00000B/s  0.00000B/s
          1                    local_store_throughput                         Local Memory Store Throughput  0.00000B/s  0.00000B/s  0.00000B/s
          1                    shared_load_throughput                         Shared Memory Load Throughput  0.00000B/s  0.00000B/s  0.00000B/s
          1                   shared_store_throughput                        Shared Memory Store Throughput  0.00000B/s  0.00000B/s  0.00000B/s
          1                            gld_efficiency                         Global Memory Load Efficiency      82.05%      82.05%      82.05%
          1                            gst_efficiency                        Global Memory Store Efficiency     100.00%     100.00%     100.00%
          1                    tex_cache_transactions                            Unified Cache Transactions    10240000    10240000    10240000
          1                         cf_fu_utilization                Control-Flow Function Unit Utilization     Low (1)     Low (1)     Low (1)
          1                        tex_fu_utilization                     Texture Function Unit Utilization     Mid (6)     Mid (6)     Mid (6)
          1                       ldst_fu_utilization                  Load/Store Function Unit Utilization     Low (1)     Low (1)     Low (1)
          1           double_precision_fu_utilization            Double-Precision Function Unit Utilization    Idle (0)    Idle (0)    Idle (0)
          1                    special_fu_utilization                     Special Function Unit Utilization    Idle (0)    Idle (0)    Idle (0)
          1           single_precision_fu_utilization            Single-Precision Function Unit Utilization     Mid (4)     Mid (4)     Mid (4)
          1                             flop_count_dp           Floating Point Operations(Double Precision)           0           0           0
          1                         flop_count_dp_add       Floating Point Operations(Double Precision Add)           0           0           0
          1                         flop_count_dp_fma       Floating Point Operations(Double Precision FMA)           0           0           0
          1                         flop_count_dp_mul       Floating Point Operations(Double Precision Mul)           0           0           0
          1                             flop_count_sp           Floating Point Operations(Single Precision)   163840000   163840000   163840000
          1                         flop_count_sp_add       Floating Point Operations(Single Precision Add)           0           0           0
          1                         flop_count_sp_fma       Floating Point Operations(Single Precision FMA)    81920000    81920000    81920000
          1                         flop_count_sp_mul        Floating Point Operation(Single Precision Mul)           0           0           0
          1                     flop_count_sp_special   Floating Point Operations(Single Precision Special)           0           0           0
          1                             inst_executed                                 Instructions Executed    33680000    33680000    33680000
          1                               inst_issued                                   Instructions Issued    33682497    33682497    33682497
          1                          dram_utilization                             Device Memory Utilization     Low (1)     Low (1)     Low (1)
          1                           tex_utilization                             Unified Cache Utilization     Low (3)     Low (3)     Low (3)
          1                         shared_efficiency                              Shared Memory Efficiency       0.00%       0.00%       0.00%
          1                        shared_utilization                             Shared Memory Utilization    Idle (0)    Idle (0)    Idle (0)
          1                                inst_fp_32                               FP Instructions(Single)    81920000    81920000    81920000
          1                                inst_fp_64                               FP Instructions(Double)           0           0           0
          1                              inst_integer                                  Integer Instructions   416000000   416000000   416000000
          1                          inst_bit_convert                              Bit-Convert Instructions           0           0           0
          1                              inst_control                             Control-Flow Instructions    81920000    81920000    81920000
          1                        inst_compute_ld_st                               Load/Store Instructions   246400000   246400000   246400000
          1                                 inst_misc                                     Misc Instructions   250240000   250240000   250240000
          1           inst_inter_thread_communication                             Inter-Thread Instructions           0           0           0
          1                               issue_slots                                           Issue Slots    28562497    28562497    28562497
          1                                 cf_issued                      Issued Control-Flow Instructions     5160000     5160000     5160000
          1                               cf_executed                    Executed Control-Flow Instructions     5160000     5160000     5160000
          1                               ldst_issued                        Issued Load/Store Instructions    23160000    23160000    23160000
          1                             ldst_executed                      Executed Load/Store Instructions     7740000     7740000     7740000
          1                       atomic_transactions                                   Atomic Transactions           0           0           0
          1           atomic_transactions_per_request                       Atomic Transactions Per Request    0.000000    0.000000    0.000000
          1                          stall_inst_fetch              Issue Stall Reasons (Instructions Fetch)       4.55%       4.55%       4.55%
          1                     stall_exec_dependency            Issue Stall Reasons (Execution Dependency)       8.37%       8.37%       8.37%
          1                   stall_memory_dependency                    Issue Stall Reasons (Data Request)      84.68%      84.68%      84.68%
          1                             stall_texture                         Issue Stall Reasons (Texture)       0.00%       0.00%       0.00%
          1                                stall_sync                 Issue Stall Reasons (Synchronization)       0.00%       0.00%       0.00%
          1                               stall_other                           Issue Stall Reasons (Other)       1.55%       1.55%       1.55%
          1          stall_constant_memory_dependency              Issue Stall Reasons (Immediate constant)       0.05%       0.05%       0.05%
          1                           stall_pipe_busy                       Issue Stall Reasons (Pipe Busy)       0.05%       0.05%       0.05%
          1                     stall_memory_throttle                 Issue Stall Reasons (Memory Throttle)       0.02%       0.02%       0.02%
          1                        stall_not_selected                    Issue Stall Reasons (Not Selected)       0.73%       0.73%       0.73%
          1                  sysmem_read_transactions                       System Memory Read Transactions           0           0           0
          1                 sysmem_write_transactions                      System Memory Write Transactions           5           5           5
          1                      l2_read_transactions                                  L2 Read Transactions    12480391    12480391    12480391
          1                     l2_write_transactions                                 L2 Write Transactions    10320006    10320006    10320006
          1                          ecc_transactions                                      ECC Transactions           0           0           0
          1                     local_memory_overhead                                 Local Memory Overhead       0.00%       0.00%       0.00%
          1                        tex_cache_hit_rate                                Unified Cache Hit Rate      49.29%      49.29%      49.29%
          1                      l2_tex_read_hit_rate                           L2 Hit Rate (Texture Reads)      99.36%      99.36%      99.36%
          1                     l2_tex_write_hit_rate                          L2 Hit Rate (Texture Writes)      99.22%      99.22%      99.22%
          1                    l2_tex_read_throughput                         L2 Throughput (Texture Reads)  520.30GB/s  520.30GB/s  520.30GB/s
          1                   l2_tex_write_throughput                        L2 Throughput (Texture Writes)  430.25GB/s  430.25GB/s  430.25GB/s
          1                  l2_tex_read_transactions                       L2 Transactions (Texture Reads)    12480000    12480000    12480000
          1                 l2_tex_write_transactions                      L2 Transactions (Texture Writes)    10320000    10320000    10320000
          1                        l2_read_throughput                                 L2 Throughput (Reads)  520.32GB/s  520.32GB/s  520.32GB/s
          1                       l2_write_throughput                                L2 Throughput (Writes)  430.25GB/s  430.25GB/s  430.25GB/s
          1                    sysmem_read_throughput                         System Memory Read Throughput  0.00000B/s  0.00000B/s  0.00000B/s
          1                   sysmem_write_throughput                        System Memory Write Throughput  218.58KB/s  218.58KB/s  0.00000B/s
          1                            l2_utilization                                  L2 Cache Utilization    Max (10)    Max (10)    Max (10)
          1                      l2_atomic_throughput                       L2 Throughput (Atomic requests)  0.00000B/s  0.00000B/s  0.00000B/s
          1                    l2_atomic_transactions                     L2 Transactions (Atomic requests)           0           0           0
          1                        sysmem_utilization                             System Memory Utilization     Low (1)     Low (1)     Low (1)
          1                            ecc_throughput                                        ECC Throughput  0.00000B/s  0.00000B/s  0.00000B/s
          1                   sysmem_read_utilization                        System Memory Read Utilization    Idle (0)    Idle (0)    Idle (0)
          1                  sysmem_write_utilization                       System Memory Write Utilization     Low (1)     Low (1)     Low (1)
          1                  eligible_warps_per_cycle                       Eligible Warps Per Active Cycle    1.953162    1.953162    1.953162
          1                        flop_sp_efficiency                          FLOP Efficiency(Peak Single)       3.28%       3.28%       3.28%
          1                        flop_dp_efficiency                          FLOP Efficiency(Peak Double)       0.00%       0.00%       0.00%
    Kernel: conv_gpu_shared_memory(float const *, float*, float const *, int, int)
          1                             sm_efficiency                               Multiprocessor Activity      98.17%      98.17%      98.17%
          1                        achieved_occupancy                                    Achieved Occupancy    0.987145    0.987145    0.987145
          1                                       ipc                                          Executed IPC    0.840846    0.840846    0.840846
          1                                issued_ipc                                            Issued IPC    0.841379    0.841379    0.841379
          1                             inst_per_warp                                 Instructions per warp  806.000000  806.000000  806.000000
          1                         branch_efficiency                                     Branch Efficiency     100.00%     100.00%     100.00%
          1                 warp_execution_efficiency                             Warp Execution Efficiency     100.00%     100.00%     100.00%
          1         warp_nonpred_execution_efficiency              Warp Non-Predicated Execution Efficiency      99.63%      99.63%      99.63%
          1                      inst_replay_overhead                           Instruction Replay Overhead    0.000170    0.000170    0.000170
          1                    issue_slot_utilization                                Issue Slot Utilization      13.44%      13.44%      13.44%
          1      shared_load_transactions_per_request           Shared Memory Load Transactions Per Request    1.000000    1.000000    1.000000
          1     shared_store_transactions_per_request          Shared Memory Store Transactions Per Request    1.000000    1.000000    1.000000
          1       local_load_transactions_per_request            Local Memory Load Transactions Per Request    0.000000    0.000000    0.000000
          1      local_store_transactions_per_request           Local Memory Store Transactions Per Request    0.000000    0.000000    0.000000
          1              gld_transactions_per_request                  Global Load Transactions Per Request    9.488372    9.488372    9.488372
          1              gst_transactions_per_request                 Global Store Transactions Per Request    4.000000    4.000000    4.000000
          1                 shared_store_transactions                             Shared Store Transactions       20000       20000       20000
          1                  shared_load_transactions                              Shared Load Transactions     2560000     2560000     2560000
          1                   local_load_transactions                               Local Load Transactions           0           0           0
          1                  local_store_transactions                              Local Store Transactions           0           0           0
          1                          gld_transactions                              Global Load Transactions    24480000    24480000    24480000
          1                          gst_transactions                             Global Store Transactions    10320000    10320000    10320000
          1                    dram_read_transactions                       Device Memory Read Transactions       79391       79391       79391
          1                   dram_write_transactions                      Device Memory Write Transactions       86088       86088       86088
          1                           global_hit_rate                                       Global Hit Rate      48.69%      48.69%      48.69%
          1                            local_hit_rate                                        Local Hit Rate       0.00%       0.00%       0.00%
          1                  gld_requested_throughput                      Requested Global Load Throughput  428.97GB/s  428.97GB/s  428.97GB/s
          1                  gst_requested_throughput                     Requested Global Store Throughput  428.97GB/s  428.97GB/s  428.97GB/s
          1                            gld_throughput                                Global Load Throughput  522.08GB/s  522.08GB/s  522.08GB/s
          1                            gst_throughput                               Global Store Throughput  428.97GB/s  428.97GB/s  428.97GB/s
          1                      dram_read_throughput                         Device Memory Read Throughput  3.3000GB/s  3.3000GB/s  3.2997GB/s
          1                     dram_write_throughput                        Device Memory Write Throughput  3.5784GB/s  3.5784GB/s  3.5781GB/s
          1                      tex_cache_throughput                              Unified Cache Throughput  428.97GB/s  428.97GB/s  428.97GB/s
          1                     local_load_throughput                          Local Memory Load Throughput  0.00000B/s  0.00000B/s  0.00000B/s
          1                    local_store_throughput                         Local Memory Store Throughput  0.00000B/s  0.00000B/s  0.00000B/s
          1                    shared_load_throughput                         Shared Memory Load Throughput  425.64GB/s  425.64GB/s  425.64GB/s
          1                   shared_store_throughput                        Shared Memory Store Throughput  3.3253GB/s  3.3253GB/s  3.3248GB/s
          1                            gld_efficiency                         Global Memory Load Efficiency      82.17%      82.17%      82.17%
          1                            gst_efficiency                        Global Memory Store Efficiency     100.00%     100.00%     100.00%
          1                    tex_cache_transactions                            Unified Cache Transactions    10320000    10320000    10320000
          1                         cf_fu_utilization                Control-Flow Function Unit Utilization     Low (1)     Low (1)     Low (1)
          1                        tex_fu_utilization                     Texture Function Unit Utilization     Mid (6)     Mid (6)     Mid (6)
          1                       ldst_fu_utilization                  Load/Store Function Unit Utilization     Low (1)     Low (1)     Low (1)
          1           double_precision_fu_utilization            Double-Precision Function Unit Utilization    Idle (0)    Idle (0)    Idle (0)
          1                    special_fu_utilization                     Special Function Unit Utilization    Idle (0)    Idle (0)    Idle (0)
          1           single_precision_fu_utilization            Single-Precision Function Unit Utilization     Low (1)     Low (1)     Low (1)
          1                             flop_count_dp           Floating Point Operations(Double Precision)           0           0           0
          1                         flop_count_dp_add       Floating Point Operations(Double Precision Add)           0           0           0
          1                         flop_count_dp_fma       Floating Point Operations(Double Precision FMA)           0           0           0
          1                         flop_count_dp_mul       Floating Point Operations(Double Precision Mul)           0           0           0
          1                             flop_count_sp           Floating Point Operations(Single Precision)   163840000   163840000   163840000
          1                         flop_count_sp_add       Floating Point Operations(Single Precision Add)           0           0           0
          1                         flop_count_sp_fma       Floating Point Operations(Single Precision FMA)    81920000    81920000    81920000
          1                         flop_count_sp_mul        Floating Point Operation(Single Precision Mul)           0           0           0
          1                     flop_count_sp_special   Floating Point Operations(Single Precision Special)           0           0           0
          1                             inst_executed                                 Instructions Executed    16120000    16120000    16120000
          1                               inst_issued                                   Instructions Issued    16122736    16122736    16122736
          1                          dram_utilization                             Device Memory Utilization     Low (1)     Low (1)     Low (1)
          1                           tex_utilization                             Unified Cache Utilization     Low (3)     Low (3)     Low (3)
          1                         shared_efficiency                              Shared Memory Efficiency     100.00%     100.00%     100.00%
          1                        shared_utilization                             Shared Memory Utilization     Low (2)     Low (2)     Low (2)
          1                                inst_fp_32                               FP Instructions(Single)    81920000    81920000    81920000
          1                                inst_fp_64                               FP Instructions(Double)           0           0           0
          1                              inst_integer                                  Integer Instructions   115840000   115840000   115840000
          1                          inst_bit_convert                              Bit-Convert Instructions           0           0           0
          1                              inst_control                             Control-Flow Instructions    21120000    21120000    21120000
          1                        inst_compute_ld_st                               Load/Store Instructions   247680000   247680000   247680000
          1                                 inst_misc                                     Misc Instructions    47360000    47360000    47360000
          1           inst_inter_thread_communication                             Inter-Thread Instructions           0           0           0
          1                               issue_slots                                           Issue Slots    10301680    10301680    10301680
          1                                 cf_issued                      Issued Control-Flow Instructions      720000      720000      720000
          1                               cf_executed                    Executed Control-Flow Instructions      720000      720000      720000
          1                               ldst_issued                        Issued Load/Store Instructions    23280000    23280000    23280000
          1                             ldst_executed                      Executed Load/Store Instructions     7800000     7800000     7800000
          1                       atomic_transactions                                   Atomic Transactions           0           0           0
          1           atomic_transactions_per_request                       Atomic Transactions Per Request    0.000000    0.000000    0.000000
          1                          stall_inst_fetch              Issue Stall Reasons (Instructions Fetch)       1.86%       1.86%       1.86%
          1                     stall_exec_dependency            Issue Stall Reasons (Execution Dependency)       2.96%       2.96%       2.96%
          1                   stall_memory_dependency                    Issue Stall Reasons (Data Request)      93.95%      93.95%      93.95%
          1                             stall_texture                         Issue Stall Reasons (Texture)       0.00%       0.00%       0.00%
          1                                stall_sync                 Issue Stall Reasons (Synchronization)       0.11%       0.11%       0.11%
          1                               stall_other                           Issue Stall Reasons (Other)       1.01%       1.01%       1.01%
          1          stall_constant_memory_dependency              Issue Stall Reasons (Immediate constant)       0.03%       0.03%       0.03%
          1                           stall_pipe_busy                       Issue Stall Reasons (Pipe Busy)       0.01%       0.01%       0.01%
          1                     stall_memory_throttle                 Issue Stall Reasons (Memory Throttle)       0.00%       0.00%       0.00%
          1                        stall_not_selected                    Issue Stall Reasons (Not Selected)       0.07%       0.07%       0.07%
          1                  sysmem_read_transactions                       System Memory Read Transactions           0           0           0
          1                 sysmem_write_transactions                      System Memory Write Transactions           5           5           5
          1                      l2_read_transactions                                  L2 Read Transactions    12560103    12560103    12560103
          1                     l2_write_transactions                                 L2 Write Transactions    10320006    10320006    10320006
          1                          ecc_transactions                                      ECC Transactions           0           0           0
          1                     local_memory_overhead                                 Local Memory Overhead       0.00%       0.00%       0.00%
          1                        tex_cache_hit_rate                                Unified Cache Hit Rate      49.29%      49.29%      49.29%
          1                      l2_tex_read_hit_rate                           L2 Hit Rate (Texture Reads)      99.37%      99.37%      99.37%
          1                     l2_tex_write_hit_rate                          L2 Hit Rate (Texture Writes)      99.22%      99.22%      99.22%
          1                    l2_tex_read_throughput                         L2 Throughput (Texture Reads)  522.08GB/s  522.08GB/s  522.08GB/s
          1                   l2_tex_write_throughput                        L2 Throughput (Texture Writes)  428.97GB/s  428.97GB/s  428.97GB/s
          1                  l2_tex_read_transactions                       L2 Transactions (Texture Reads)    12560000    12560000    12560000
          1                 l2_tex_write_transactions                      L2 Transactions (Texture Writes)    10320000    10320000    10320000
          1                        l2_read_throughput                                 L2 Throughput (Reads)  522.08GB/s  522.08GB/s  522.08GB/s
          1                       l2_write_throughput                                L2 Throughput (Writes)  428.97GB/s  428.97GB/s  428.97GB/s
          1                    sysmem_read_throughput                         System Memory Read Throughput  0.00000B/s  0.00000B/s  0.00000B/s
          1                   sysmem_write_throughput                        System Memory Write Throughput  217.93KB/s  217.93KB/s  0.00000B/s
          1                            l2_utilization                                  L2 Cache Utilization    Max (10)    Max (10)    Max (10)
          1                      l2_atomic_throughput                       L2 Throughput (Atomic requests)  0.00000B/s  0.00000B/s  0.00000B/s
          1                    l2_atomic_transactions                     L2 Transactions (Atomic requests)           0           0           0
          1                        sysmem_utilization                             System Memory Utilization     Low (1)     Low (1)     Low (1)
          1                            ecc_throughput                                        ECC Throughput  0.00000B/s  0.00000B/s  0.00000B/s
          1                   sysmem_read_utilization                        System Memory Read Utilization    Idle (0)    Idle (0)    Idle (0)
          1                  sysmem_write_utilization                       System Memory Write Utilization     Low (1)     Low (1)     Low (1)
          1                  eligible_warps_per_cycle                       Eligible Warps Per Active Cycle    0.579545    0.579545    0.579545
          1                        flop_sp_efficiency                          FLOP Efficiency(Peak Single)       3.23%       3.23%       3.23%
          1                        flop_dp_efficiency                          FLOP Efficiency(Peak Double)       0.00%       0.00%       0.00%
    Kernel: conv_gpu(float const *, float*, float const *, int, int)
          1                             sm_efficiency                               Multiprocessor Activity      98.64%      98.64%      98.64%
          1                        achieved_occupancy                                    Achieved Occupancy    0.994434    0.994434    0.994434
          1                                       ipc                                          Executed IPC    0.612615    0.612615    0.612615
          1                                issued_ipc                                            Issued IPC    0.612977    0.612977    0.612977
          1                             inst_per_warp                                 Instructions per warp  1.8130e+03  1.8130e+03  1.8130e+03
          1                         branch_efficiency                                     Branch Efficiency     100.00%     100.00%     100.00%
          1                 warp_execution_efficiency                             Warp Execution Efficiency     100.00%     100.00%     100.00%
          1         warp_nonpred_execution_efficiency              Warp Non-Predicated Execution Efficiency      99.89%      99.89%      99.89%
          1                      inst_replay_overhead                           Instruction Replay Overhead    0.000063    0.000063    0.000063
          1                    issue_slot_utilization                                Issue Slot Utilization      14.24%      14.24%      14.24%
          1      shared_load_transactions_per_request           Shared Memory Load Transactions Per Request    0.000000    0.000000    0.000000
          1     shared_store_transactions_per_request          Shared Memory Store Transactions Per Request    0.000000    0.000000    0.000000
          1       local_load_transactions_per_request            Local Memory Load Transactions Per Request    0.000000    0.000000    0.000000
          1      local_store_transactions_per_request           Local Memory Store Transactions Per Request    0.000000    0.000000    0.000000
          1              gld_transactions_per_request                  Global Load Transactions Per Request    6.750000    6.750000    6.750000
          1              gst_transactions_per_request                 Global Store Transactions Per Request    4.000000    4.000000    4.000000
          1                 shared_store_transactions                             Shared Store Transactions           0           0           0
          1                  shared_load_transactions                              Shared Load Transactions           0           0           0
          1                   local_load_transactions                               Local Load Transactions           0           0           0
          1                  local_store_transactions                              Local Store Transactions           0           0           0
          1                          gld_transactions                              Global Load Transactions    34560000    34560000    34560000
          1                          gst_transactions                             Global Store Transactions    10320000    10320000    10320000
          1                    dram_read_transactions                       Device Memory Read Transactions       79807       79807       79807
          1                   dram_write_transactions                      Device Memory Write Transactions       85812       85812       85812
          1                           global_hit_rate                                       Global Hit Rate      56.48%      56.48%      56.48%
          1                            local_hit_rate                                        Local Hit Rate       0.00%       0.00%       0.00%
          1                  gld_requested_throughput                      Requested Global Load Throughput  145.01GB/s  145.01GB/s  145.01GB/s
          1                  gst_requested_throughput                     Requested Global Store Throughput  141.72GB/s  141.72GB/s  141.72GB/s
          1                            gld_throughput                                Global Load Throughput  206.53GB/s  206.53GB/s  206.53GB/s
          1                            gst_throughput                               Global Store Throughput  141.72GB/s  141.72GB/s  141.72GB/s
          1                      dram_read_throughput                         Device Memory Read Throughput  1.0959GB/s  1.0959GB/s  1.0952GB/s
          1                     dram_write_throughput                        Device Memory Write Throughput  1.1784GB/s  1.1784GB/s  1.1781GB/s
          1                      tex_cache_throughput                              Unified Cache Throughput  281.23GB/s  281.23GB/s  281.23GB/s
          1                     local_load_throughput                          Local Memory Load Throughput  0.00000B/s  0.00000B/s  0.00000B/s
          1                    local_store_throughput                         Local Memory Store Throughput  0.00000B/s  0.00000B/s  0.00000B/s
          1                    shared_load_throughput                         Shared Memory Load Throughput  0.00000B/s  0.00000B/s  0.00000B/s
          1                   shared_store_throughput                        Shared Memory Store Throughput  0.00000B/s  0.00000B/s  0.00000B/s
          1                            gld_efficiency                         Global Memory Load Efficiency      70.21%      70.21%      70.21%
          1                            gst_efficiency                        Global Memory Store Efficiency     100.00%     100.00%     100.00%
          1                    tex_cache_transactions                            Unified Cache Transactions    20480000    20480000    20480000
          1                         cf_fu_utilization                Control-Flow Function Unit Utilization     Low (1)     Low (1)     Low (1)
          1                        tex_fu_utilization                     Texture Function Unit Utilization     Low (3)     Low (3)     Low (3)
          1                       ldst_fu_utilization                  Load/Store Function Unit Utilization     Low (1)     Low (1)     Low (1)
          1           double_precision_fu_utilization            Double-Precision Function Unit Utilization    Idle (0)    Idle (0)    Idle (0)
          1                    special_fu_utilization                     Special Function Unit Utilization    Idle (0)    Idle (0)    Idle (0)
          1           single_precision_fu_utilization            Single-Precision Function Unit Utilization     Low (2)     Low (2)     Low (2)
          1                             flop_count_dp           Floating Point Operations(Double Precision)           0           0           0
          1                         flop_count_dp_add       Floating Point Operations(Double Precision Add)           0           0           0
          1                         flop_count_dp_fma       Floating Point Operations(Double Precision FMA)           0           0           0
          1                         flop_count_dp_mul       Floating Point Operations(Double Precision Mul)           0           0           0
          1                             flop_count_sp           Floating Point Operations(Single Precision)   163840000   163840000   163840000
          1                         flop_count_sp_add       Floating Point Operations(Single Precision Add)           0           0           0
          1                         flop_count_sp_fma       Floating Point Operations(Single Precision FMA)    81920000    81920000    81920000
          1                         flop_count_sp_mul        Floating Point Operation(Single Precision Mul)           0           0           0
          1                     flop_count_sp_special   Floating Point Operations(Single Precision Special)           0           0           0
          1                             inst_executed                                 Instructions Executed    36260000    36260000    36260000
          1                               inst_issued                                   Instructions Issued    36262277    36262277    36262277
          1                          dram_utilization                             Device Memory Utilization     Low (1)     Low (1)     Low (1)
          1                           tex_utilization                             Unified Cache Utilization     Low (2)     Low (2)     Low (2)
          1                         shared_efficiency                              Shared Memory Efficiency       0.00%       0.00%       0.00%
          1                        shared_utilization                             Shared Memory Utilization    Idle (0)    Idle (0)    Idle (0)
          1                                inst_fp_32                               FP Instructions(Single)    81920000    81920000    81920000
          1                                inst_fp_64                               FP Instructions(Double)           0           0           0
          1                              inst_integer                                  Integer Instructions   497920000   497920000   497920000
          1                          inst_bit_convert                              Bit-Convert Instructions           0           0           0
          1                              inst_control                             Control-Flow Instructions    81920000    81920000    81920000
          1                        inst_compute_ld_st                               Load/Store Instructions   246400000   246400000   246400000
          1                                 inst_misc                                     Misc Instructions   250880000   250880000   250880000
          1           inst_inter_thread_communication                             Inter-Thread Instructions           0           0           0
          1                               issue_slots                                           Issue Slots    33702277    33702277    33702277
          1                                 cf_issued                      Issued Control-Flow Instructions     2600000     2600000     2600000
          1                               cf_executed                    Executed Control-Flow Instructions     2600000     2600000     2600000
          1                               ldst_issued                        Issued Load/Store Instructions    30840000    30840000    30840000
          1                             ldst_executed                      Executed Load/Store Instructions     7740000     7740000     7740000
          1                       atomic_transactions                                   Atomic Transactions           0           0           0
          1           atomic_transactions_per_request                       Atomic Transactions Per Request    0.000000    0.000000    0.000000
          1                          stall_inst_fetch              Issue Stall Reasons (Instructions Fetch)       0.44%       0.44%       0.44%
          1                     stall_exec_dependency            Issue Stall Reasons (Execution Dependency)       3.58%       3.58%       3.58%
          1                   stall_memory_dependency                    Issue Stall Reasons (Data Request)      95.45%      95.45%      95.45%
          1                             stall_texture                         Issue Stall Reasons (Texture)       0.00%       0.00%       0.00%
          1                                stall_sync                 Issue Stall Reasons (Synchronization)       0.00%       0.00%       0.00%
          1                               stall_other                           Issue Stall Reasons (Other)       0.42%       0.42%       0.42%
          1          stall_constant_memory_dependency              Issue Stall Reasons (Immediate constant)       0.01%       0.01%       0.01%
          1                           stall_pipe_busy                       Issue Stall Reasons (Pipe Busy)       0.01%       0.01%       0.01%
          1                     stall_memory_throttle                 Issue Stall Reasons (Memory Throttle)       0.01%       0.01%       0.01%
          1                        stall_not_selected                    Issue Stall Reasons (Not Selected)       0.08%       0.08%       0.08%
          1                  sysmem_read_transactions                       System Memory Read Transactions           0           0           0
          1                 sysmem_write_transactions                      System Memory Write Transactions           5           5           5
          1                      l2_read_transactions                                  L2 Read Transactions    15040103    15040103    15040103
          1                     l2_write_transactions                                 L2 Write Transactions    10320006    10320006    10320006
          1                          ecc_transactions                                      ECC Transactions           0           0           0
          1                     local_memory_overhead                                 Local Memory Overhead       0.00%       0.00%       0.00%
          1                        tex_cache_hit_rate                                Unified Cache Hit Rate      54.06%      54.06%      54.06%
          1                      l2_tex_read_hit_rate                           L2 Hit Rate (Texture Reads)      99.47%      99.47%      99.47%
          1                     l2_tex_write_hit_rate                          L2 Hit Rate (Texture Writes)      99.22%      99.22%      99.22%
          1                    l2_tex_read_throughput                         L2 Throughput (Texture Reads)  206.53GB/s  206.53GB/s  206.53GB/s
          1                   l2_tex_write_throughput                        L2 Throughput (Texture Writes)  141.72GB/s  141.72GB/s  141.72GB/s
          1                  l2_tex_read_transactions                       L2 Transactions (Texture Reads)    15040000    15040000    15040000
          1                 l2_tex_write_transactions                      L2 Transactions (Texture Writes)    10320000    10320000    10320000
          1                        l2_read_throughput                                 L2 Throughput (Reads)  206.53GB/s  206.53GB/s  206.53GB/s
          1                       l2_write_throughput                                L2 Throughput (Writes)  141.72GB/s  141.72GB/s  141.72GB/s
          1                    sysmem_read_throughput                         System Memory Read Throughput  0.00000B/s  0.00000B/s  0.00000B/s
          1                   sysmem_write_throughput                        System Memory Write Throughput  71.995KB/s  71.995KB/s  0.00000B/s
          1                            l2_utilization                                  L2 Cache Utilization     Mid (5)     Mid (5)     Mid (5)
          1                      l2_atomic_throughput                       L2 Throughput (Atomic requests)  0.00000B/s  0.00000B/s  0.00000B/s
          1                    l2_atomic_transactions                     L2 Transactions (Atomic requests)           0           0           0
          1                        sysmem_utilization                             System Memory Utilization     Low (1)     Low (1)     Low (1)
          1                            ecc_throughput                                        ECC Throughput  0.00000B/s  0.00000B/s  0.00000B/s
          1                   sysmem_read_utilization                        System Memory Read Utilization    Idle (0)    Idle (0)    Idle (0)
          1                  sysmem_write_utilization                       System Memory Write Utilization     Low (1)     Low (1)     Low (1)
          1                  eligible_warps_per_cycle                       Eligible Warps Per Active Cycle    0.622159    0.622159    0.622159
          1                        flop_sp_efficiency                          FLOP Efficiency(Peak Single)       1.10%       1.10%       1.10%
          1                        flop_dp_efficiency                          FLOP Efficiency(Peak Double)       0.00%       0.00%       0.00%
