Input size N: 1280000
Filter size M: 128

Device 0: "Tesla V100-PCIE-16GB" 
d_filter y d_input, tiempo de memcpy HtoD: 1.295136
houtput <- doutput tiempo de memcpy DtoH: 6.890656
[N/M/ms_cpu/ms_gpu/ms_gpu_sm/ms_gpu_cm]= [1280000/128/562.851160/0.546208/0.503328/0.495872] 
