Input size N: 1280000
Filter size M: 128

Device 0: "Tesla V100-PCIE-16GB" 
d_filter y d_input, tiempo de memcpy HtoD: 1.783808
houtput <- doutput tiempo de memcpy DtoH: 13.572128
[N/M/ms_cpu/ms_gpu/ms_gpu_sm/ms_gpu_cm]= [1280000/128/566.545045/1.020928/0.999552/0.990208] 
