Input size N: 1280000
Filter size M: 200

Device 0: "GeForce GTX 980" 
d_filter y d_input, tiempo de memcpy HtoD: 4.047616
houtput <- doutput tiempo de memcpy DtoH: 3.192384
[N/M/ms_cpu/ms_gpu/ms_gpu_sm/ms_gpu_cm]= [1280000/200/1029.437479/1537.931519/1019.596558/1188.909546] 
