srun: job 1512983 queued and waiting for resources
srun: job 1512983 has been allocated resources
==123145== NVPROF is profiling process 123145, command: ./convolucion_float 1280000 128
==123145== Some kernel(s) will be replayed on device 0 in order to collect all events/metrics.
==123145== Profiling application: ./convolucion_float 1280000 128
==123145== Profiling result:
==123145== Event result:
Invocations                                Event Name         Min         Max         Avg       Total
Device "GeForce GTX 980 (0)"
    Kernel: conv_gpu_constant_memory(float const *, float*, int, int)
          1                 tex0_cache_sector_queries    44960000    44960000    44960000    44960000
          1                 tex1_cache_sector_queries    44960000    44960000    44960000    44960000
          1                  tex0_cache_sector_misses    33120000    33120000    33120000    33120000
          1                  tex1_cache_sector_misses    33120000    33120000    33120000    33120000
          1                     fb_subp0_read_sectors       80008       80008       80008       80008
          1                     fb_subp1_read_sectors       80016       80016       80016       80016
          1                    fb_subp0_write_sectors       82183       82183       82183       82183
          1                    fb_subp1_write_sectors       82039       82039       82039       82039
          1              l2_subp0_write_sector_misses       82213       82213       82213       82213
          1              l2_subp1_write_sector_misses       82205       82205       82205       82205
          1               l2_subp0_read_sector_misses       80008       80008       80008       80008
          1               l2_subp1_read_sector_misses       80016       80016       80016       80016
          1          l2_subp0_read_tex_sector_queries    12480624    12480624    12480624    12480624
          1          l2_subp1_read_tex_sector_queries    12479376    12479376    12479376    12479376
          1         l2_subp0_write_tex_sector_queries    10320000    10320000    10320000    10320000
          1         l2_subp1_write_tex_sector_queries    10320000    10320000    10320000    10320000
          1             l2_subp0_read_tex_hit_sectors    12400616    12400616    12400616    12400616
          1             l2_subp1_read_tex_hit_sectors    12399368    12399368    12399368    12399368
          1            l2_subp0_write_tex_hit_sectors    10240000    10240000    10240000    10240000
          1            l2_subp1_write_tex_hit_sectors    10240000    10240000    10240000    10240000
          1        l2_subp0_total_read_sector_queries    12480688    12480688    12480688    12480688
          1        l2_subp1_total_read_sector_queries    12479447    12479447    12479447    12479447
          1       l2_subp0_total_write_sector_queries    10320000    10320000    10320000    10320000
          1       l2_subp1_total_write_sector_queries    10320006    10320006    10320006    10320006
          1       l2_subp0_read_sysmem_sector_queries           0           0           0           0
          1       l2_subp1_read_sysmem_sector_queries           0           0           0           0
          1      l2_subp0_write_sysmem_sector_queries           0           0           0           0
          1      l2_subp1_write_sysmem_sector_queries           5           5           5           5
          1                         elapsed_cycles_sm    37815632    37815632    37815632    37815632
          1                             gld_inst_8bit           0           0           0           0
          1                            gld_inst_16bit           0           0           0           0
          1                            gld_inst_32bit   163840000   163840000   163840000   163840000
          1                            gld_inst_64bit           0           0           0           0
          1                           gld_inst_128bit           0           0           0           0
          1                             gst_inst_8bit           0           0           0           0
          1                            gst_inst_16bit           0           0           0           0
          1                            gst_inst_32bit   165120000   165120000   165120000   165120000
          1                            gst_inst_64bit           0           0           0           0
          1                           gst_inst_128bit           0           0           0           0
          1                           prof_trigger_00           0           0           0           0
          1                           prof_trigger_01           0           0           0           0
          1                           prof_trigger_02           0           0           0           0
          1                           prof_trigger_03           0           0           0           0
          1                           prof_trigger_04           0           0           0           0
          1                           prof_trigger_05           0           0           0           0
          1                           prof_trigger_06           0           0           0           0
          1                           prof_trigger_07           0           0           0           0
          1                            warps_launched       40000       40000       40000       40000
          1                              inst_issued0    92739986    92739986    92739986    92739986
          1                              inst_issued1    46883499    46883499    46883499    46883499
          1                              inst_issued2    10240000    10240000    10240000    10240000
          1                             inst_executed    67360000    67360000    67360000    67360000
          1                      thread_inst_executed  2155520000  2155520000  2155520000  2155520000
          1   not_predicated_off_thread_inst_executed  2152960000  2152960000  2152960000  2152960000
          1                               local_store           0           0           0           0
          1                                local_load           0           0           0           0
          1                               shared_load           0           0           0           0
          1                              shared_store           0           0           0           0
          1                           shared_atom_cas           0           0           0           0
          1                               shared_atom           0           0           0           0
          1                           global_atom_cas           0           0           0           0
          1                                atom_count           0           0           0           0
          1                                gred_count           0           0           0           0
          1                               global_load     5120000     5120000     5120000     5120000
          1                              global_store     5160000     5160000     5160000     5160000
          1                          divergent_branch           0           0           0           0
          1                                    branch     5200000     5200000     5200000     5200000
          1                             active_cycles    37654793    37654793    37654793    37654793
          1                              active_warps  2383404670  2383404670  2383404670  2383404670
          1                               active_ctas   597342821   597342821   597342821   597342821
          1                           sm_cta_launched       10000       10000       10000       10000
          1                   shared_ld_bank_conflict           0           0           0           0
          1                   shared_st_bank_conflict           0           0           0           0
          1                    shared_ld_transactions           0           0           0           0
          1                    shared_st_transactions           0           0           0           0
    Kernel: conv_gpu_shared_memory(float const *, float*, float const *, int, int)
          1                 tex0_cache_sector_queries    45120000    45120000    45120000    45120000
          1                 tex1_cache_sector_queries    45120000    45120000    45120000    45120000
          1                  tex0_cache_sector_misses    33200000    33200000    33200000    33200000
          1                  tex1_cache_sector_misses    33200000    33200000    33200000    33200000
          1                     fb_subp0_read_sectors       80023       80023       80023       80023
          1                     fb_subp1_read_sectors       80016       80016       80016       80016
          1                    fb_subp0_write_sectors       82003       82003       82003       82003
          1                    fb_subp1_write_sectors       81995       81995       81995       81995
          1              l2_subp0_write_sector_misses       81921       81921       81921       81921
          1              l2_subp1_write_sector_misses       82041       82041       82041       82041
          1               l2_subp0_read_sector_misses       80016       80016       80016       80016
          1               l2_subp1_read_sector_misses       80023       80023       80023       80023
          1          l2_subp0_read_tex_sector_queries    12560624    12560624    12560624    12560624
          1          l2_subp1_read_tex_sector_queries    12559376    12559376    12559376    12559376
          1         l2_subp0_write_tex_sector_queries    10320000    10320000    10320000    10320000
          1         l2_subp1_write_tex_sector_queries    10320000    10320000    10320000    10320000
          1             l2_subp0_read_tex_hit_sectors    12480608    12480608    12480608    12480608
          1             l2_subp1_read_tex_hit_sectors    12479360    12479360    12479360    12479360
          1            l2_subp0_write_tex_hit_sectors    10240000    10240000    10240000    10240000
          1            l2_subp1_write_tex_hit_sectors    10240000    10240000    10240000    10240000
          1        l2_subp0_total_read_sector_queries    12560752    12560752    12560752    12560752
          1        l2_subp1_total_read_sector_queries    12559511    12559511    12559511    12559511
          1       l2_subp0_total_write_sector_queries    10320000    10320000    10320000    10320000
          1       l2_subp1_total_write_sector_queries    10320006    10320006    10320006    10320006
          1       l2_subp0_read_sysmem_sector_queries           0           0           0           0
          1       l2_subp1_read_sysmem_sector_queries           0           0           0           0
          1      l2_subp0_write_sysmem_sector_queries           0           0           0           0
          1      l2_subp1_write_sysmem_sector_queries           5           5           5           5
          1                         elapsed_cycles_sm    38224496    38224496    38224496    38224496
          1                             gld_inst_8bit           0           0           0           0
          1                            gld_inst_16bit           0           0           0           0
          1                            gld_inst_32bit   165120000   165120000   165120000   165120000
          1                            gld_inst_64bit           0           0           0           0
          1                           gld_inst_128bit           0           0           0           0
          1                             gst_inst_8bit           0           0           0           0
          1                            gst_inst_16bit           0           0           0           0
          1                            gst_inst_32bit   165120000   165120000   165120000   165120000
          1                            gst_inst_64bit           0           0           0           0
          1                           gst_inst_128bit           0           0           0           0
          1                           prof_trigger_00           0           0           0           0
          1                           prof_trigger_01           0           0           0           0
          1                           prof_trigger_02           0           0           0           0
          1                           prof_trigger_03           0           0           0           0
          1                           prof_trigger_04           0           0           0           0
          1                           prof_trigger_05           0           0           0           0
          1                           prof_trigger_06           0           0           0           0
          1                           prof_trigger_07           0           0           0           0
          1                            warps_launched       40000       40000       40000       40000
          1                              inst_issued0   130789258   130789258   130789258   130789258
          1                              inst_issued1    11520697    11520697    11520697    11520697
          1                              inst_issued2    10360995    10360995    10360995    10360995
          1                             inst_executed    32240000    32240000    32240000    32240000
          1                      thread_inst_executed  1031680000  1031680000  1031680000  1031680000
          1   not_predicated_off_thread_inst_executed  1027840000  1027840000  1027840000  1027840000
          1                               local_store           0           0           0           0
          1                                local_load           0           0           0           0
          1                               shared_load     5120000     5120000     5120000     5120000
          1                              shared_store       40000       40000       40000       40000
          1                           shared_atom_cas           0           0           0           0
          1                               shared_atom           0           0           0           0
          1                           global_atom_cas           0           0           0           0
          1                                atom_count           0           0           0           0
          1                                gred_count           0           0           0           0
          1                               global_load     5160000     5160000     5160000     5160000
          1                              global_store     5160000     5160000     5160000     5160000
          1                          divergent_branch           0           0           0           0
          1                                    branch     1440000     1440000     1440000     1440000
          1                             active_cycles    37922600    37922600    37922600    37922600
          1                              active_warps  2402362724  2402362724  2402362724  2402362724
          1                               active_ctas   609275988   609275988   609275988   609275988
          1                           sm_cta_launched       10000       10000       10000       10000
          1                   shared_ld_bank_conflict           0           0           0           0
          1                   shared_st_bank_conflict           0           0           0           0
          1                    shared_ld_transactions     5120000     5120000     5120000     5120000
          1                    shared_st_transactions       40000       40000       40000       40000
    Kernel: conv_gpu(float const *, float*, float const *, int, int)
          1                 tex0_cache_sector_queries    55200000    55200000    55200000    55200000
          1                 tex1_cache_sector_queries    55200000    55200000    55200000    55200000
          1                  tex0_cache_sector_misses    35680000    35680000    35680000    35680000
          1                  tex1_cache_sector_misses    35680000    35680000    35680000    35680000
          1                     fb_subp0_read_sectors       80023       80023       80023       80023
          1                     fb_subp1_read_sectors       80016       80016       80016       80016
          1                    fb_subp0_write_sectors       82287       82287       82287       82287
          1                    fb_subp1_write_sectors       82247       82247       82247       82247
          1              l2_subp0_write_sector_misses       82233       82233       82233       82233
          1              l2_subp1_write_sector_misses       82269       82269       82269       82269
          1               l2_subp0_read_sector_misses       80016       80016       80016       80016
          1               l2_subp1_read_sector_misses       80023       80023       80023       80023
          1          l2_subp0_read_tex_sector_queries    15040624    15040624    15040624    15040624
          1          l2_subp1_read_tex_sector_queries    15039376    15039376    15039376    15039376
          1         l2_subp0_write_tex_sector_queries    10320000    10320000    10320000    10320000
          1         l2_subp1_write_tex_sector_queries    10320000    10320000    10320000    10320000
          1             l2_subp0_read_tex_hit_sectors    14960608    14960608    14960608    14960608
          1             l2_subp1_read_tex_hit_sectors    14959360    14959360    14959360    14959360
          1            l2_subp0_write_tex_hit_sectors    10240000    10240000    10240000    10240000
          1            l2_subp1_write_tex_hit_sectors    10240000    10240000    10240000    10240000
          1        l2_subp0_total_read_sector_queries    15040688    15040688    15040688    15040688
          1        l2_subp1_total_read_sector_queries    15039483    15039483    15039483    15039483
          1       l2_subp0_total_write_sector_queries    10320004    10320004    10320004    10320004
          1       l2_subp1_total_write_sector_queries    10320002    10320002    10320002    10320002
          1       l2_subp0_read_sysmem_sector_queries           0           0           0           0
          1       l2_subp1_read_sysmem_sector_queries           0           0           0           0
          1      l2_subp0_write_sysmem_sector_queries           4           4           4           4
          1      l2_subp1_write_sysmem_sector_queries           1           1           1           1
          1                         elapsed_cycles_sm    80740064    80740064    80740064    80740064
          1                             gld_inst_8bit           0           0           0           0
          1                            gld_inst_16bit           0           0           0           0
          1                            gld_inst_32bit   327680000   327680000   327680000   327680000
          1                            gld_inst_64bit           0           0           0           0
          1                           gld_inst_128bit           0           0           0           0
          1                             gst_inst_8bit           0           0           0           0
          1                            gst_inst_16bit           0           0           0           0
          1                            gst_inst_32bit   165120000   165120000   165120000   165120000
          1                            gst_inst_64bit           0           0           0           0
          1                           gst_inst_128bit           0           0           0           0
          1                           prof_trigger_00           0           0           0           0
          1                           prof_trigger_01           0           0           0           0
          1                           prof_trigger_02           0           0           0           0
          1                           prof_trigger_03           0           0           0           0
          1                           prof_trigger_04           0           0           0           0
          1                           prof_trigger_05           0           0           0           0
          1                           prof_trigger_06           0           0           0           0
          1                           prof_trigger_07           0           0           0           0
          1                            warps_launched       40000       40000       40000       40000
          1                              inst_issued0   250849814   250849814   250849814   250849814
          1                              inst_issued1    62282774    62282774    62282774    62282774
          1                              inst_issued2     5120000     5120000     5120000     5120000
          1                             inst_executed    72520000    72520000    72520000    72520000
          1                      thread_inst_executed  2320640000  2320640000  2320640000  2320640000
          1   not_predicated_off_thread_inst_executed  2318080000  2318080000  2318080000  2318080000
          1                               local_store           0           0           0           0
          1                                local_load           0           0           0           0
          1                               shared_load           0           0           0           0
          1                              shared_store           0           0           0           0
          1                           shared_atom_cas           0           0           0           0
          1                               shared_atom           0           0           0           0
          1                           global_atom_cas           0           0           0           0
          1                                atom_count           0           0           0           0
          1                                gred_count           0           0           0           0
          1                               global_load    10240000    10240000    10240000    10240000
          1                              global_store     5160000     5160000     5160000     5160000
          1                          divergent_branch           0           0           0           0
          1                                    branch     5200000     5200000     5200000     5200000
          1                             active_cycles    80315970    80315970    80315970    80315970
          1                              active_warps  5114069442  5114069442  5114069442  5114069442
          1                               active_ctas  1282618718  1282618718  1282618718  1282618718
          1                           sm_cta_launched       10000       10000       10000       10000
          1                   shared_ld_bank_conflict           0           0           0           0
          1                   shared_st_bank_conflict           0           0           0           0
          1                    shared_ld_transactions           0           0           0           0
          1                    shared_st_transactions           0           0           0           0
