Input size N: 640000
Filter size M: 128

Device 0: "GeForce GTX TITAN X" 
d_filter y d_input, tiempo de memcpy HtoD: 1.712160
houtput <- doutput tiempo de memcpy DtoH: 2.288096
[N/M/ms_cpu/ms_gpu/ms_gpu_sm/ms_gpu_cm]= [640000/128/343.756620/2.577920/0.899712/0.864608] 
