Input size N: 1280000
Filter size M: 100

Device 0: "Tesla V100-PCIE-16GB" 
d_filter y d_input, tiempo de memcpy HtoD: 1.836032
houtput <- doutput tiempo de memcpy DtoH: 13.487424
[N/M/ms_cpu/ms_gpu/ms_gpu_sm/ms_gpu_cm]= [1280000/100/446.799031/0.819200/0.790720/0.777216] 
