Input size N: 1280000
Filter size M: 200

Device 0: "GeForce GTX 980" 
d_filter y d_input, tiempo de memcpy HtoD: 8.414912
houtput <- doutput tiempo de memcpy DtoH: 4.584992
[N/M/ms_cpu/ms_gpu/ms_gpu_sm/ms_gpu_cm]= [1280000/200/994.543127/8.237472/8.848032/6.452544] 
