Input size N: 1280000
Filter size M: 100

Device 0: "GeForce GTX TITAN X" 
d_filter y d_input, tiempo de memcpy HtoD: 1.527968
houtput <- doutput tiempo de memcpy DtoH: 4.251104
[N/M/ms_cpu/ms_gpu/ms_gpu_sm/ms_gpu_cm]= [1280000/100/539.126098/5.745856/3.918080/2.544128] 
