srun: job 1513010 queued and waiting for resources
srun: job 1513010 has been allocated resources
==52781== NVPROF is profiling process 52781, command: ./convolucion_double 1280000 100
==52781== Some kernel(s) will be replayed on device 0 in order to collect all events/metrics.
==52781== Profiling application: ./convolucion_double 1280000 100
==52781== Profiling result:
==52781== Event result:
Invocations                                Event Name         Min         Max         Avg       Total
Device "GeForce GTX TITAN X (0)"
    Kernel: conv_gpu(double const *, double*, double const *, int, int)
          1                 tex0_cache_sector_queries    52482232    52482232    52482232    52482232
          1                 tex1_cache_sector_queries    52477768    52477768    52477768    52477768
          1                  tex0_cache_sector_misses    36640000    36640000    36640000    36640000
          1                  tex1_cache_sector_misses    36640000    36640000    36640000    36640000
          1                     fb_subp0_read_sectors      160050      160050      160050      160050
          1                     fb_subp1_read_sectors      160039      160039      160039      160039
          1                    fb_subp0_write_sectors      162468      162468      162468      162468
          1                    fb_subp1_write_sectors      162585      162585      162585      162585
          1              l2_subp0_write_sector_misses      162482      162482      162482      162482
          1              l2_subp1_write_sector_misses      162415      162415      162415      162415
          1               l2_subp0_read_sector_misses      160039      160039      160039      160039
          1               l2_subp1_read_sector_misses      160018      160018      160018      160018
          1          l2_subp0_read_tex_sector_queries    21197269    21197269    21197269    21197269
          1          l2_subp1_read_tex_sector_queries    19762731    19762731    19762731    19762731
          1         l2_subp0_write_tex_sector_queries    16160000    16160000    16160000    16160000
          1         l2_subp1_write_tex_sector_queries    16160000    16160000    16160000    16160000
          1             l2_subp0_read_tex_hit_sectors    21037237    21037237    21037237    21037237
          1             l2_subp1_read_tex_hit_sectors    19602713    19602713    19602713    19602713
          1            l2_subp0_write_tex_hit_sectors    16035243    16035243    16035243    16035243
          1            l2_subp1_write_tex_hit_sectors    16035206    16035206    16035206    16035206
          1        l2_subp0_total_read_sector_queries    21197333    21197333    21197333    21197333
          1        l2_subp1_total_read_sector_queries    19762802    19762802    19762802    19762802
          1       l2_subp0_total_write_sector_queries    16160000    16160000    16160000    16160000
          1       l2_subp1_total_write_sector_queries    16160006    16160006    16160006    16160006
          1       l2_subp0_read_sysmem_sector_queries           0           0           0           0
          1       l2_subp1_read_sysmem_sector_queries           0           0           0           0
          1      l2_subp0_write_sysmem_sector_queries           0           0           0           0
          1      l2_subp1_write_sysmem_sector_queries           5           5           5           5
          1                         elapsed_cycles_sm   133370556   133370556   133370556   133370556
          1                             gld_inst_8bit           0           0           0           0
          1                            gld_inst_16bit           0           0           0           0
          1                            gld_inst_32bit           0           0           0           0
          1                            gld_inst_64bit   256000000   256000000   256000000   256000000
          1                           gld_inst_128bit           0           0           0           0
          1                             gst_inst_8bit           0           0           0           0
          1                            gst_inst_16bit           0           0           0           0
          1                            gst_inst_32bit           0           0           0           0
          1                            gst_inst_64bit   129280000   129280000   129280000   129280000
          1                           gst_inst_128bit           0           0           0           0
          1                           prof_trigger_00           0           0           0           0
          1                           prof_trigger_01           0           0           0           0
          1                           prof_trigger_02           0           0           0           0
          1                           prof_trigger_03           0           0           0           0
          1                           prof_trigger_04           0           0           0           0
          1                           prof_trigger_05           0           0           0           0
          1                           prof_trigger_06           0           0           0           0
          1                           prof_trigger_07           0           0           0           0
          1                            warps_launched       51200       51200       51200       51200
          1                              inst_issued0   454502467   454502467   454502467   454502467
          1                              inst_issued1    67691038    67691038    67691038    67691038
          1                              inst_issued2     5120000     5120000     5120000     5120000
          1                             inst_executed    77926400    77926400    77926400    77926400
          1                      thread_inst_executed  1948160000  1948160000  1948160000  1948160000
          1   not_predicated_off_thread_inst_executed  1945600000  1945600000  1945600000  1945600000
          1                               local_store           0           0           0           0
          1                                local_load           0           0           0           0
          1                               shared_load           0           0           0           0
          1                              shared_store           0           0           0           0
          1                           shared_atom_cas           0           0           0           0
          1                               shared_atom           0           0           0           0
          1                           global_atom_cas           0           0           0           0
          1                                atom_count           0           0           0           0
          1                                gred_count           0           0           0           0
          1                               global_load    10240000    10240000    10240000    10240000
          1                              global_store     5171200     5171200     5171200     5171200
          1                          divergent_branch           0           0           0           0
          1                                    branch     5222400     5222400     5222400     5222400
          1                             active_cycles   132349144   132349144   132349144   132349144
          1                              active_warps  8398006740  8398006740  8398006740  8398006740
          1                               active_ctas  2118881673  2118881673  2118881673  2118881673
          1                           sm_cta_launched       12800       12800       12800       12800
          1                   shared_ld_bank_conflict           0           0           0           0
          1                   shared_st_bank_conflict           0           0           0           0
          1                    shared_ld_transactions           0           0           0           0
          1                    shared_st_transactions           0           0           0           0
    Kernel: conv_gpu_constant_memory(double const *, double*, int, int)
          1                 tex0_cache_sector_queries    44160000    44160000    44160000    44160000
          1                 tex1_cache_sector_queries    44160000    44160000    44160000    44160000
          1                  tex0_cache_sector_misses    34080000    34080000    34080000    34080000
          1                  tex1_cache_sector_misses    34080000    34080000    34080000    34080000
          1                     fb_subp0_read_sectors      160025      160025      160025      160025
          1                     fb_subp1_read_sectors      160033      160033      160033      160033
          1                    fb_subp0_write_sectors      162550      162550      162550      162550
          1                    fb_subp1_write_sectors      161950      161950      161950      161950
          1              l2_subp0_write_sector_misses      162572      162572      162572      162572
          1              l2_subp1_write_sector_misses      162597      162597      162597      162597
          1               l2_subp0_read_sector_misses      160024      160024      160024      160024
          1               l2_subp1_read_sector_misses      160009      160009      160009      160009
          1          l2_subp0_read_tex_sector_queries    17920469    17920469    17920469    17920469
          1          l2_subp1_read_tex_sector_queries    17919531    17919531    17919531    17919531
          1         l2_subp0_write_tex_sector_queries    16160000    16160000    16160000    16160000
          1         l2_subp1_write_tex_sector_queries    16160000    16160000    16160000    16160000
          1             l2_subp0_read_tex_hit_sectors    17760453    17760453    17760453    17760453
          1             l2_subp1_read_tex_hit_sectors    17759522    17759522    17759522    17759522
          1            l2_subp0_write_tex_hit_sectors    16034750    16034750    16034750    16034750
          1            l2_subp1_write_tex_hit_sectors    16034615    16034615    16034615    16034615
          1        l2_subp0_total_read_sector_queries    17920613    17920613    17920613    17920613
          1        l2_subp1_total_read_sector_queries    17919682    17919682    17919682    17919682
          1       l2_subp0_total_write_sector_queries    16160002    16160002    16160002    16160002
          1       l2_subp1_total_write_sector_queries    16160004    16160004    16160004    16160004
          1       l2_subp0_read_sysmem_sector_queries           0           0           0           0
          1       l2_subp1_read_sysmem_sector_queries           0           0           0           0
          1      l2_subp0_write_sysmem_sector_queries           0           0           0           0
          1      l2_subp1_write_sysmem_sector_queries           5           5           5           5
          1                         elapsed_cycles_sm    57659168    57659168    57659168    57659168
          1                             gld_inst_8bit           0           0           0           0
          1                            gld_inst_16bit           0           0           0           0
          1                            gld_inst_32bit           0           0           0           0
          1                            gld_inst_64bit   128000000   128000000   128000000   128000000
          1                           gld_inst_128bit           0           0           0           0
          1                             gst_inst_8bit           0           0           0           0
          1                            gst_inst_16bit           0           0           0           0
          1                            gst_inst_32bit           0           0           0           0
          1                            gst_inst_64bit   129280000   129280000   129280000   129280000
          1                           gst_inst_128bit           0           0           0           0
          1                           prof_trigger_00           0           0           0           0
          1                           prof_trigger_01           0           0           0           0
          1                           prof_trigger_02           0           0           0           0
          1                           prof_trigger_03           0           0           0           0
          1                           prof_trigger_04           0           0           0           0
          1                           prof_trigger_05           0           0           0           0
          1                           prof_trigger_06           0           0           0           0
          1                           prof_trigger_07           0           0           0           0
          1                            warps_launched       51200       51200       51200       51200
          1                              inst_issued0   170483125   170483125   170483125   170483125
          1                              inst_issued1    52279699    52279699    52279699    52279699
          1                              inst_issued2     5120000     5120000     5120000     5120000
          1                             inst_executed    62515200    62515200    62515200    62515200
          1                      thread_inst_executed  1562880000  1562880000  1562880000  1562880000
          1   not_predicated_off_thread_inst_executed  1560320000  1560320000  1560320000  1560320000
          1                               local_store           0           0           0           0
          1                                local_load           0           0           0           0
          1                               shared_load           0           0           0           0
          1                              shared_store           0           0           0           0
          1                           shared_atom_cas           0           0           0           0
          1                               shared_atom           0           0           0           0
          1                           global_atom_cas           0           0           0           0
          1                                atom_count           0           0           0           0
          1                                gred_count           0           0           0           0
          1                               global_load     5120000     5120000     5120000     5120000
          1                              global_store     5171200     5171200     5171200     5171200
          1                          divergent_branch           0           0           0           0
          1                                    branch     5222400     5222400     5222400     5222400
          1                             active_cycles    56893585    56893585    56893585    56893585
          1                              active_warps  3594647430  3594647430  3594647430  3594647430
          1                               active_ctas   908734553   908734553   908734553   908734553
          1                           sm_cta_launched       12800       12800       12800       12800
          1                   shared_ld_bank_conflict           0           0           0           0
          1                   shared_st_bank_conflict           0           0           0           0
          1                    shared_ld_transactions           0           0           0           0
          1                    shared_st_transactions           0           0           0           0
    Kernel: conv_gpu_shared_memory(double const *, double*, double const *, int, int)
          1                 tex0_cache_sector_queries    44325817    44325817    44325817    44325817
          1                 tex1_cache_sector_queries    44314183    44314183    44314183    44314183
          1                  tex0_cache_sector_misses    34244242    34244242    34244242    34244242
          1                  tex1_cache_sector_misses    34235758    34235758    34235758    34235758
          1                     fb_subp0_read_sectors      160050      160050      160050      160050
          1                     fb_subp1_read_sectors      160007      160007      160007      160007
          1                    fb_subp0_write_sectors      162472      162472      162472      162472
          1                    fb_subp1_write_sectors      162581      162581      162581      162581
          1              l2_subp0_write_sector_misses      162478      162478      162478      162478
          1              l2_subp1_write_sector_misses      162467      162467      162467      162467
          1               l2_subp0_read_sector_misses      160039      160039      160039      160039
          1               l2_subp1_read_sector_misses      160018      160018      160018      160018
          1          l2_subp0_read_tex_sector_queries    18125269    18125269    18125269    18125269
          1          l2_subp1_read_tex_sector_queries    18034731    18034731    18034731    18034731
          1         l2_subp0_write_tex_sector_queries    16160000    16160000    16160000    16160000
          1         l2_subp1_write_tex_sector_queries    16160000    16160000    16160000    16160000
          1             l2_subp0_read_tex_hit_sectors    17965237    17965237    17965237    17965237
          1             l2_subp1_read_tex_hit_sectors    17874713    17874713    17874713    17874713
          1            l2_subp0_write_tex_hit_sectors    16034535    16034535    16034535    16034535
          1            l2_subp1_write_tex_hit_sectors    16034566    16034566    16034566    16034566
          1        l2_subp0_total_read_sector_queries    18125317    18125317    18125317    18125317
          1        l2_subp1_total_read_sector_queries    18034786    18034786    18034786    18034786
          1       l2_subp0_total_write_sector_queries    16160001    16160001    16160001    16160001
          1       l2_subp1_total_write_sector_queries    16160005    16160005    16160005    16160005
          1       l2_subp0_read_sysmem_sector_queries           0           0           0           0
          1       l2_subp1_read_sysmem_sector_queries           0           0           0           0
          1      l2_subp0_write_sysmem_sector_queries           5           5           5           5
          1      l2_subp1_write_sysmem_sector_queries           0           0           0           0
          1                         elapsed_cycles_sm    89711120    89711120    89711120    89711120
          1                             gld_inst_8bit           0           0           0           0
          1                            gld_inst_16bit           0           0           0           0
          1                            gld_inst_32bit           0           0           0           0
          1                            gld_inst_64bit   129280000   129280000   129280000   129280000
          1                           gld_inst_128bit           0           0           0           0
          1                             gst_inst_8bit           0           0           0           0
          1                            gst_inst_16bit           0           0           0           0
          1                            gst_inst_32bit           0           0           0           0
          1                            gst_inst_64bit   129280000   129280000   129280000   129280000
          1                           gst_inst_128bit           0           0           0           0
          1                           prof_trigger_00           0           0           0           0
          1                           prof_trigger_01           0           0           0           0
          1                           prof_trigger_02           0           0           0           0
          1                           prof_trigger_03           0           0           0           0
          1                           prof_trigger_04           0           0           0           0
          1                           prof_trigger_05           0           0           0           0
          1                           prof_trigger_06           0           0           0           0
          1                           prof_trigger_07           0           0           0           0
          1                            warps_launched       51200       51200       51200       51200
          1                              inst_issued0   325135453   325135453   325135453   325135453
          1                              inst_issued1    24986657    24986657    24986657    24986657
          1                              inst_issued2     7783548     7783548     7783548     7783548
          1                             inst_executed    40550400    40550400    40550400    40550400
          1                      thread_inst_executed  1013760000  1013760000  1013760000  1013760000
          1   not_predicated_off_thread_inst_executed  1009920000  1009920000  1009920000  1009920000
          1                               local_store           0           0           0           0
          1                                local_load           0           0           0           0
          1                               shared_load     5120000     5120000     5120000     5120000
          1                              shared_store       51200       51200       51200       51200
          1                           shared_atom_cas           0           0           0           0
          1                               shared_atom           0           0           0           0
          1                           global_atom_cas           0           0           0           0
          1                                atom_count           0           0           0           0
          1                                gred_count           0           0           0           0
          1                               global_load     5171200     5171200     5171200     5171200
          1                              global_store     5171200     5171200     5171200     5171200
          1                          divergent_branch           0           0           0           0
          1                                    branch     1484800     1484800     1484800     1484800
          1                             active_cycles    89497226    89497226    89497226    89497226
          1                              active_warps  5558408710  5558408710  5558408710  5558408710
          1                               active_ctas  1421379167  1421379167  1421379167  1421379167
          1                           sm_cta_launched       12800       12800       12800       12800
          1                   shared_ld_bank_conflict           0           0           0           0
          1                   shared_st_bank_conflict           0           0           0           0
          1                    shared_ld_transactions     5120000     5120000     5120000     5120000
          1                    shared_st_transactions       51200       51200       51200       51200
