Input size N: 1280000
Filter size M: 64

Device 0: "Tesla V100-PCIE-16GB" 
d_filter y d_input, tiempo de memcpy HtoD: 0.978944
houtput <- doutput tiempo de memcpy DtoH: 6.896832
[N/M/ms_cpu/ms_gpu/ms_gpu_sm/ms_gpu_cm]= [1280000/64/274.751650/0.298016/0.282048/0.268256] 
