Input size N: 1280000
Filter size M: 256

Device 0: "Tesla V100-PCIE-16GB" 
d_filter y d_input, tiempo de memcpy HtoD: 1.018304
houtput <- doutput tiempo de memcpy DtoH: 6.888768
[N/M/ms_cpu/ms_gpu/ms_gpu_sm/ms_gpu_cm]= [1280000/256/1112.496233/1.038976/1.034208/0.991264] 
