srun: job 1513000 queued and waiting for resources
srun: job 1513000 has been allocated resources
==125751== NVPROF is profiling process 125751, command: ./convolucion_double 1280000 64
==125751== Some kernel(s) will be replayed on device 0 in order to collect all events/metrics.
==125751== Profiling application: ./convolucion_double 1280000 64
==125751== Profiling result:
==125751== Metric result:
Invocations                               Metric Name                                    Metric Description         Min         Max         Avg
Device "GeForce GTX 980 (0)"
    Kernel: conv_gpu(double const *, double*, double const *, int, int)
          1                             sm_efficiency                               Multiprocessor Activity      99.29%      99.29%      99.29%
          1                        achieved_occupancy                                    Achieved Occupancy    0.990190    0.990190    0.990190
          1                                       ipc                                          Executed IPC    0.747306    0.747306    0.747306
          1                                issued_ipc                                            Issued IPC    0.758193    0.758193    0.758193
          1                             inst_per_warp                                 Instructions per warp  982.000000  982.000000  982.000000
          1                         branch_efficiency                                     Branch Efficiency     100.00%     100.00%     100.00%
          1                 warp_execution_efficiency                             Warp Execution Efficiency     100.00%     100.00%     100.00%
          1         warp_nonpred_execution_efficiency              Warp Non-Predicated Execution Efficiency      99.80%      99.80%      99.80%
          1                      inst_replay_overhead                           Instruction Replay Overhead    0.000065    0.000065    0.000065
          1                    issue_slot_utilization                                Issue Slot Utilization      17.72%      17.72%      17.72%
          1      shared_load_transactions_per_request           Shared Memory Load Transactions Per Request    0.000000    0.000000    0.000000
          1     shared_store_transactions_per_request          Shared Memory Store Transactions Per Request    0.000000    0.000000    0.000000
          1       local_load_transactions_per_request            Local Memory Load Transactions Per Request    0.000000    0.000000    0.000000
          1      local_store_transactions_per_request           Local Memory Store Transactions Per Request    0.000000    0.000000    0.000000
          1              gld_transactions_per_request                  Global Load Transactions Per Request    9.000000    9.000000    9.000000
          1              gst_transactions_per_request                 Global Store Transactions Per Request    8.000000    8.000000    8.000000
          1                 shared_store_transactions                             Shared Store Transactions           0           0           0
          1                  shared_load_transactions                              Shared Load Transactions           0           0           0
          1                   local_load_transactions                               Local Load Transactions           0           0           0
          1                  local_store_transactions                              Local Store Transactions           0           0           0
          1                          gld_transactions                              Global Load Transactions    46080000    46080000    46080000
          1                          gst_transactions                             Global Store Transactions    20800000    20800000    20800000
          1                    dram_read_transactions                       Device Memory Read Transactions      320039      320039      320039
          1                   dram_write_transactions                      Device Memory Write Transactions      323642      323642      323642
          1                           global_hit_rate                                       Global Hit Rate      45.83%      45.83%      45.83%
          1                            local_hit_rate                                        Local Hit Rate       0.00%       0.00%       0.00%
          1                  gld_requested_throughput                      Requested Global Load Throughput  211.62GB/s  211.62GB/s  211.62GB/s
          1                  gst_requested_throughput                     Requested Global Store Throughput  208.41GB/s  208.41GB/s  208.41GB/s
          1                            gld_throughput                                Global Load Throughput  250.10GB/s  250.10GB/s  250.10GB/s
          1                            gst_throughput                               Global Store Throughput  208.41GB/s  208.41GB/s  208.41GB/s
          1                      dram_read_throughput                         Device Memory Read Throughput  3.2068GB/s  3.2068GB/s  3.2065GB/s
          1                     dram_write_throughput                        Device Memory Write Throughput  3.2429GB/s  3.2429GB/s  3.2419GB/s
          1                      tex_cache_throughput                              Unified Cache Throughput  410.41GB/s  410.41GB/s  410.41GB/s
          1                     local_load_throughput                          Local Memory Load Throughput  0.00000B/s  0.00000B/s  0.00000B/s
          1                    local_store_throughput                         Local Memory Store Throughput  0.00000B/s  0.00000B/s  0.00000B/s
          1                    shared_load_throughput                         Shared Memory Load Throughput  0.00000B/s  0.00000B/s  0.00000B/s
          1                   shared_store_throughput                        Shared Memory Store Throughput  0.00000B/s  0.00000B/s  0.00000B/s
          1                            gld_efficiency                         Global Memory Load Efficiency      84.62%      84.62%      84.62%
          1                            gst_efficiency                        Global Memory Store Efficiency     100.00%     100.00%     100.00%
          1                    tex_cache_transactions                            Unified Cache Transactions    40960000    40960000    40960000
          1                         cf_fu_utilization                Control-Flow Function Unit Utilization     Low (1)     Low (1)     Low (1)
          1                        tex_fu_utilization                     Texture Function Unit Utilization     Mid (4)     Mid (4)     Mid (4)
          1                       ldst_fu_utilization                  Load/Store Function Unit Utilization     Low (1)     Low (1)     Low (1)
          1           double_precision_fu_utilization            Double-Precision Function Unit Utilization     Mid (4)     Mid (4)     Mid (4)
          1                    special_fu_utilization                     Special Function Unit Utilization    Idle (0)    Idle (0)    Idle (0)
          1           single_precision_fu_utilization            Single-Precision Function Unit Utilization     Low (2)     Low (2)     Low (2)
          1                             flop_count_dp           Floating Point Operations(Double Precision)   163840000   163840000   163840000
          1                         flop_count_dp_add       Floating Point Operations(Double Precision Add)           0           0           0
          1                         flop_count_dp_fma       Floating Point Operations(Double Precision FMA)    81920000    81920000    81920000
          1                         flop_count_dp_mul       Floating Point Operations(Double Precision Mul)           0           0           0
          1                             flop_count_sp           Floating Point Operations(Single Precision)           0           0           0
          1                         flop_count_sp_add       Floating Point Operations(Single Precision Add)           0           0           0
          1                         flop_count_sp_fma       Floating Point Operations(Single Precision FMA)           0           0           0
          1                         flop_count_sp_mul        Floating Point Operation(Single Precision Mul)           0           0           0
          1                     flop_count_sp_special   Floating Point Operations(Single Precision Special)           0           0           0
          1                             inst_executed                                 Instructions Executed    39280000    39280000    39280000
          1                               inst_issued                                   Instructions Issued    39282592    39282592    39282592
          1                          dram_utilization                             Device Memory Utilization     Low (1)     Low (1)     Low (1)
          1                           tex_utilization                             Unified Cache Utilization     Mid (4)     Mid (4)     Mid (4)
          1                         shared_efficiency                              Shared Memory Efficiency       0.00%       0.00%       0.00%
          1                        shared_utilization                             Shared Memory Utilization    Idle (0)    Idle (0)    Idle (0)
          1                                inst_fp_32                               FP Instructions(Single)           0           0           0
          1                                inst_fp_64                               FP Instructions(Double)    81920000    81920000    81920000
          1                              inst_integer                                  Integer Instructions   504320000   504320000   504320000
          1                          inst_bit_convert                              Bit-Convert Instructions           0           0           0
          1                              inst_control                             Control-Flow Instructions    81920000    81920000    81920000
          1                        inst_compute_ld_st                               Load/Store Instructions   247040000   247040000   247040000
          1                                 inst_misc                                     Misc Instructions   339200000   339200000   339200000
          1           inst_inter_thread_communication                             Inter-Thread Instructions           0           0           0
          1                               issue_slots                                           Issue Slots    36722592    36722592    36722592
          1                                 cf_issued                      Issued Control-Flow Instructions     2640000     2640000     2640000
          1                               cf_executed                    Executed Control-Flow Instructions     2640000     2640000     2640000
          1                               ldst_issued                        Issued Load/Store Instructions    41360000    41360000    41360000
          1                             ldst_executed                      Executed Load/Store Instructions     7800000     7800000     7800000
          1                       atomic_transactions                                   Atomic Transactions           0           0           0
          1           atomic_transactions_per_request                       Atomic Transactions Per Request    0.000000    0.000000    0.000000
          1                          stall_inst_fetch              Issue Stall Reasons (Instructions Fetch)       0.31%       0.31%       0.31%
          1                     stall_exec_dependency            Issue Stall Reasons (Execution Dependency)       7.98%       7.98%       7.98%
          1                   stall_memory_dependency                    Issue Stall Reasons (Data Request)      91.11%      91.11%      91.11%
          1                             stall_texture                         Issue Stall Reasons (Texture)       0.00%       0.00%       0.00%
          1                                stall_sync                 Issue Stall Reasons (Synchronization)       0.00%       0.00%       0.00%
          1                               stall_other                           Issue Stall Reasons (Other)       0.43%       0.43%       0.43%
          1          stall_constant_memory_dependency              Issue Stall Reasons (Immediate constant)       0.01%       0.01%       0.01%
          1                           stall_pipe_busy                       Issue Stall Reasons (Pipe Busy)       0.00%       0.00%       0.00%
          1                     stall_memory_throttle                 Issue Stall Reasons (Memory Throttle)       0.10%       0.10%       0.10%
          1                        stall_not_selected                    Issue Stall Reasons (Not Selected)       0.06%       0.06%       0.06%
          1                  sysmem_read_transactions                       System Memory Read Transactions           0           0           0
          1                 sysmem_write_transactions                      System Memory Write Transactions           5           5           5
          1                      l2_read_transactions                                  L2 Read Transactions    24960199    24960199    24960199
          1                     l2_write_transactions                                 L2 Write Transactions    20800006    20800006    20800006
          1                          ecc_transactions                                      ECC Transactions           0           0           0
          1                     local_memory_overhead                                 Local Memory Overhead       0.00%       0.00%       0.00%
          1                        tex_cache_hit_rate                                Unified Cache Hit Rate      31.58%      31.58%      31.58%
          1                      l2_tex_read_hit_rate                           L2 Hit Rate (Texture Reads)      98.72%      98.72%      98.72%
          1                     l2_tex_write_hit_rate                          L2 Hit Rate (Texture Writes)      98.46%      98.46%      98.46%
          1                    l2_tex_read_throughput                         L2 Throughput (Texture Reads)  250.10GB/s  250.10GB/s  250.10GB/s
          1                   l2_tex_write_throughput                        L2 Throughput (Texture Writes)  208.41GB/s  208.41GB/s  208.41GB/s
          1                  l2_tex_read_transactions                       L2 Transactions (Texture Reads)    24960000    24960000    24960000
          1                 l2_tex_write_transactions                      L2 Transactions (Texture Writes)    20800000    20800000    20800000
          1                        l2_read_throughput                                 L2 Throughput (Reads)  250.10GB/s  250.10GB/s  250.10GB/s
          1                       l2_write_throughput                                L2 Throughput (Writes)  208.41GB/s  208.41GB/s  208.41GB/s
          1                    sysmem_read_throughput                         System Memory Read Throughput  0.00000B/s  0.00000B/s  0.00000B/s
          1                   sysmem_write_throughput                        System Memory Write Throughput  52.532KB/s  52.532KB/s  0.00000B/s
          1                            l2_utilization                                  L2 Cache Utilization    High (9)    High (9)    High (9)
          1                      l2_atomic_throughput                       L2 Throughput (Atomic requests)  0.00000B/s  0.00000B/s  0.00000B/s
          1                    l2_atomic_transactions                     L2 Transactions (Atomic requests)           0           0           0
          1                        sysmem_utilization                             System Memory Utilization     Low (1)     Low (1)     Low (1)
          1                            ecc_throughput                                        ECC Throughput  0.00000B/s  0.00000B/s  0.00000B/s
          1                   sysmem_read_utilization                        System Memory Read Utilization    Idle (0)    Idle (0)    Idle (0)
          1                  sysmem_write_utilization                       System Memory Write Utilization     Low (1)     Low (1)     Low (1)
          1                  eligible_warps_per_cycle                       Eligible Warps Per Active Cycle    0.744620    0.744620    0.744620
          1                        flop_sp_efficiency                          FLOP Efficiency(Peak Single)       0.00%       0.00%       0.00%
          1                        flop_dp_efficiency                          FLOP Efficiency(Peak Double)      38.72%      38.72%      38.72%
    Kernel: conv_gpu_constant_memory(double const *, double*, int, int)
          1                             sm_efficiency                               Multiprocessor Activity      99.40%      99.40%      99.40%
          1                        achieved_occupancy                                    Achieved Occupancy    0.987930    0.987930    0.987930
          1                                       ipc                                          Executed IPC    0.856535    0.856535    0.856535
          1                                issued_ipc                                            Issued IPC    0.855519    0.855519    0.855519
          1                             inst_per_warp                                 Instructions per warp  789.000000  789.000000  789.000000
          1                         branch_efficiency                                     Branch Efficiency     100.00%     100.00%     100.00%
          1                 warp_execution_efficiency                             Warp Execution Efficiency     100.00%     100.00%     100.00%
          1         warp_nonpred_execution_efficiency              Warp Non-Predicated Execution Efficiency      99.75%      99.75%      99.75%
          1                      inst_replay_overhead                           Instruction Replay Overhead    0.000064    0.000064    0.000064
          1                    issue_slot_utilization                                Issue Slot Utilization      19.65%      19.65%      19.65%
          1      shared_load_transactions_per_request           Shared Memory Load Transactions Per Request    0.000000    0.000000    0.000000
          1     shared_store_transactions_per_request          Shared Memory Store Transactions Per Request    0.000000    0.000000    0.000000
          1       local_load_transactions_per_request            Local Memory Load Transactions Per Request    0.000000    0.000000    0.000000
          1      local_store_transactions_per_request           Local Memory Store Transactions Per Request    0.000000    0.000000    0.000000
          1              gld_transactions_per_request                  Global Load Transactions Per Request   14.000000   14.000000   14.000000
          1              gst_transactions_per_request                 Global Store Transactions Per Request    8.000000    8.000000    8.000000
          1                 shared_store_transactions                             Shared Store Transactions           0           0           0
          1                  shared_load_transactions                              Shared Load Transactions           0           0           0
          1                   local_load_transactions                               Local Load Transactions           0           0           0
          1                  local_store_transactions                              Local Store Transactions           0           0           0
          1                          gld_transactions                              Global Load Transactions    35840000    35840000    35840000
          1                          gst_transactions                             Global Store Transactions    20800000    20800000    20800000
          1                    dram_read_transactions                       Device Memory Read Transactions      320028      320028      320028
          1                   dram_write_transactions                      Device Memory Write Transactions      324184      324184      324184
          1                           global_hit_rate                                       Global Hit Rate      37.50%      37.50%      37.50%
          1                            local_hit_rate                                        Local Hit Rate       0.00%       0.00%       0.00%
          1                  gld_requested_throughput                      Requested Global Load Throughput  290.34GB/s  290.34GB/s  290.34GB/s
          1                  gst_requested_throughput                     Requested Global Store Throughput  294.87GB/s  294.87GB/s  294.87GB/s
          1                            gld_throughput                                Global Load Throughput  317.55GB/s  317.55GB/s  317.55GB/s
          1                            gst_throughput                               Global Store Throughput  294.87GB/s  294.87GB/s  294.87GB/s
          1                      dram_read_throughput                         Device Memory Read Throughput  4.5369GB/s  4.5369GB/s  4.5365GB/s
          1                     dram_write_throughput                        Device Memory Write Throughput  4.5958GB/s  4.5958GB/s  4.5951GB/s
          1                      tex_cache_throughput                              Unified Cache Throughput  290.34GB/s  290.34GB/s  290.34GB/s
          1                     local_load_throughput                          Local Memory Load Throughput  0.00000B/s  0.00000B/s  0.00000B/s
          1                    local_store_throughput                         Local Memory Store Throughput  0.00000B/s  0.00000B/s  0.00000B/s
          1                    shared_load_throughput                         Shared Memory Load Throughput  0.00000B/s  0.00000B/s  0.00000B/s
          1                   shared_store_throughput                        Shared Memory Store Throughput  0.00000B/s  0.00000B/s  0.00000B/s
          1                            gld_efficiency                         Global Memory Load Efficiency      91.43%      91.43%      91.43%
          1                            gst_efficiency                        Global Memory Store Efficiency     100.00%     100.00%     100.00%
          1                    tex_cache_transactions                            Unified Cache Transactions    20480000    20480000    20480000
          1                         cf_fu_utilization                Control-Flow Function Unit Utilization     Low (1)     Low (1)     Low (1)
          1                        tex_fu_utilization                     Texture Function Unit Utilization     Mid (5)     Mid (5)     Mid (5)
          1                       ldst_fu_utilization                  Load/Store Function Unit Utilization     Low (1)     Low (1)     Low (1)
          1           double_precision_fu_utilization            Double-Precision Function Unit Utilization     Mid (6)     Mid (6)     Mid (6)
          1                    special_fu_utilization                     Special Function Unit Utilization    Idle (0)    Idle (0)    Idle (0)
          1           single_precision_fu_utilization            Single-Precision Function Unit Utilization     Low (2)     Low (2)     Low (2)
          1                             flop_count_dp           Floating Point Operations(Double Precision)   163840000   163840000   163840000
          1                         flop_count_dp_add       Floating Point Operations(Double Precision Add)           0           0           0
          1                         flop_count_dp_fma       Floating Point Operations(Double Precision FMA)    81920000    81920000    81920000
          1                         flop_count_dp_mul       Floating Point Operations(Double Precision Mul)           0           0           0
          1                             flop_count_sp           Floating Point Operations(Single Precision)           0           0           0
          1                         flop_count_sp_add       Floating Point Operations(Single Precision Add)           0           0           0
          1                         flop_count_sp_fma       Floating Point Operations(Single Precision FMA)           0           0           0
          1                         flop_count_sp_mul        Floating Point Operation(Single Precision Mul)           0           0           0
          1                     flop_count_sp_special   Floating Point Operations(Single Precision Special)           0           0           0
          1                             inst_executed                                 Instructions Executed    31560000    31560000    31560000
          1                               inst_issued                                   Instructions Issued    31561347    31561347    31561347
          1                          dram_utilization                             Device Memory Utilization     Low (1)     Low (1)     Low (1)
          1                           tex_utilization                             Unified Cache Utilization     Low (3)     Low (3)     Low (3)
          1                         shared_efficiency                              Shared Memory Efficiency       0.00%       0.00%       0.00%
          1                        shared_utilization                             Shared Memory Utilization    Idle (0)    Idle (0)    Idle (0)
          1                                inst_fp_32                               FP Instructions(Single)           0           0           0
          1                                inst_fp_64                               FP Instructions(Double)    81920000    81920000    81920000
          1                              inst_integer                                  Integer Instructions   422400000   422400000   422400000
          1                          inst_bit_convert                              Bit-Convert Instructions           0           0           0
          1                              inst_control                             Control-Flow Instructions    81920000    81920000    81920000
          1                        inst_compute_ld_st                               Load/Store Instructions   247040000   247040000   247040000
          1                                 inst_misc                                     Misc Instructions   174080000   174080000   174080000
          1           inst_inter_thread_communication                             Inter-Thread Instructions           0           0           0
          1                               issue_slots                                           Issue Slots    29001347    29001347    29001347
          1                                 cf_issued                      Issued Control-Flow Instructions     5200000     5200000     5200000
          1                               cf_executed                    Executed Control-Flow Instructions     5200000     5200000     5200000
          1                               ldst_issued                        Issued Load/Store Instructions    33680000    33680000    33680000
          1                             ldst_executed                      Executed Load/Store Instructions     7800000     7800000     7800000
          1                       atomic_transactions                                   Atomic Transactions           0           0           0
          1           atomic_transactions_per_request                       Atomic Transactions Per Request    0.000000    0.000000    0.000000
          1                          stall_inst_fetch              Issue Stall Reasons (Instructions Fetch)       0.78%       0.78%       0.78%
          1                     stall_exec_dependency            Issue Stall Reasons (Execution Dependency)      22.36%      22.36%      22.36%
          1                   stall_memory_dependency                    Issue Stall Reasons (Data Request)      75.53%      75.53%      75.53%
          1                             stall_texture                         Issue Stall Reasons (Texture)       0.00%       0.00%       0.00%
          1                                stall_sync                 Issue Stall Reasons (Synchronization)       0.00%       0.00%       0.00%
          1                               stall_other                           Issue Stall Reasons (Other)       1.03%       1.03%       1.03%
          1          stall_constant_memory_dependency              Issue Stall Reasons (Immediate constant)       0.02%       0.02%       0.02%
          1                           stall_pipe_busy                       Issue Stall Reasons (Pipe Busy)       0.02%       0.02%       0.02%
          1                     stall_memory_throttle                 Issue Stall Reasons (Memory Throttle)       0.17%       0.17%       0.17%
          1                        stall_not_selected                    Issue Stall Reasons (Not Selected)       0.10%       0.10%       0.10%
          1                  sysmem_read_transactions                       System Memory Read Transactions           0           0           0
          1                 sysmem_write_transactions                      System Memory Write Transactions           5           5           5
          1                      l2_read_transactions                                  L2 Read Transactions    22400231    22400231    22400231
          1                     l2_write_transactions                                 L2 Write Transactions    20800006    20800006    20800006
          1                          ecc_transactions                                      ECC Transactions           0           0           0
          1                     local_memory_overhead                                 Local Memory Overhead       0.00%       0.00%       0.00%
          1                        tex_cache_hit_rate                                Unified Cache Hit Rate      23.73%      23.73%      23.73%
          1                      l2_tex_read_hit_rate                           L2 Hit Rate (Texture Reads)      98.57%      98.57%      98.57%
          1                     l2_tex_write_hit_rate                          L2 Hit Rate (Texture Writes)      98.46%      98.46%      98.46%
          1                    l2_tex_read_throughput                         L2 Throughput (Texture Reads)  317.55GB/s  317.55GB/s  317.55GB/s
          1                   l2_tex_write_throughput                        L2 Throughput (Texture Writes)  294.87GB/s  294.87GB/s  294.87GB/s
          1                  l2_tex_read_transactions                       L2 Transactions (Texture Reads)    22400000    22400000    22400000
          1                 l2_tex_write_transactions                      L2 Transactions (Texture Writes)    20800000    20800000    20800000
          1                        l2_read_throughput                                 L2 Throughput (Reads)  317.56GB/s  317.56GB/s  317.56GB/s
          1                       l2_write_throughput                                L2 Throughput (Writes)  294.87GB/s  294.87GB/s  294.87GB/s
          1                    sysmem_read_throughput                         System Memory Read Throughput  0.00000B/s  0.00000B/s  0.00000B/s
          1                   sysmem_write_throughput                        System Memory Write Throughput  74.325KB/s  74.325KB/s  0.00000B/s
          1                            l2_utilization                                  L2 Cache Utilization    Max (10)    Max (10)    Max (10)
          1                      l2_atomic_throughput                       L2 Throughput (Atomic requests)  0.00000B/s  0.00000B/s  0.00000B/s
          1                    l2_atomic_transactions                     L2 Transactions (Atomic requests)           0           0           0
          1                        sysmem_utilization                             System Memory Utilization     Low (1)     Low (1)     Low (1)
          1                            ecc_throughput                                        ECC Throughput  0.00000B/s  0.00000B/s  0.00000B/s
          1                   sysmem_read_utilization                        System Memory Read Utilization    Idle (0)    Idle (0)    Idle (0)
          1                  sysmem_write_utilization                       System Memory Write Utilization     Low (1)     Low (1)     Low (1)
          1                  eligible_warps_per_cycle                       Eligible Warps Per Active Cycle    0.847930    0.847930    0.847930
          1                        flop_sp_efficiency                          FLOP Efficiency(Peak Single)       0.00%       0.00%       0.00%
          1                        flop_dp_efficiency                          FLOP Efficiency(Peak Double)      55.08%      55.08%      55.08%
    Kernel: conv_gpu_shared_memory(double const *, double*, double const *, int, int)
          1                             sm_efficiency                               Multiprocessor Activity      99.80%      99.80%      99.80%
          1                        achieved_occupancy                                    Achieved Occupancy    0.965523    0.965523    0.965523
          1                                       ipc                                          Executed IPC    0.465052    0.465052    0.465052
          1                                issued_ipc                                            Issued IPC    0.465157    0.465157    0.465157
          1                             inst_per_warp                                 Instructions per warp  520.000000  520.000000  520.000000
          1                         branch_efficiency                                     Branch Efficiency     100.00%     100.00%     100.00%
          1                 warp_execution_efficiency                             Warp Execution Efficiency     100.00%     100.00%     100.00%
          1         warp_nonpred_execution_efficiency              Warp Non-Predicated Execution Efficiency      99.42%      99.42%      99.42%
          1                      inst_replay_overhead                           Instruction Replay Overhead    0.000121    0.000121    0.000121
          1                    issue_slot_utilization                                Issue Slot Utilization       9.41%       9.41%       9.41%
          1      shared_load_transactions_per_request           Shared Memory Load Transactions Per Request    1.000000    1.000000    1.000000
          1     shared_store_transactions_per_request          Shared Memory Store Transactions Per Request    1.000000    1.000000    1.000000
          1       local_load_transactions_per_request            Local Memory Load Transactions Per Request    0.000000    0.000000    0.000000
          1      local_store_transactions_per_request           Local Memory Store Transactions Per Request    0.000000    0.000000    0.000000
          1              gld_transactions_per_request                  Global Load Transactions Per Request   13.907692   13.907692   13.907692
          1              gst_transactions_per_request                 Global Store Transactions Per Request    8.000000    8.000000    8.000000
          1                 shared_store_transactions                             Shared Store Transactions       40000       40000       40000
          1                  shared_load_transactions                              Shared Load Transactions     2560000     2560000     2560000
          1                   local_load_transactions                               Local Load Transactions           0           0           0
          1                  local_store_transactions                              Local Store Transactions           0           0           0
          1                          gld_transactions                              Global Load Transactions    36160000    36160000    36160000
          1                          gst_transactions                             Global Store Transactions    20800000    20800000    20800000
          1                    dram_read_transactions                       Device Memory Read Transactions      320055      320055      320055
          1                   dram_write_transactions                      Device Memory Write Transactions      323586      323586      323586
          1                           global_hit_rate                                       Global Hit Rate      37.17%      37.17%      37.17%
          1                            local_hit_rate                                        Local Hit Rate       0.00%       0.00%       0.00%
          1                  gld_requested_throughput                      Requested Global Load Throughput  244.61GB/s  244.61GB/s  244.61GB/s
          1                  gst_requested_throughput                     Requested Global Store Throughput  244.61GB/s  244.61GB/s  244.61GB/s
          1                            gld_throughput                                Global Load Throughput  267.19GB/s  267.19GB/s  267.19GB/s
          1                            gst_throughput                               Global Store Throughput  244.61GB/s  244.61GB/s  244.61GB/s
          1                      dram_read_throughput                         Device Memory Read Throughput  3.7639GB/s  3.7639GB/s  3.7635GB/s
          1                     dram_write_throughput                        Device Memory Write Throughput  3.8054GB/s  3.8054GB/s  3.8054GB/s
          1                      tex_cache_throughput                              Unified Cache Throughput  244.61GB/s  244.61GB/s  244.61GB/s
          1                     local_load_throughput                          Local Memory Load Throughput  0.00000B/s  0.00000B/s  0.00000B/s
          1                    local_store_throughput                         Local Memory Store Throughput  0.00000B/s  0.00000B/s  0.00000B/s
          1                    shared_load_throughput                         Shared Memory Load Throughput  120.42GB/s  120.42GB/s  120.42GB/s
          1                   shared_store_throughput                        Shared Memory Store Throughput  1.8816GB/s  1.8816GB/s  1.8813GB/s
          1                            gld_efficiency                         Global Memory Load Efficiency      91.55%      91.55%      91.55%
          1                            gst_efficiency                        Global Memory Store Efficiency     100.00%     100.00%     100.00%
          1                    tex_cache_transactions                            Unified Cache Transactions    20800000    20800000    20800000
          1                         cf_fu_utilization                Control-Flow Function Unit Utilization     Low (1)     Low (1)     Low (1)
          1                        tex_fu_utilization                     Texture Function Unit Utilization     Mid (4)     Mid (4)     Mid (4)
          1                       ldst_fu_utilization                  Load/Store Function Unit Utilization     Low (1)     Low (1)     Low (1)
          1           double_precision_fu_utilization            Double-Precision Function Unit Utilization    Max (10)    Max (10)    Max (10)
          1                    special_fu_utilization                     Special Function Unit Utilization    Idle (0)    Idle (0)    Idle (0)
          1           single_precision_fu_utilization            Single-Precision Function Unit Utilization     Low (1)     Low (1)     Low (1)
          1                             flop_count_dp           Floating Point Operations(Double Precision)   163840000   163840000   163840000
          1                         flop_count_dp_add       Floating Point Operations(Double Precision Add)           0           0           0
          1                         flop_count_dp_fma       Floating Point Operations(Double Precision FMA)    81920000    81920000    81920000
          1                         flop_count_dp_mul       Floating Point Operations(Double Precision Mul)           0           0           0
          1                             flop_count_sp           Floating Point Operations(Single Precision)           0           0           0
          1                         flop_count_sp_add       Floating Point Operations(Single Precision Add)           0           0           0
          1                         flop_count_sp_fma       Floating Point Operations(Single Precision FMA)           0           0           0
          1                         flop_count_sp_mul        Floating Point Operation(Single Precision Mul)           0           0           0
          1                     flop_count_sp_special   Floating Point Operations(Single Precision Special)           0           0           0
          1                             inst_executed                                 Instructions Executed    20800000    20800000    20800000
          1                               inst_issued                                   Instructions Issued    20802523    20802523    20802523
          1                          dram_utilization                             Device Memory Utilization     Low (1)     Low (1)     Low (1)
          1                           tex_utilization                             Unified Cache Utilization     Low (3)     Low (3)     Low (3)
          1                         shared_efficiency                              Shared Memory Efficiency     100.00%     100.00%     100.00%
          1                        shared_utilization                             Shared Memory Utilization     Low (1)     Low (1)     Low (1)
          1                                inst_fp_32                               FP Instructions(Single)           0           0           0
          1                                inst_fp_64                               FP Instructions(Double)    81920000    81920000    81920000
          1                              inst_integer                                  Integer Instructions   129280000   129280000   129280000
          1                          inst_bit_convert                              Bit-Convert Instructions    83200000    83200000    83200000
          1                              inst_control                             Control-Flow Instructions    21760000    21760000    21760000
          1                        inst_compute_ld_st                               Load/Store Instructions   249600000   249600000   249600000
          1                                 inst_misc                                     Misc Instructions    96000000    96000000    96000000
          1           inst_inter_thread_communication                             Inter-Thread Instructions           0           0           0
          1                               issue_slots                                           Issue Slots    16841686    16841686    16841686
          1                                 cf_issued                      Issued Control-Flow Instructions      800000      800000      800000
          1                               cf_executed                    Executed Control-Flow Instructions      800000      800000      800000
          1                               ldst_issued                        Issued Load/Store Instructions    33920000    33920000    33920000
          1                             ldst_executed                      Executed Load/Store Instructions     7920000     7920000     7920000
          1                       atomic_transactions                                   Atomic Transactions           0           0           0
          1           atomic_transactions_per_request                       Atomic Transactions Per Request    0.000000    0.000000    0.000000
          1                          stall_inst_fetch              Issue Stall Reasons (Instructions Fetch)       0.76%       0.76%       0.76%
          1                     stall_exec_dependency            Issue Stall Reasons (Execution Dependency)      41.44%      41.44%      41.44%
          1                   stall_memory_dependency                    Issue Stall Reasons (Data Request)      30.10%      30.10%      30.10%
          1                             stall_texture                         Issue Stall Reasons (Texture)       0.00%       0.00%       0.00%
          1                                stall_sync                 Issue Stall Reasons (Synchronization)       1.79%       1.79%       1.79%
          1                               stall_other                           Issue Stall Reasons (Other)      25.88%      25.88%      25.88%
          1          stall_constant_memory_dependency              Issue Stall Reasons (Immediate constant)       0.01%       0.01%       0.01%
          1                           stall_pipe_busy                       Issue Stall Reasons (Pipe Busy)       0.01%       0.01%       0.01%
          1                     stall_memory_throttle                 Issue Stall Reasons (Memory Throttle)       0.00%       0.00%       0.00%
          1                        stall_not_selected                    Issue Stall Reasons (Not Selected)       0.02%       0.02%       0.02%
          1                  sysmem_read_transactions                       System Memory Read Transactions           0           0           0
          1                 sysmem_write_transactions                      System Memory Write Transactions           5           5           5
          1                      l2_read_transactions                                  L2 Read Transactions    22720071    22720071    22720071
          1                     l2_write_transactions                                 L2 Write Transactions    20800006    20800006    20800006
          1                          ecc_transactions                                      ECC Transactions           0           0           0
          1                     local_memory_overhead                                 Local Memory Overhead       0.00%       0.00%       0.00%
          1                        tex_cache_hit_rate                                Unified Cache Hit Rate      23.60%      23.60%      23.60%
          1                      l2_tex_read_hit_rate                           L2 Hit Rate (Texture Reads)      98.59%      98.59%      98.59%
          1                     l2_tex_write_hit_rate                          L2 Hit Rate (Texture Writes)      98.46%      98.46%      98.46%
          1                    l2_tex_read_throughput                         L2 Throughput (Texture Reads)  267.19GB/s  267.19GB/s  267.19GB/s
          1                   l2_tex_write_throughput                        L2 Throughput (Texture Writes)  244.61GB/s  244.61GB/s  244.61GB/s
          1                  l2_tex_read_transactions                       L2 Transactions (Texture Reads)    22720000    22720000    22720000
          1                 l2_tex_write_transactions                      L2 Transactions (Texture Writes)    20800000    20800000    20800000
          1                        l2_read_throughput                                 L2 Throughput (Reads)  267.19GB/s  267.19GB/s  267.19GB/s
          1                       l2_write_throughput                                L2 Throughput (Writes)  244.61GB/s  244.61GB/s  244.61GB/s
          1                    sysmem_read_throughput                         System Memory Read Throughput  0.00000B/s  0.00000B/s  0.00000B/s
          1                   sysmem_write_throughput                        System Memory Write Throughput  61.656KB/s  61.656KB/s  0.00000B/s
          1                            l2_utilization                                  L2 Cache Utilization    Max (10)    Max (10)    Max (10)
          1                      l2_atomic_throughput                       L2 Throughput (Atomic requests)  0.00000B/s  0.00000B/s  0.00000B/s
          1                    l2_atomic_transactions                     L2 Transactions (Atomic requests)           0           0           0
          1                        sysmem_utilization                             System Memory Utilization     Low (1)     Low (1)     Low (1)
          1                            ecc_throughput                                        ECC Throughput  0.00000B/s  0.00000B/s  0.00000B/s
          1                   sysmem_read_utilization                        System Memory Read Utilization    Idle (0)    Idle (0)    Idle (0)
          1                  sysmem_write_utilization                       System Memory Write Utilization     Low (1)     Low (1)     Low (1)
          1                  eligible_warps_per_cycle                       Eligible Warps Per Active Cycle    0.388597    0.388597    0.388597
          1                        flop_sp_efficiency                          FLOP Efficiency(Peak Single)       0.00%       0.00%       0.00%
          1                        flop_dp_efficiency                          FLOP Efficiency(Peak Double)      45.69%      45.69%      45.69%
