srun: job 1513062 queued and waiting for resources
srun: job 1513062 has been allocated resources
==65385== NVPROF is profiling process 65385, command: ./convolucion_double 640000 128
==65385== Some kernel(s) will be replayed on device 0 in order to collect all events/metrics.
==65385== Profiling application: ./convolucion_double 640000 128
==65385== Profiling result:
==65385== Event result:
Invocations                                Event Name         Min         Max         Avg       Total
Device "GeForce GTX TITAN X (0)"
    Kernel: conv_gpu(double const *, double*, double const *, int, int)
          1                 tex0_cache_sector_queries    33360000    33360000    33360000    33360000
          1                 tex1_cache_sector_queries    33360000    33360000    33360000    33360000
          1                  tex0_cache_sector_misses    22800000    22800000    22800000    22800000
          1                  tex1_cache_sector_misses    22800000    22800000    22800000    22800000
          1                     fb_subp0_read_sectors       80064       80064       80064       80064
          1                     fb_subp1_read_sectors       80039       80039       80039       80039
          1                    fb_subp0_write_sectors       83083       83083       83083       83083
          1                    fb_subp1_write_sectors       83085       83085       83085       83085
          1              l2_subp0_write_sector_misses       83070       83070       83070       83070
          1              l2_subp1_write_sector_misses       83026       83026       83026       83026
          1               l2_subp0_read_sector_misses       80055       80055       80055       80055
          1               l2_subp1_read_sector_misses       80048       80048       80048       80048
          1          l2_subp0_read_tex_sector_queries    12480560    12480560    12480560    12480560
          1          l2_subp1_read_tex_sector_queries    12479440    12479440    12479440    12479440
          1         l2_subp0_write_tex_sector_queries    10320000    10320000    10320000    10320000
          1         l2_subp1_write_tex_sector_queries    10320000    10320000    10320000    10320000
          1             l2_subp0_read_tex_hit_sectors    12400528    12400528    12400528    12400528
          1             l2_subp1_read_tex_hit_sectors    12399408    12399408    12399408    12399408
          1            l2_subp0_write_tex_hit_sectors    10240000    10240000    10240000    10240000
          1            l2_subp1_write_tex_hit_sectors    10240000    10240000    10240000    10240000
          1        l2_subp0_total_read_sector_queries    12480608    12480608    12480608    12480608
          1        l2_subp1_total_read_sector_queries    12479495    12479495    12479495    12479495
          1       l2_subp0_total_write_sector_queries    10320000    10320000    10320000    10320000
          1       l2_subp1_total_write_sector_queries    10320006    10320006    10320006    10320006
          1       l2_subp0_read_sysmem_sector_queries           0           0           0           0
          1       l2_subp1_read_sysmem_sector_queries           0           0           0           0
          1      l2_subp0_write_sysmem_sector_queries           0           0           0           0
          1      l2_subp1_write_sysmem_sector_queries           5           5           5           5
          1                         elapsed_cycles_sm    67071444    67071444    67071444    67071444
          1                             gld_inst_8bit           0           0           0           0
          1                            gld_inst_16bit           0           0           0           0
          1                            gld_inst_32bit           0           0           0           0
          1                            gld_inst_64bit   163840000   163840000   163840000   163840000
          1                           gld_inst_128bit           0           0           0           0
          1                             gst_inst_8bit           0           0           0           0
          1                            gst_inst_16bit           0           0           0           0
          1                            gst_inst_32bit           0           0           0           0
          1                            gst_inst_64bit    82560000    82560000    82560000    82560000
          1                           gst_inst_128bit           0           0           0           0
          1                           prof_trigger_00           0           0           0           0
          1                           prof_trigger_01           0           0           0           0
          1                           prof_trigger_02           0           0           0           0
          1                           prof_trigger_03           0           0           0           0
          1                           prof_trigger_04           0           0           0           0
          1                           prof_trigger_05           0           0           0           0
          1                           prof_trigger_06           0           0           0           0
          1                           prof_trigger_07           0           0           0           0
          1                            warps_launched       20000       20000       20000       20000
          1                              inst_issued0   225473497   225473497   225473497   225473497
          1                              inst_issued1    33723237    33723237    33723237    33723237
          1                              inst_issued2     2560000     2560000     2560000     2560000
          1                             inst_executed    38840000    38840000    38840000    38840000
          1                      thread_inst_executed  1242880000  1242880000  1242880000  1242880000
          1   not_predicated_off_thread_inst_executed  1241600000  1241600000  1241600000  1241600000
          1                               local_store           0           0           0           0
          1                                local_load           0           0           0           0
          1                               shared_load           0           0           0           0
          1                              shared_store           0           0           0           0
          1                           shared_atom_cas           0           0           0           0
          1                               shared_atom           0           0           0           0
          1                           global_atom_cas           0           0           0           0
          1                                atom_count           0           0           0           0
          1                                gred_count           0           0           0           0
          1                               global_load     5120000     5120000     5120000     5120000
          1                              global_store     2580000     2580000     2580000     2580000
          1                          divergent_branch           0           0           0           0
          1                                    branch     2600000     2600000     2600000     2600000
          1                             active_cycles    66072505    66072505    66072505    66072505
          1                              active_warps  4203725814  4203725814  4203725814  4203725814
          1                               active_ctas  1038886921  1038886921  1038886921  1038886921
          1                           sm_cta_launched        5000        5000        5000        5000
          1                   shared_ld_bank_conflict           0           0           0           0
          1                   shared_st_bank_conflict           0           0           0           0
          1                    shared_ld_transactions           0           0           0           0
          1                    shared_st_transactions           0           0           0           0
    Kernel: conv_gpu_constant_memory(double const *, double*, int, int)
          1                 tex0_cache_sector_queries    28240000    28240000    28240000    28240000
          1                 tex1_cache_sector_queries    28240000    28240000    28240000    28240000
          1                  tex0_cache_sector_misses    21520000    21520000    21520000    21520000
          1                  tex1_cache_sector_misses    21520000    21520000    21520000    21520000
          1                     fb_subp0_read_sectors       80032       80032       80032       80032
          1                     fb_subp1_read_sectors       80008       80008       80008       80008
          1                    fb_subp0_write_sectors       83113       83113       83113       83113
          1                    fb_subp1_write_sectors       83053       83053       83053       83053
          1              l2_subp0_write_sector_misses       83034       83034       83034       83034
          1              l2_subp1_write_sector_misses       83010       83010       83010       83010
          1               l2_subp0_read_sector_misses       80024       80024       80024       80024
          1               l2_subp1_read_sector_misses       80016       80016       80016       80016
          1          l2_subp0_read_tex_sector_queries    11200560    11200560    11200560    11200560
          1          l2_subp1_read_tex_sector_queries    11199440    11199440    11199440    11199440
          1         l2_subp0_write_tex_sector_queries    10320000    10320000    10320000    10320000
          1         l2_subp1_write_tex_sector_queries    10320000    10320000    10320000    10320000
          1             l2_subp0_read_tex_hit_sectors    11120544    11120544    11120544    11120544
          1             l2_subp1_read_tex_hit_sectors    11119424    11119424    11119424    11119424
          1            l2_subp0_write_tex_hit_sectors    10240000    10240000    10240000    10240000
          1            l2_subp1_write_tex_hit_sectors    10240000    10240000    10240000    10240000
          1        l2_subp0_total_read_sector_queries    11200704    11200704    11200704    11200704
          1        l2_subp1_total_read_sector_queries    11199591    11199591    11199591    11199591
          1       l2_subp0_total_write_sector_queries    10320000    10320000    10320000    10320000
          1       l2_subp1_total_write_sector_queries    10320006    10320006    10320006    10320006
          1       l2_subp0_read_sysmem_sector_queries           0           0           0           0
          1       l2_subp1_read_sysmem_sector_queries           0           0           0           0
          1      l2_subp0_write_sysmem_sector_queries           0           0           0           0
          1      l2_subp1_write_sysmem_sector_queries           5           5           5           5
          1                         elapsed_cycles_sm    37364640    37364640    37364640    37364640
          1                             gld_inst_8bit           0           0           0           0
          1                            gld_inst_16bit           0           0           0           0
          1                            gld_inst_32bit           0           0           0           0
          1                            gld_inst_64bit    81920000    81920000    81920000    81920000
          1                           gld_inst_128bit           0           0           0           0
          1                             gst_inst_8bit           0           0           0           0
          1                            gst_inst_16bit           0           0           0           0
          1                            gst_inst_32bit           0           0           0           0
          1                            gst_inst_64bit    82560000    82560000    82560000    82560000
          1                           gst_inst_128bit           0           0           0           0
          1                           prof_trigger_00           0           0           0           0
          1                           prof_trigger_01           0           0           0           0
          1                           prof_trigger_02           0           0           0           0
          1                           prof_trigger_03           0           0           0           0
          1                           prof_trigger_04           0           0           0           0
          1                           prof_trigger_05           0           0           0           0
          1                           prof_trigger_06           0           0           0           0
          1                           prof_trigger_07           0           0           0           0
          1                            warps_launched       20000       20000       20000       20000
          1                              inst_issued0   119278707   119278707   119278707   119278707
          1                              inst_issued1    26023795    26023795    26023795    26023795
          1                              inst_issued2     2560000     2560000     2560000     2560000
          1                             inst_executed    31140000    31140000    31140000    31140000
          1                      thread_inst_executed   996480000   996480000   996480000   996480000
          1   not_predicated_off_thread_inst_executed   995200000   995200000   995200000   995200000
          1                               local_store           0           0           0           0
          1                                local_load           0           0           0           0
          1                               shared_load           0           0           0           0
          1                              shared_store           0           0           0           0
          1                           shared_atom_cas           0           0           0           0
          1                               shared_atom           0           0           0           0
          1                           global_atom_cas           0           0           0           0
          1                                atom_count           0           0           0           0
          1                                gred_count           0           0           0           0
          1                               global_load     2560000     2560000     2560000     2560000
          1                              global_store     2580000     2580000     2580000     2580000
          1                          divergent_branch           0           0           0           0
          1                                    branch     2600000     2600000     2600000     2600000
          1                             active_cycles    36810670    36810670    36810670    36810670
          1                              active_warps  2335016058  2335016058  2335016058  2335016058
          1                               active_ctas   587652000   587652000   587652000   587652000
          1                           sm_cta_launched        5000        5000        5000        5000
          1                   shared_ld_bank_conflict           0           0           0           0
          1                   shared_st_bank_conflict           0           0           0           0
          1                    shared_ld_transactions           0           0           0           0
          1                    shared_st_transactions           0           0           0           0
    Kernel: conv_gpu_shared_memory(double const *, double*, double const *, int, int)
          1                 tex0_cache_sector_queries    28320000    28320000    28320000    28320000
          1                 tex1_cache_sector_queries    28320000    28320000    28320000    28320000
          1                  tex0_cache_sector_misses    21600000    21600000    21600000    21600000
          1                  tex1_cache_sector_misses    21600000    21600000    21600000    21600000
          1                     fb_subp0_read_sectors       80032       80032       80032       80032
          1                     fb_subp1_read_sectors       80071       80071       80071       80071
          1                    fb_subp0_write_sectors       82881       82881       82881       82881
          1                    fb_subp1_write_sectors       82751       82751       82751       82751
          1              l2_subp0_write_sector_misses       82954       82954       82954       82954
          1              l2_subp1_write_sector_misses       82938       82938       82938       82938
          1               l2_subp0_read_sector_misses       80039       80039       80039       80039
          1               l2_subp1_read_sector_misses       80032       80032       80032       80032
          1          l2_subp0_read_tex_sector_queries    11280560    11280560    11280560    11280560
          1          l2_subp1_read_tex_sector_queries    11279440    11279440    11279440    11279440
          1         l2_subp0_write_tex_sector_queries    10320000    10320000    10320000    10320000
          1         l2_subp1_write_tex_sector_queries    10320000    10320000    10320000    10320000
          1             l2_subp0_read_tex_hit_sectors    11200528    11200528    11200528    11200528
          1             l2_subp1_read_tex_hit_sectors    11199408    11199408    11199408    11199408
          1            l2_subp0_write_tex_hit_sectors    10240000    10240000    10240000    10240000
          1            l2_subp1_write_tex_hit_sectors    10240000    10240000    10240000    10240000
          1        l2_subp0_total_read_sector_queries    11280608    11280608    11280608    11280608
          1        l2_subp1_total_read_sector_queries    11279495    11279495    11279495    11279495
          1       l2_subp0_total_write_sector_queries    10320004    10320004    10320004    10320004
          1       l2_subp1_total_write_sector_queries    10320002    10320002    10320002    10320002
          1       l2_subp0_read_sysmem_sector_queries           0           0           0           0
          1       l2_subp1_read_sysmem_sector_queries           0           0           0           0
          1      l2_subp0_write_sysmem_sector_queries           0           0           0           0
          1      l2_subp1_write_sysmem_sector_queries           5           5           5           5
          1                         elapsed_cycles_sm    45083136    45083136    45083136    45083136
          1                             gld_inst_8bit           0           0           0           0
          1                            gld_inst_16bit           0           0           0           0
          1                            gld_inst_32bit           0           0           0           0
          1                            gld_inst_64bit    82560000    82560000    82560000    82560000
          1                           gld_inst_128bit           0           0           0           0
          1                             gst_inst_8bit           0           0           0           0
          1                            gst_inst_16bit           0           0           0           0
          1                            gst_inst_32bit           0           0           0           0
          1                            gst_inst_64bit    82560000    82560000    82560000    82560000
          1                           gst_inst_128bit           0           0           0           0
          1                           prof_trigger_00           0           0           0           0
          1                           prof_trigger_01           0           0           0           0
          1                           prof_trigger_02           0           0           0           0
          1                           prof_trigger_03           0           0           0           0
          1                           prof_trigger_04           0           0           0           0
          1                           prof_trigger_05           0           0           0           0
          1                           prof_trigger_06           0           0           0           0
          1                           prof_trigger_07           0           0           0           0
          1                            warps_launched       20000       20000       20000       20000
          1                              inst_issued0   163182697   163182697   163182697   163182697
          1                              inst_issued1    12281306    12281306    12281306    12281306
          1                              inst_issued2     3881571     3881571     3881571     3881571
          1                             inst_executed    20040000    20040000    20040000    20040000
          1                      thread_inst_executed   641280000   641280000   641280000   641280000
          1   not_predicated_off_thread_inst_executed   639360000   639360000   639360000   639360000
          1                               local_store           0           0           0           0
          1                                local_load           0           0           0           0
          1                               shared_load     2560000     2560000     2560000     2560000
          1                              shared_store       20000       20000       20000       20000
          1                           shared_atom_cas           0           0           0           0
          1                               shared_atom           0           0           0           0
          1                           global_atom_cas           0           0           0           0
          1                                atom_count           0           0           0           0
          1                                gred_count           0           0           0           0
          1                               global_load     2580000     2580000     2580000     2580000
          1                              global_store     2580000     2580000     2580000     2580000
          1                          divergent_branch           0           0           0           0
          1                                    branch      720000      720000      720000      720000
          1                             active_cycles    44844878    44844878    44844878    44844878
          1                              active_warps  2780257702  2780257702  2780257702  2780257702
          1                               active_ctas   705654852   705654852   705654852   705654852
          1                           sm_cta_launched        5000        5000        5000        5000
          1                   shared_ld_bank_conflict           0           0           0           0
          1                   shared_st_bank_conflict           0           0           0           0
          1                    shared_ld_transactions     2560000     2560000     2560000     2560000
          1                    shared_st_transactions       20000       20000       20000       20000
