Input size N: 1280000
Filter size M: 128

Device 0: "GeForce GTX TITAN X" 
d_filter y d_input, tiempo de memcpy HtoD: 6.991904
houtput <- doutput tiempo de memcpy DtoH: 4.367520
[N/M/ms_cpu/ms_gpu/ms_gpu_sm/ms_gpu_cm]= [1280000/128/691.170526/5.485920/3.931296/3.263392] 
