Input size N: 1280000
Filter size M: 256

Device 0: "GeForce GTX 980" 
d_filter y d_input, tiempo de memcpy HtoD: 1.109568
houtput <- doutput tiempo de memcpy DtoH: 2.133568
[N/M/ms_cpu/ms_gpu/ms_gpu_sm/ms_gpu_cm]= [1280000/256/1268.199472/8.968128/4.387328/4.349536] 
