Input size N: 1280000
Filter size M: 160

Device 0: "GeForce GTX TITAN X" 
d_filter y d_input, tiempo de memcpy HtoD: 0.759360
houtput <- doutput tiempo de memcpy DtoH: 2.787296
[N/M/ms_cpu/ms_gpu/ms_gpu_sm/ms_gpu_cm]= [1280000/160/757.386078/6.282656/2.147680/2.116256] 
