Input size N: 1280000
Filter size M: 100

Device 0: "GeForce GTX 980" 
d_filter y d_input, tiempo de memcpy HtoD: 4.233344
houtput <- doutput tiempo de memcpy DtoH: 2.901728
[N/M/ms_cpu/ms_gpu/ms_gpu_sm/ms_gpu_cm]= [1280000/100/544.338690/5.207072/2.365632/2.330464] 
