srun: job 1512926 queued and waiting for resources
srun: job 1512926 has been allocated resources
==114345== NVPROF is profiling process 114345, command: ./convolucion_float 1280000 100
==114345== Some kernel(s) will be replayed on device 0 in order to collect all events/metrics.
==114345== Profiling application: ./convolucion_float 1280000 100
==114345== Profiling result:
==114345== Event result:
Invocations                                Event Name         Min         Max         Avg       Total
Device "GeForce GTX 980 (0)"
    Kernel: conv_gpu_constant_memory(float const *, float*, int, int)
          1                 tex0_cache_sector_queries    35278407    35278407    35278407    35278407
          1                 tex1_cache_sector_queries    35281593    35281593    35281593    35281593
          1                  tex0_cache_sector_misses    26401020    26401020    26401020    26401020
          1                  tex1_cache_sector_misses    26398980    26398980    26398980    26398980
          1                     fb_subp0_read_sectors       80008       80008       80008       80008
          1                     fb_subp1_read_sectors       80013       80013       80013       80013
          1                    fb_subp0_write_sectors       81855       81855       81855       81855
          1                    fb_subp1_write_sectors       81870       81870       81870       81870
          1              l2_subp0_write_sector_misses       81829       81829       81829       81829
          1              l2_subp1_write_sector_misses       81890       81890       81890       81890
          1               l2_subp0_read_sector_misses       80008       80008       80008       80008
          1               l2_subp1_read_sector_misses       80013       80013       80013       80013
          1          l2_subp0_read_tex_sector_queries    10240585    10240585    10240585    10240585
          1          l2_subp1_read_tex_sector_queries    10239415    10239415    10239415    10239415
          1         l2_subp0_write_tex_sector_queries     9375527     9375527     9375527     9375527
          1         l2_subp1_write_tex_sector_queries     9370073     9370073     9370073     9370073
          1             l2_subp0_read_tex_hit_sectors    10160577    10160577    10160577    10160577
          1             l2_subp1_read_tex_hit_sectors    10159410    10159410    10159410    10159410
          1            l2_subp0_write_tex_hit_sectors     9329669     9329669     9329669     9329669
          1            l2_subp1_write_tex_hit_sectors     9323727     9323727     9323727     9323727
          1        l2_subp0_total_read_sector_queries    10240713    10240713    10240713    10240713
          1        l2_subp1_total_read_sector_queries    10239554    10239554    10239554    10239554
          1       l2_subp0_total_write_sector_queries     9375527     9375527     9375527     9375527
          1       l2_subp1_total_write_sector_queries     9370079     9370079     9370079     9370079
          1       l2_subp0_read_sysmem_sector_queries           0           0           0           0
          1       l2_subp1_read_sysmem_sector_queries           0           0           0           0
          1      l2_subp0_write_sysmem_sector_queries           4           4           4           4
          1      l2_subp1_write_sysmem_sector_queries           1           1           1           1
          1                         elapsed_cycles_sm    40624748    40624748    40624748    40624748
          1                             gld_inst_8bit           0           0           0           0
          1                            gld_inst_16bit           0           0           0           0
          1                            gld_inst_32bit   128000000   128000000   128000000   128000000
          1                            gld_inst_64bit           0           0           0           0
          1                           gld_inst_128bit           0           0           0           0
          1                             gst_inst_8bit           0           0           0           0
          1                            gst_inst_16bit           0           0           0           0
          1                            gst_inst_32bit   129280000   129280000   129280000   129280000
          1                            gst_inst_64bit           0           0           0           0
          1                           gst_inst_128bit           0           0           0           0
          1                           prof_trigger_00           0           0           0           0
          1                           prof_trigger_01           0           0           0           0
          1                           prof_trigger_02           0           0           0           0
          1                           prof_trigger_03           0           0           0           0
          1                           prof_trigger_04           0           0           0           0
          1                           prof_trigger_05           0           0           0           0
          1                           prof_trigger_06           0           0           0           0
          1                           prof_trigger_07           0           0           0           0
          1                            warps_launched       51200       51200       51200       51200
          1                              inst_issued0   104830372   104830372   104830372   104830372
          1                              inst_issued1    47106788    47106788    47106788    47106788
          1                              inst_issued2    10240000    10240000    10240000    10240000
          1                             inst_executed    67584000    67584000    67584000    67584000
          1                      thread_inst_executed  1689600000  1689600000  1689600000  1689600000
          1   not_predicated_off_thread_inst_executed  1687040000  1687040000  1687040000  1687040000
          1                               local_store           0           0           0           0
          1                                local_load           0           0           0           0
          1                               shared_load           0           0           0           0
          1                              shared_store           0           0           0           0
          1                           shared_atom_cas           0           0           0           0
          1                               shared_atom           0           0           0           0
          1                           global_atom_cas           0           0           0           0
          1                                atom_count           0           0           0           0
          1                                gred_count           0           0           0           0
          1                               global_load     5120000     5120000     5120000     5120000
          1                              global_store     5171200     5171200     5171200     5171200
          1                          divergent_branch           0           0           0           0
          1                                    branch     5222400     5222400     5222400     5222400
          1                             active_cycles    40434210    40434210    40434210    40434210
          1                              active_warps  2552378634  2552378634  2552378634  2552378634
          1                               active_ctas   646463409   646463409   646463409   646463409
          1                           sm_cta_launched       12800       12800       12800       12800
          1                   shared_ld_bank_conflict           0           0           0           0
          1                   shared_st_bank_conflict           0           0           0           0
          1                    shared_ld_transactions           0           0           0           0
          1                    shared_st_transactions           0           0           0           0
    Kernel: conv_gpu_shared_memory(float const *, float*, float const *, int, int)
          1                 tex0_cache_sector_queries    35441573    35441573    35441573    35441573
          1                 tex1_cache_sector_queries    35438427    35438427    35438427    35438427
          1                  tex0_cache_sector_misses    26483258    26483258    26483258    26483258
          1                  tex1_cache_sector_misses    26483142    26483142    26483142    26483142
          1                     fb_subp0_read_sectors       80020       80020       80020       80020
          1                     fb_subp1_read_sectors       80013       80013       80013       80013
          1                    fb_subp0_write_sectors       82073       82073       82073       82073
          1                    fb_subp1_write_sectors       81862       81862       81862       81862
          1              l2_subp0_write_sector_misses       82029       82029       82029       82029
          1              l2_subp1_write_sector_misses       82022       82022       82022       82022
          1               l2_subp0_read_sector_misses       80013       80013       80013       80013
          1               l2_subp1_read_sector_misses       80020       80020       80020       80020
          1          l2_subp0_read_tex_sector_queries    10304585    10304585    10304585    10304585
          1          l2_subp1_read_tex_sector_queries    10341815    10341815    10341815    10341815
          1         l2_subp0_write_tex_sector_queries     9368760     9368760     9368760     9368760
          1         l2_subp1_write_tex_sector_queries     9376840     9376840     9376840     9376840
          1             l2_subp0_read_tex_hit_sectors    10224572    10224572    10224572    10224572
          1             l2_subp1_read_tex_hit_sectors    10261802    10261802    10261802    10261802
          1            l2_subp0_write_tex_hit_sectors     9322419     9322419     9322419     9322419
          1            l2_subp1_write_tex_hit_sectors     9330866     9330866     9330866     9330866
          1        l2_subp0_total_read_sector_queries    10304713    10304713    10304713    10304713
          1        l2_subp1_total_read_sector_queries    10341950    10341950    10341950    10341950
          1       l2_subp0_total_write_sector_queries     9368760     9368760     9368760     9368760
          1       l2_subp1_total_write_sector_queries     9376846     9376846     9376846     9376846
          1       l2_subp0_read_sysmem_sector_queries           0           0           0           0
          1       l2_subp1_read_sysmem_sector_queries           0           0           0           0
          1      l2_subp0_write_sysmem_sector_queries           4           4           4           4
          1      l2_subp1_write_sysmem_sector_queries           1           1           1           1
          1                         elapsed_cycles_sm    41369024    41369024    41369024    41369024
          1                             gld_inst_8bit           0           0           0           0
          1                            gld_inst_16bit           0           0           0           0
          1                            gld_inst_32bit   129280000   129280000   129280000   129280000
          1                            gld_inst_64bit           0           0           0           0
          1                           gld_inst_128bit           0           0           0           0
          1                             gst_inst_8bit           0           0           0           0
          1                            gst_inst_16bit           0           0           0           0
          1                            gst_inst_32bit   129280000   129280000   129280000   129280000
          1                            gst_inst_64bit           0           0           0           0
          1                           gst_inst_128bit           0           0           0           0
          1                           prof_trigger_00           0           0           0           0
          1                           prof_trigger_01           0           0           0           0
          1                           prof_trigger_02           0           0           0           0
          1                           prof_trigger_03           0           0           0           0
          1                           prof_trigger_04           0           0           0           0
          1                           prof_trigger_05           0           0           0           0
          1                           prof_trigger_06           0           0           0           0
          1                           prof_trigger_07           0           0           0           0
          1                            warps_launched       51200       51200       51200       51200
          1                              inst_issued0   142560383   142560383   142560383   142560383
          1                              inst_issued1    11879846    11879846    11879846    11879846
          1                              inst_issued2    10394635    10394635    10394635    10394635
          1                             inst_executed    32665600    32665600    32665600    32665600
          1                      thread_inst_executed   816640000   816640000   816640000   816640000
          1   not_predicated_off_thread_inst_executed   812800000   812800000   812800000   812800000
          1                               local_store           0           0           0           0
          1                                local_load           0           0           0           0
          1                               shared_load     5120000     5120000     5120000     5120000
          1                              shared_store       51200       51200       51200       51200
          1                           shared_atom_cas           0           0           0           0
          1                               shared_atom           0           0           0           0
          1                           global_atom_cas           0           0           0           0
          1                                atom_count           0           0           0           0
          1                                gred_count           0           0           0           0
          1                               global_load     5171200     5171200     5171200     5171200
          1                              global_store     5171200     5171200     5171200     5171200
          1                          divergent_branch           0           0           0           0
          1                                    branch     1484800     1484800     1484800     1484800
          1                             active_cycles    41120007    41120007    41120007    41120007
          1                              active_warps  2596328492  2596328492  2596328492  2596328492
          1                               active_ctas   655383885   655383885   655383885   655383885
          1                           sm_cta_launched       12800       12800       12800       12800
          1                   shared_ld_bank_conflict           0           0           0           0
          1                   shared_st_bank_conflict           0           0           0           0
          1                    shared_ld_transactions     5120000     5120000     5120000     5120000
          1                    shared_st_transactions       51200       51200       51200       51200
    Kernel: conv_gpu(float const *, float*, float const *, int, int)
          1                 tex0_cache_sector_queries    43599952    43599952    43599952    43599952
          1                 tex1_cache_sector_queries    43600048    43600048    43600048    43600048
          1                  tex0_cache_sector_misses    28960002    28960002    28960002    28960002
          1                  tex1_cache_sector_misses    28959998    28959998    28959998    28959998
          1                     fb_subp0_read_sectors       80020       80020       80020       80020
          1                     fb_subp1_read_sectors       80037       80037       80037       80037
          1                    fb_subp0_write_sectors       81869       81869       81869       81869
          1                    fb_subp1_write_sectors       81950       81950       81950       81950
          1              l2_subp0_write_sector_misses       81885       81885       81885       81885
          1              l2_subp1_write_sector_misses       81858       81858       81858       81858
          1               l2_subp0_read_sector_misses       80013       80013       80013       80013
          1               l2_subp1_read_sector_misses       80020       80020       80020       80020
          1          l2_subp0_read_tex_sector_queries    12083785    12083785    12083785    12083785
          1          l2_subp1_read_tex_sector_queries    13516215    13516215    13516215    13516215
          1         l2_subp0_write_tex_sector_queries     9368861     9368861     9368861     9368861
          1         l2_subp1_write_tex_sector_queries     9376739     9376739     9376739     9376739
          1             l2_subp0_read_tex_hit_sectors    12003772    12003772    12003772    12003772
          1             l2_subp1_read_tex_hit_sectors    13436202    13436202    13436202    13436202
          1            l2_subp0_write_tex_hit_sectors     9322741     9322741     9322741     9322741
          1            l2_subp1_write_tex_hit_sectors     9330569     9330569     9330569     9330569
          1        l2_subp0_total_read_sector_queries    12083817    12083817    12083817    12083817
          1        l2_subp1_total_read_sector_queries    13516254    13516254    13516254    13516254
          1       l2_subp0_total_write_sector_queries     9368865     9368865     9368865     9368865
          1       l2_subp1_total_write_sector_queries     9376741     9376741     9376741     9376741
          1       l2_subp0_read_sysmem_sector_queries           0           0           0           0
          1       l2_subp1_read_sysmem_sector_queries           0           0           0           0
          1      l2_subp0_write_sysmem_sector_queries           4           4           4           4
          1      l2_subp1_write_sysmem_sector_queries           1           1           1           1
          1                         elapsed_cycles_sm    90772316    90772316    90772316    90772316
          1                             gld_inst_8bit           0           0           0           0
          1                            gld_inst_16bit           0           0           0           0
          1                            gld_inst_32bit   256000000   256000000   256000000   256000000
          1                            gld_inst_64bit           0           0           0           0
          1                           gld_inst_128bit           0           0           0           0
          1                             gst_inst_8bit           0           0           0           0
          1                            gst_inst_16bit           0           0           0           0
          1                            gst_inst_32bit   129280000   129280000   129280000   129280000
          1                            gst_inst_64bit           0           0           0           0
          1                           gst_inst_128bit           0           0           0           0
          1                           prof_trigger_00           0           0           0           0
          1                           prof_trigger_01           0           0           0           0
          1                           prof_trigger_02           0           0           0           0
          1                           prof_trigger_03           0           0           0           0
          1                           prof_trigger_04           0           0           0           0
          1                           prof_trigger_05           0           0           0           0
          1                           prof_trigger_06           0           0           0           0
          1                           prof_trigger_07           0           0           0           0
          1                            warps_launched       51200       51200       51200       51200
          1                              inst_issued0   293506135   293506135   293506135   293506135
          1                              inst_issued1    62518228    62518228    62518228    62518228
          1                              inst_issued2     5120000     5120000     5120000     5120000
          1                             inst_executed    72755200    72755200    72755200    72755200
          1                      thread_inst_executed  1818880000  1818880000  1818880000  1818880000
          1   not_predicated_off_thread_inst_executed  1816320000  1816320000  1816320000  1816320000
          1                               local_store           0           0           0           0
          1                                local_load           0           0           0           0
          1                               shared_load           0           0           0           0
          1                              shared_store           0           0           0           0
          1                           shared_atom_cas           0           0           0           0
          1                               shared_atom           0           0           0           0
          1                           global_atom_cas           0           0           0           0
          1                                atom_count           0           0           0           0
          1                                gred_count           0           0           0           0
          1                               global_load    10240000    10240000    10240000    10240000
          1                              global_store     5171200     5171200     5171200     5171200
          1                          divergent_branch           0           0           0           0
          1                                    branch     5222400     5222400     5222400     5222400
          1                             active_cycles    90290099    90290099    90290099    90290099
          1                              active_warps  5749849726  5749849726  5749849726  5749849726
          1                               active_ctas  1444666377  1444666377  1444666377  1444666377
          1                           sm_cta_launched       12800       12800       12800       12800
          1                   shared_ld_bank_conflict           0           0           0           0
          1                   shared_st_bank_conflict           0           0           0           0
          1                    shared_ld_transactions           0           0           0           0
          1                    shared_st_transactions           0           0           0           0
