Input size N: 1280000
Filter size M: 64

Device 0: "GeForce GTX TITAN X" 
d_filter y d_input, tiempo de memcpy HtoD: 2.971168
houtput <- doutput tiempo de memcpy DtoH: 2.939488
[N/M/ms_cpu/ms_gpu/ms_gpu_sm/ms_gpu_cm]= [1280000/64/299.033541/3.818304/0.962432/0.871552] 
