Input size N: 1280000
Filter size M: 128

Device 0: "Tesla V100-PCIE-16GB" 
d_filter y d_input, tiempo de memcpy HtoD: 1.848128
houtput <- doutput tiempo de memcpy DtoH: 13.568416
[N/M/ms_cpu/ms_gpu/ms_gpu_sm/ms_gpu_cm]= [1280000/128/567.307040/1.020000/0.998976/0.980000] 
