srun: job 1513036 queued and waiting for resources
srun: job 1513036 has been allocated resources
======== Warning: This version of nvprof doesn't support the underlying device, GPU profiling skipped.
======== Warning: No CUDA application was profiled, exiting
