Input size N: 1280000
Filter size M: 32

Device 0: "Tesla V100-PCIE-16GB" 
d_filter y d_input, tiempo de memcpy HtoD: 0.994336
houtput <- doutput tiempo de memcpy DtoH: 3.742144
[N/M/ms_cpu/ms_gpu/ms_gpu_sm/ms_gpu_cm]= [1280000/32/137.367650/0.177120/0.145856/0.141280] 
