srun: job 1512922 queued and waiting for resources
srun: job 1512922 has been allocated resources
==34586== NVPROF is profiling process 34586, command: ./convolucion_float 1280000 64
==34586== Some kernel(s) will be replayed on device 0 in order to collect all events/metrics.
==34586== Profiling application: ./convolucion_float 1280000 64
==34586== Profiling result:
==34586== Metric result:
Invocations                               Metric Name                                    Metric Description         Min         Max         Avg
Device "GeForce GTX TITAN X (0)"
    Kernel: conv_gpu_constant_memory(float const *, float*, int, int)
          1                             sm_efficiency                               Multiprocessor Activity      98.65%      98.65%      98.65%
          1                        achieved_occupancy                                    Achieved Occupancy    0.983024    0.983024    0.983024
          1                                       ipc                                          Executed IPC    1.780687    1.780687    1.780687
          1                                issued_ipc                                            Issued IPC    1.781646    1.781646    1.781646
          1                             inst_per_warp                                 Instructions per warp  852.000000  852.000000  852.000000
          1                         branch_efficiency                                     Branch Efficiency     100.00%     100.00%     100.00%
          1                 warp_execution_efficiency                             Warp Execution Efficiency     100.00%     100.00%     100.00%
          1         warp_nonpred_execution_efficiency              Warp Non-Predicated Execution Efficiency      99.77%      99.77%      99.77%
          1                      inst_replay_overhead                           Instruction Replay Overhead    0.000047    0.000047    0.000047
          1                    issue_slot_utilization                                Issue Slot Utilization      37.85%      37.85%      37.85%
          1      shared_load_transactions_per_request           Shared Memory Load Transactions Per Request    0.000000    0.000000    0.000000
          1     shared_store_transactions_per_request          Shared Memory Store Transactions Per Request    0.000000    0.000000    0.000000
          1       local_load_transactions_per_request            Local Memory Load Transactions Per Request    0.000000    0.000000    0.000000
          1      local_store_transactions_per_request           Local Memory Store Transactions Per Request    0.000000    0.000000    0.000000
          1              gld_transactions_per_request                  Global Load Transactions Per Request    9.500000    9.500000    9.500000
          1              gst_transactions_per_request                 Global Store Transactions Per Request    4.000000    4.000000    4.000000
          1                 shared_store_transactions                             Shared Store Transactions           0           0           0
          1                  shared_load_transactions                              Shared Load Transactions           0           0           0
          1                   local_load_transactions                               Local Load Transactions           0           0           0
          1                  local_store_transactions                              Local Store Transactions           0           0           0
          1                          gld_transactions                              Global Load Transactions    24320000    24320000    24320000
          1                          gst_transactions                             Global Store Transactions    10400000    10400000    10400000
          1                    dram_read_transactions                       Device Memory Read Transactions      160032      160032      160032
          1                   dram_write_transactions                      Device Memory Write Transactions      165756      165756      165756
          1                           global_hit_rate                                       Global Hit Rate      48.68%      48.68%      48.68%
          1                            local_hit_rate                                        Local Hit Rate       0.00%       0.00%       0.00%
          1                  gld_requested_throughput                      Requested Global Load Throughput  401.41GB/s  401.41GB/s  401.41GB/s
          1                  gst_requested_throughput                     Requested Global Store Throughput  407.68GB/s  407.68GB/s  407.68GB/s
          1                            gld_throughput                                Global Load Throughput  489.21GB/s  489.21GB/s  489.21GB/s
          1                            gst_throughput                               Global Store Throughput  407.68GB/s  407.68GB/s  407.68GB/s
          1                      dram_read_throughput                         Device Memory Read Throughput  6.2732GB/s  6.2732GB/s  6.2725GB/s
          1                     dram_write_throughput                        Device Memory Write Throughput  6.4976GB/s  6.4976GB/s  6.4969GB/s
          1                      tex_cache_throughput                              Unified Cache Throughput  401.41GB/s  401.41GB/s  401.41GB/s
          1                     local_load_throughput                          Local Memory Load Throughput  0.00000B/s  0.00000B/s  0.00000B/s
          1                    local_store_throughput                         Local Memory Store Throughput  0.00000B/s  0.00000B/s  0.00000B/s
          1                    shared_load_throughput                         Shared Memory Load Throughput  0.00000B/s  0.00000B/s  0.00000B/s
          1                   shared_store_throughput                        Shared Memory Store Throughput  0.00000B/s  0.00000B/s  0.00000B/s
          1                            gld_efficiency                         Global Memory Load Efficiency      82.05%      82.05%      82.05%
          1                            gst_efficiency                        Global Memory Store Efficiency     100.00%     100.00%     100.00%
          1                    tex_cache_transactions                            Unified Cache Transactions    10240000    10240000    10240000
          1                         cf_fu_utilization                Control-Flow Function Unit Utilization     Low (1)     Low (1)     Low (1)
          1                        tex_fu_utilization                     Texture Function Unit Utilization     Mid (6)     Mid (6)     Mid (6)
          1                       ldst_fu_utilization                  Load/Store Function Unit Utilization     Low (1)     Low (1)     Low (1)
          1           double_precision_fu_utilization            Double-Precision Function Unit Utilization    Idle (0)    Idle (0)    Idle (0)
          1                    special_fu_utilization                     Special Function Unit Utilization    Idle (0)    Idle (0)    Idle (0)
          1           single_precision_fu_utilization            Single-Precision Function Unit Utilization     Mid (4)     Mid (4)     Mid (4)
          1                             flop_count_dp           Floating Point Operations(Double Precision)           0           0           0
          1                         flop_count_dp_add       Floating Point Operations(Double Precision Add)           0           0           0
          1                         flop_count_dp_fma       Floating Point Operations(Double Precision FMA)           0           0           0
          1                         flop_count_dp_mul       Floating Point Operations(Double Precision Mul)           0           0           0
          1                             flop_count_sp           Floating Point Operations(Single Precision)   163840000   163840000   163840000
          1                         flop_count_sp_add       Floating Point Operations(Single Precision Add)           0           0           0
          1                         flop_count_sp_fma       Floating Point Operations(Single Precision FMA)    81920000    81920000    81920000
          1                         flop_count_sp_mul        Floating Point Operation(Single Precision Mul)           0           0           0
          1                     flop_count_sp_special   Floating Point Operations(Single Precision Special)           0           0           0
          1                             inst_executed                                 Instructions Executed    34080000    34080000    34080000
          1                               inst_issued                                   Instructions Issued    34081639    34081639    34081639
          1                          dram_utilization                             Device Memory Utilization     Low (1)     Low (1)     Low (1)
          1                           tex_utilization                             Unified Cache Utilization     Low (3)     Low (3)     Low (3)
          1                         shared_efficiency                              Shared Memory Efficiency       0.00%       0.00%       0.00%
          1                        shared_utilization                             Shared Memory Utilization    Idle (0)    Idle (0)    Idle (0)
          1                                inst_fp_32                               FP Instructions(Single)    81920000    81920000    81920000
          1                                inst_fp_64                               FP Instructions(Double)           0           0           0
          1                              inst_integer                                  Integer Instructions   422400000   422400000   422400000
          1                          inst_bit_convert                              Bit-Convert Instructions           0           0           0
          1                              inst_control                             Control-Flow Instructions    81920000    81920000    81920000
          1                        inst_compute_ld_st                               Load/Store Instructions   247040000   247040000   247040000
          1                                 inst_misc                                     Misc Instructions   254720000   254720000   254720000
          1           inst_inter_thread_communication                             Inter-Thread Instructions           0           0           0
          1                               issue_slots                                           Issue Slots    28961639    28961639    28961639
          1                                 cf_issued                      Issued Control-Flow Instructions     5200000     5200000     5200000
          1                               cf_executed                    Executed Control-Flow Instructions     5200000     5200000     5200000
          1                               ldst_issued                        Issued Load/Store Instructions    23280000    23280000    23280000
          1                             ldst_executed                      Executed Load/Store Instructions     7800000     7800000     7800000
          1                       atomic_transactions                                   Atomic Transactions           0           0           0
          1           atomic_transactions_per_request                       Atomic Transactions Per Request    0.000000    0.000000    0.000000
          1                          stall_inst_fetch              Issue Stall Reasons (Instructions Fetch)       4.55%       4.55%       4.55%
          1                     stall_exec_dependency            Issue Stall Reasons (Execution Dependency)       8.56%       8.56%       8.56%
          1                   stall_memory_dependency                    Issue Stall Reasons (Data Request)      84.48%      84.48%      84.48%
          1                             stall_texture                         Issue Stall Reasons (Texture)       0.00%       0.00%       0.00%
          1                                stall_sync                 Issue Stall Reasons (Synchronization)       0.00%       0.00%       0.00%
          1                               stall_other                           Issue Stall Reasons (Other)       1.58%       1.58%       1.58%
          1          stall_constant_memory_dependency              Issue Stall Reasons (Immediate constant)       0.01%       0.01%       0.01%
          1                           stall_pipe_busy                       Issue Stall Reasons (Pipe Busy)       0.05%       0.05%       0.05%
          1                     stall_memory_throttle                 Issue Stall Reasons (Memory Throttle)       0.04%       0.04%       0.04%
          1                        stall_not_selected                    Issue Stall Reasons (Not Selected)       0.73%       0.73%       0.73%
          1                  sysmem_read_transactions                       System Memory Read Transactions           0           0           0
          1                 sysmem_write_transactions                      System Memory Write Transactions           5           5           5
          1                      l2_read_transactions                                  L2 Read Transactions    12480343    12480343    12480343
          1                     l2_write_transactions                                 L2 Write Transactions    10400006    10400006    10400006
          1                          ecc_transactions                                      ECC Transactions           0           0           0
          1                     local_memory_overhead                                 Local Memory Overhead       0.00%       0.00%       0.00%
          1                        tex_cache_hit_rate                                Unified Cache Hit Rate      49.29%      49.29%      49.29%
          1                      l2_tex_read_hit_rate                           L2 Hit Rate (Texture Reads)      98.72%      98.72%      98.72%
          1                     l2_tex_write_hit_rate                          L2 Hit Rate (Texture Writes)      98.46%      98.46%      98.46%
          1                    l2_tex_read_throughput                         L2 Throughput (Texture Reads)  489.21GB/s  489.21GB/s  489.21GB/s
          1                   l2_tex_write_throughput                        L2 Throughput (Texture Writes)  407.68GB/s  407.68GB/s  407.68GB/s
          1                  l2_tex_read_transactions                       L2 Transactions (Texture Reads)    12480000    12480000    12480000
          1                 l2_tex_write_transactions                      L2 Transactions (Texture Writes)    10400000    10400000    10400000
          1                        l2_read_throughput                                 L2 Throughput (Reads)  489.23GB/s  489.23GB/s  489.23GB/s
          1                       l2_write_throughput                                L2 Throughput (Writes)  407.68GB/s  407.68GB/s  407.68GB/s
          1                    sysmem_read_throughput                         System Memory Read Throughput  0.00000B/s  0.00000B/s  0.00000B/s
          1                   sysmem_write_throughput                        System Memory Write Throughput  205.52KB/s  205.52KB/s  0.00000B/s
          1                            l2_utilization                                  L2 Cache Utilization    Max (10)    Max (10)    Max (10)
          1                      l2_atomic_throughput                       L2 Throughput (Atomic requests)  0.00000B/s  0.00000B/s  0.00000B/s
          1                    l2_atomic_transactions                     L2 Transactions (Atomic requests)           0           0           0
          1                        sysmem_utilization                             System Memory Utilization     Low (1)     Low (1)     Low (1)
          1                            ecc_throughput                                        ECC Throughput  0.00000B/s  0.00000B/s  0.00000B/s
          1                   sysmem_read_utilization                        System Memory Read Utilization    Idle (0)    Idle (0)    Idle (0)
          1                  sysmem_write_utilization                       System Memory Write Utilization     Low (1)     Low (1)     Low (1)
          1                  eligible_warps_per_cycle                       Eligible Warps Per Active Cycle    1.960355    1.960355    1.960355
          1                        flop_sp_efficiency                          FLOP Efficiency(Peak Single)       3.31%       3.31%       3.31%
          1                        flop_dp_efficiency                          FLOP Efficiency(Peak Double)       0.00%       0.00%       0.00%
    Kernel: conv_gpu_shared_memory(float const *, float*, float const *, int, int)
          1                             sm_efficiency                               Multiprocessor Activity      98.96%      98.96%      98.96%
          1                        achieved_occupancy                                    Achieved Occupancy    0.976949    0.976949    0.976949
          1                                       ipc                                          Executed IPC    0.805413    0.805413    0.805413
          1                                issued_ipc                                            Issued IPC    0.803513    0.803513    0.803513
          1                             inst_per_warp                                 Instructions per warp  422.000000  422.000000  422.000000
          1                         branch_efficiency                                     Branch Efficiency     100.00%     100.00%     100.00%
          1                 warp_execution_efficiency                             Warp Execution Efficiency     100.00%     100.00%     100.00%
          1         warp_nonpred_execution_efficiency              Warp Non-Predicated Execution Efficiency      99.29%      99.29%      99.29%
          1                      inst_replay_overhead                           Instruction Replay Overhead    0.000089    0.000089    0.000089
          1                    issue_slot_utilization                                Issue Slot Utilization      13.09%      13.09%      13.09%
          1      shared_load_transactions_per_request           Shared Memory Load Transactions Per Request    1.000000    1.000000    1.000000
          1     shared_store_transactions_per_request          Shared Memory Store Transactions Per Request    1.000000    1.000000    1.000000
          1       local_load_transactions_per_request            Local Memory Load Transactions Per Request    0.000000    0.000000    0.000000
          1      local_store_transactions_per_request           Local Memory Store Transactions Per Request    0.000000    0.000000    0.000000
          1              gld_transactions_per_request                  Global Load Transactions Per Request    9.476923    9.476923    9.476923
          1              gst_transactions_per_request                 Global Store Transactions Per Request    4.000000    4.000000    4.000000
          1                 shared_store_transactions                             Shared Store Transactions       40000       40000       40000
          1                  shared_load_transactions                              Shared Load Transactions     2560000     2560000     2560000
          1                   local_load_transactions                               Local Load Transactions           0           0           0
          1                  local_store_transactions                              Local Store Transactions           0           0           0
          1                          gld_transactions                              Global Load Transactions    24640000    24640000    24640000
          1                          gst_transactions                             Global Store Transactions    10400000    10400000    10400000
          1                    dram_read_transactions                       Device Memory Read Transactions      160055      160055      160055
          1                   dram_write_transactions                      Device Memory Write Transactions      165924      165924      165924
          1                           global_hit_rate                                       Global Hit Rate      48.70%      48.70%      48.70%
          1                            local_hit_rate                                        Local Hit Rate       0.00%       0.00%       0.00%
          1                  gld_requested_throughput                      Requested Global Load Throughput  375.88GB/s  375.88GB/s  375.88GB/s
          1                  gst_requested_throughput                     Requested Global Store Throughput  375.88GB/s  375.88GB/s  375.88GB/s
          1                            gld_throughput                                Global Load Throughput  456.83GB/s  456.83GB/s  456.83GB/s
          1                            gst_throughput                               Global Store Throughput  375.88GB/s  375.88GB/s  375.88GB/s
          1                      dram_read_throughput                         Device Memory Read Throughput  5.7847GB/s  5.7847GB/s  5.7844GB/s
          1                     dram_write_throughput                        Device Memory Write Throughput  5.9968GB/s  5.9968GB/s  5.9968GB/s
          1                      tex_cache_throughput                              Unified Cache Throughput  375.88GB/s  375.88GB/s  375.88GB/s
          1                     local_load_throughput                          Local Memory Load Throughput  0.00000B/s  0.00000B/s  0.00000B/s
          1                    local_store_throughput                         Local Memory Store Throughput  0.00000B/s  0.00000B/s  0.00000B/s
          1                    shared_load_throughput                         Shared Memory Load Throughput  370.09GB/s  370.09GB/s  370.09GB/s
          1                   shared_store_throughput                        Shared Memory Store Throughput  5.7827GB/s  5.7827GB/s  5.7826GB/s
          1                            gld_efficiency                         Global Memory Load Efficiency      82.28%      82.28%      82.28%
          1                            gst_efficiency                        Global Memory Store Efficiency     100.00%     100.00%     100.00%
          1                    tex_cache_transactions                            Unified Cache Transactions    10400000    10400000    10400000
          1                         cf_fu_utilization                Control-Flow Function Unit Utilization     Low (1)     Low (1)     Low (1)
          1                        tex_fu_utilization                     Texture Function Unit Utilization     Mid (5)     Mid (5)     Mid (5)
          1                       ldst_fu_utilization                  Load/Store Function Unit Utilization     Low (1)     Low (1)     Low (1)
          1           double_precision_fu_utilization            Double-Precision Function Unit Utilization    Idle (0)    Idle (0)    Idle (0)
          1                    special_fu_utilization                     Special Function Unit Utilization    Idle (0)    Idle (0)    Idle (0)
          1           single_precision_fu_utilization            Single-Precision Function Unit Utilization     Low (1)     Low (1)     Low (1)
          1                             flop_count_dp           Floating Point Operations(Double Precision)           0           0           0
          1                         flop_count_dp_add       Floating Point Operations(Double Precision Add)           0           0           0
          1                         flop_count_dp_fma       Floating Point Operations(Double Precision FMA)           0           0           0
          1                         flop_count_dp_mul       Floating Point Operations(Double Precision Mul)           0           0           0
          1                             flop_count_sp           Floating Point Operations(Single Precision)   163840000   163840000   163840000
          1                         flop_count_sp_add       Floating Point Operations(Single Precision Add)           0           0           0
          1                         flop_count_sp_fma       Floating Point Operations(Single Precision FMA)    81920000    81920000    81920000
          1                         flop_count_sp_mul        Floating Point Operation(Single Precision Mul)           0           0           0
          1                     flop_count_sp_special   Floating Point Operations(Single Precision Special)           0           0           0
          1                             inst_executed                                 Instructions Executed    16880000    16880000    16880000
          1                               inst_issued                                   Instructions Issued    16881417    16881417    16881417
          1                          dram_utilization                             Device Memory Utilization     Low (1)     Low (1)     Low (1)
          1                           tex_utilization                             Unified Cache Utilization     Low (3)     Low (3)     Low (3)
          1                         shared_efficiency                              Shared Memory Efficiency     100.00%     100.00%     100.00%
          1                        shared_utilization                             Shared Memory Utilization     Low (2)     Low (2)     Low (2)
          1                                inst_fp_32                               FP Instructions(Single)    81920000    81920000    81920000
          1                                inst_fp_64                               FP Instructions(Double)           0           0           0
          1                              inst_integer                                  Integer Instructions   129280000   129280000   129280000
          1                          inst_bit_convert                              Bit-Convert Instructions           0           0           0
          1                              inst_control                             Control-Flow Instructions    21760000    21760000    21760000
          1                        inst_compute_ld_st                               Load/Store Instructions   249600000   249600000   249600000
          1                                 inst_misc                                     Misc Instructions    53760000    53760000    53760000
          1           inst_inter_thread_communication                             Inter-Thread Instructions           0           0           0
          1                               issue_slots                                           Issue Slots    11000895    11000895    11000895
          1                                 cf_issued                      Issued Control-Flow Instructions      800000      800000      800000
          1                               cf_executed                    Executed Control-Flow Instructions      800000      800000      800000
          1                               ldst_issued                        Issued Load/Store Instructions    23520000    23520000    23520000
          1                             ldst_executed                      Executed Load/Store Instructions     7920000     7920000     7920000
          1                       atomic_transactions                                   Atomic Transactions           0           0           0
          1           atomic_transactions_per_request                       Atomic Transactions Per Request    0.000000    0.000000    0.000000
          1                          stall_inst_fetch              Issue Stall Reasons (Instructions Fetch)       1.80%       1.80%       1.80%
          1                     stall_exec_dependency            Issue Stall Reasons (Execution Dependency)       3.11%       3.11%       3.11%
          1                   stall_memory_dependency                    Issue Stall Reasons (Data Request)      93.82%      93.82%      93.82%
          1                             stall_texture                         Issue Stall Reasons (Texture)       0.00%       0.00%       0.00%
          1                                stall_sync                 Issue Stall Reasons (Synchronization)       0.16%       0.16%       0.16%
          1                               stall_other                           Issue Stall Reasons (Other)       1.02%       1.02%       1.02%
          1          stall_constant_memory_dependency              Issue Stall Reasons (Immediate constant)       0.01%       0.01%       0.01%
          1                           stall_pipe_busy                       Issue Stall Reasons (Pipe Busy)       0.02%       0.02%       0.02%
          1                     stall_memory_throttle                 Issue Stall Reasons (Memory Throttle)       0.00%       0.00%       0.00%
          1                        stall_not_selected                    Issue Stall Reasons (Not Selected)       0.08%       0.08%       0.08%
          1                  sysmem_read_transactions                       System Memory Read Transactions           0           0           0
          1                 sysmem_write_transactions                      System Memory Write Transactions           5           5           5
          1                      l2_read_transactions                                  L2 Read Transactions    12640391    12640391    12640391
          1                     l2_write_transactions                                 L2 Write Transactions    10400006    10400006    10400006
          1                          ecc_transactions                                      ECC Transactions           0           0           0
          1                     local_memory_overhead                                 Local Memory Overhead       0.00%       0.00%       0.00%
          1                        tex_cache_hit_rate                                Unified Cache Hit Rate      49.30%      49.30%      49.30%
          1                      l2_tex_read_hit_rate                           L2 Hit Rate (Texture Reads)      98.73%      98.73%      98.73%
          1                     l2_tex_write_hit_rate                          L2 Hit Rate (Texture Writes)      98.46%      98.46%      98.46%
          1                    l2_tex_read_throughput                         L2 Throughput (Texture Reads)  456.83GB/s  456.83GB/s  456.83GB/s
          1                   l2_tex_write_throughput                        L2 Throughput (Texture Writes)  375.88GB/s  375.88GB/s  375.88GB/s
          1                  l2_tex_read_transactions                       L2 Transactions (Texture Reads)    12640000    12640000    12640000
          1                 l2_tex_write_transactions                      L2 Transactions (Texture Writes)    10400000    10400000    10400000
          1                        l2_read_throughput                                 L2 Throughput (Reads)  456.85GB/s  456.85GB/s  456.85GB/s
          1                       l2_write_throughput                                L2 Throughput (Writes)  375.88GB/s  375.88GB/s  375.88GB/s
          1                    sysmem_read_throughput                         System Memory Read Throughput  0.00000B/s  0.00000B/s  0.00000B/s
          1                   sysmem_write_throughput                        System Memory Write Throughput  189.49KB/s  189.49KB/s  0.00000B/s
          1                            l2_utilization                                  L2 Cache Utilization    Max (10)    Max (10)    Max (10)
          1                      l2_atomic_throughput                       L2 Throughput (Atomic requests)  0.00000B/s  0.00000B/s  0.00000B/s
          1                    l2_atomic_transactions                     L2 Transactions (Atomic requests)           0           0           0
          1                        sysmem_utilization                             System Memory Utilization     Low (1)     Low (1)     Low (1)
          1                            ecc_throughput                                        ECC Throughput  0.00000B/s  0.00000B/s  0.00000B/s
          1                   sysmem_read_utilization                        System Memory Read Utilization    Idle (0)    Idle (0)    Idle (0)
          1                  sysmem_write_utilization                       System Memory Write Utilization     Low (1)     Low (1)     Low (1)
          1                  eligible_warps_per_cycle                       Eligible Warps Per Active Cycle    0.569388    0.569388    0.569388
          1                        flop_sp_efficiency                          FLOP Efficiency(Peak Single)       3.02%       3.02%       3.02%
          1                        flop_dp_efficiency                          FLOP Efficiency(Peak Double)       0.00%       0.00%       0.00%
    Kernel: conv_gpu(float const *, float*, float const *, int, int)
          1                             sm_efficiency                               Multiprocessor Activity      99.27%      99.27%      99.27%
          1                        achieved_occupancy                                    Achieved Occupancy    0.995837    0.995837    0.995837
          1                                       ipc                                          Executed IPC    0.413610    0.413610    0.413610
          1                                issued_ipc                                            Issued IPC    0.415830    0.415830    0.415830
          1                             inst_per_warp                                 Instructions per warp  917.000000  917.000000  917.000000
          1                         branch_efficiency                                     Branch Efficiency     100.00%     100.00%     100.00%
          1                 warp_execution_efficiency                             Warp Execution Efficiency     100.00%     100.00%     100.00%
          1         warp_nonpred_execution_efficiency              Warp Non-Predicated Execution Efficiency      99.78%      99.78%      99.78%
          1                      inst_replay_overhead                           Instruction Replay Overhead    0.000044    0.000044    0.000044
          1                    issue_slot_utilization                                Issue Slot Utilization       9.67%       9.67%       9.67%
          1      shared_load_transactions_per_request           Shared Memory Load Transactions Per Request    0.000000    0.000000    0.000000
          1     shared_store_transactions_per_request          Shared Memory Store Transactions Per Request    0.000000    0.000000    0.000000
          1       local_load_transactions_per_request            Local Memory Load Transactions Per Request    0.000000    0.000000    0.000000
          1      local_store_transactions_per_request           Local Memory Store Transactions Per Request    0.000000    0.000000    0.000000
          1              gld_transactions_per_request                  Global Load Transactions Per Request    6.750000    6.750000    6.750000
          1              gst_transactions_per_request                 Global Store Transactions Per Request    4.000000    4.000000    4.000000
          1                 shared_store_transactions                             Shared Store Transactions           0           0           0
          1                  shared_load_transactions                              Shared Load Transactions           0           0           0
          1                   local_load_transactions                               Local Load Transactions           0           0           0
          1                  local_store_transactions                              Local Store Transactions           0           0           0
          1                          gld_transactions                              Global Load Transactions    34560000    34560000    34560000
          1                          gst_transactions                             Global Store Transactions    10400000    10400000    10400000
          1                    dram_read_transactions                       Device Memory Read Transactions      160027      160027      160027
          1                   dram_write_transactions                      Device Memory Write Transactions      165398      165398      165398
          1                           global_hit_rate                                       Global Hit Rate      56.48%      56.48%      56.48%
          1                            local_hit_rate                                        Local Hit Rate       0.00%       0.00%       0.00%
          1                  gld_requested_throughput                      Requested Global Load Throughput  91.951GB/s  91.951GB/s  91.950GB/s
          1                  gst_requested_throughput                     Requested Global Store Throughput  90.558GB/s  90.558GB/s  90.557GB/s
          1                            gld_throughput                                Global Load Throughput  130.96GB/s  130.96GB/s  130.96GB/s
          1                            gst_throughput                               Global Store Throughput  90.558GB/s  90.558GB/s  90.557GB/s
          1                      dram_read_throughput                         Device Memory Read Throughput  1.3934GB/s  1.3934GB/s  1.3933GB/s
          1                     dram_write_throughput                        Device Memory Write Throughput  1.4402GB/s  1.4402GB/s  1.4398GB/s
          1                      tex_cache_throughput                              Unified Cache Throughput  178.33GB/s  178.33GB/s  178.33GB/s
          1                     local_load_throughput                          Local Memory Load Throughput  0.00000B/s  0.00000B/s  0.00000B/s
          1                    local_store_throughput                         Local Memory Store Throughput  0.00000B/s  0.00000B/s  0.00000B/s
          1                    shared_load_throughput                         Shared Memory Load Throughput  0.00000B/s  0.00000B/s  0.00000B/s
          1                   shared_store_throughput                        Shared Memory Store Throughput  0.00000B/s  0.00000B/s  0.00000B/s
          1                            gld_efficiency                         Global Memory Load Efficiency      70.21%      70.21%      70.21%
          1                            gst_efficiency                        Global Memory Store Efficiency     100.00%     100.00%     100.00%
          1                    tex_cache_transactions                            Unified Cache Transactions    20480000    20480000    20480000
          1                         cf_fu_utilization                Control-Flow Function Unit Utilization     Low (1)     Low (1)     Low (1)
          1                        tex_fu_utilization                     Texture Function Unit Utilization     Low (2)     Low (2)     Low (2)
          1                       ldst_fu_utilization                  Load/Store Function Unit Utilization     Low (1)     Low (1)     Low (1)
          1           double_precision_fu_utilization            Double-Precision Function Unit Utilization    Idle (0)    Idle (0)    Idle (0)
          1                    special_fu_utilization                     Special Function Unit Utilization    Idle (0)    Idle (0)    Idle (0)
          1           single_precision_fu_utilization            Single-Precision Function Unit Utilization     Low (1)     Low (1)     Low (1)
          1                             flop_count_dp           Floating Point Operations(Double Precision)           0           0           0
          1                         flop_count_dp_add       Floating Point Operations(Double Precision Add)           0           0           0
          1                         flop_count_dp_fma       Floating Point Operations(Double Precision FMA)           0           0           0
          1                         flop_count_dp_mul       Floating Point Operations(Double Precision Mul)           0           0           0
          1                             flop_count_sp           Floating Point Operations(Single Precision)   163840000   163840000   163840000
          1                         flop_count_sp_add       Floating Point Operations(Single Precision Add)           0           0           0
          1                         flop_count_sp_fma       Floating Point Operations(Single Precision FMA)    81920000    81920000    81920000
          1                         flop_count_sp_mul        Floating Point Operation(Single Precision Mul)           0           0           0
          1                     flop_count_sp_special   Floating Point Operations(Single Precision Special)           0           0           0
          1                             inst_executed                                 Instructions Executed    36680000    36680000    36680000
          1                               inst_issued                                   Instructions Issued    36681625    36681625    36681625
          1                          dram_utilization                             Device Memory Utilization     Low (1)     Low (1)     Low (1)
          1                           tex_utilization                             Unified Cache Utilization     Low (2)     Low (2)     Low (2)
          1                         shared_efficiency                              Shared Memory Efficiency       0.00%       0.00%       0.00%
          1                        shared_utilization                             Shared Memory Utilization    Idle (0)    Idle (0)    Idle (0)
          1                                inst_fp_32                               FP Instructions(Single)    81920000    81920000    81920000
          1                                inst_fp_64                               FP Instructions(Double)           0           0           0
          1                              inst_integer                                  Integer Instructions   504320000   504320000   504320000
          1                          inst_bit_convert                              Bit-Convert Instructions           0           0           0
          1                              inst_control                             Control-Flow Instructions    81920000    81920000    81920000
          1                        inst_compute_ld_st                               Load/Store Instructions   247040000   247040000   247040000
          1                                 inst_misc                                     Misc Instructions   256000000   256000000   256000000
          1           inst_inter_thread_communication                             Inter-Thread Instructions           0           0           0
          1                               issue_slots                                           Issue Slots    34121625    34121625    34121625
          1                                 cf_issued                      Issued Control-Flow Instructions     2640000     2640000     2640000
          1                               cf_executed                    Executed Control-Flow Instructions     2640000     2640000     2640000
          1                               ldst_issued                        Issued Load/Store Instructions    30960000    30960000    30960000
          1                             ldst_executed                      Executed Load/Store Instructions     7800000     7800000     7800000
          1                       atomic_transactions                                   Atomic Transactions           0           0           0
          1           atomic_transactions_per_request                       Atomic Transactions Per Request    0.000000    0.000000    0.000000
          1                          stall_inst_fetch              Issue Stall Reasons (Instructions Fetch)       0.24%       0.24%       0.24%
          1                     stall_exec_dependency            Issue Stall Reasons (Execution Dependency)       2.19%       2.19%       2.19%
          1                   stall_memory_dependency                    Issue Stall Reasons (Data Request)      97.30%      97.30%      97.30%
          1                             stall_texture                         Issue Stall Reasons (Texture)       0.00%       0.00%       0.00%
          1                                stall_sync                 Issue Stall Reasons (Synchronization)       0.00%       0.00%       0.00%
          1                               stall_other                           Issue Stall Reasons (Other)       0.20%       0.20%       0.20%
          1          stall_constant_memory_dependency              Issue Stall Reasons (Immediate constant)       0.01%       0.01%       0.01%
          1                           stall_pipe_busy                       Issue Stall Reasons (Pipe Busy)       0.00%       0.00%       0.00%
          1                     stall_memory_throttle                 Issue Stall Reasons (Memory Throttle)       0.05%       0.05%       0.05%
          1                        stall_not_selected                    Issue Stall Reasons (Not Selected)       0.01%       0.01%       0.01%
          1                  sysmem_read_transactions                       System Memory Read Transactions           0           0           0
          1                 sysmem_write_transactions                      System Memory Write Transactions           5           5           5
          1                      l2_read_transactions                                  L2 Read Transactions    15040207    15040207    15040207
          1                     l2_write_transactions                                 L2 Write Transactions    10400006    10400006    10400006
          1                          ecc_transactions                                      ECC Transactions           0           0           0
          1                     local_memory_overhead                                 Local Memory Overhead       0.00%       0.00%       0.00%
          1                        tex_cache_hit_rate                                Unified Cache Hit Rate      54.05%      54.05%      54.05%
          1                      l2_tex_read_hit_rate                           L2 Hit Rate (Texture Reads)      98.94%      98.94%      98.94%
          1                     l2_tex_write_hit_rate                          L2 Hit Rate (Texture Writes)      98.46%      98.46%      98.46%
          1                    l2_tex_read_throughput                         L2 Throughput (Texture Reads)  130.96GB/s  130.96GB/s  130.96GB/s
          1                   l2_tex_write_throughput                        L2 Throughput (Texture Writes)  90.558GB/s  90.558GB/s  90.557GB/s
          1                  l2_tex_read_transactions                       L2 Transactions (Texture Reads)    15040000    15040000    15040000
          1                 l2_tex_write_transactions                      L2 Transactions (Texture Writes)    10400000    10400000    10400000
          1                        l2_read_throughput                                 L2 Throughput (Reads)  130.96GB/s  130.96GB/s  130.96GB/s
          1                       l2_write_throughput                                L2 Throughput (Writes)  90.558GB/s  90.558GB/s  90.558GB/s
          1                    sysmem_read_throughput                         System Memory Read Throughput  0.00000B/s  0.00000B/s  0.00000B/s
          1                   sysmem_write_throughput                        System Memory Write Throughput  45.652KB/s  45.652KB/s  0.00000B/s
          1                            l2_utilization                                  L2 Cache Utilization     Low (3)     Low (3)     Low (3)
          1                      l2_atomic_throughput                       L2 Throughput (Atomic requests)  0.00000B/s  0.00000B/s  0.00000B/s
          1                    l2_atomic_transactions                     L2 Transactions (Atomic requests)           0           0           0
          1                        sysmem_utilization                             System Memory Utilization     Low (1)     Low (1)     Low (1)
          1                            ecc_throughput                                        ECC Throughput  0.00000B/s  0.00000B/s  0.00000B/s
          1                   sysmem_read_utilization                        System Memory Read Utilization    Idle (0)    Idle (0)    Idle (0)
          1                  sysmem_write_utilization                       System Memory Write Utilization     Low (1)     Low (1)     Low (1)
          1                  eligible_warps_per_cycle                       Eligible Warps Per Active Cycle    0.392884    0.392884    0.392884
          1                        flop_sp_efficiency                          FLOP Efficiency(Peak Single)       0.72%       0.72%       0.72%
          1                        flop_dp_efficiency                          FLOP Efficiency(Peak Double)       0.00%       0.00%       0.00%
