srun: job 1512978 queued and waiting for resources
srun: job 1512978 has been allocated resources
==122581== NVPROF is profiling process 122581, command: ./convolucion_float 1920000 128
==122581== Some kernel(s) will be replayed on device 0 in order to collect all events/metrics.
==122581== Profiling application: ./convolucion_float 1920000 128
==122581== Profiling result:
==122581== Event result:
Invocations                                Event Name         Min         Max         Avg       Total
Device "GeForce GTX 980 (0)"
    Kernel: conv_gpu_constant_memory(float const *, float*, int, int)
          1                 tex0_cache_sector_queries    67440000    67440000    67440000    67440000
          1                 tex1_cache_sector_queries    67440000    67440000    67440000    67440000
          1                  tex0_cache_sector_misses    49680000    49680000    49680000    49680000
          1                  tex1_cache_sector_misses    49680000    49680000    49680000    49680000
          1                     fb_subp0_read_sectors      120008      120008      120008      120008
          1                     fb_subp1_read_sectors      120016      120016      120016      120016
          1                    fb_subp0_write_sectors      122060      122060      122060      122060
          1                    fb_subp1_write_sectors      121776      121776      121776      121776
          1              l2_subp0_write_sector_misses      122121      122121      122121      122121
          1              l2_subp1_write_sector_misses      122033      122033      122033      122033
          1               l2_subp0_read_sector_misses      120008      120008      120008      120008
          1               l2_subp1_read_sector_misses      120016      120016      120016      120016
          1          l2_subp0_read_tex_sector_queries    18720624    18720624    18720624    18720624
          1          l2_subp1_read_tex_sector_queries    18719376    18719376    18719376    18719376
          1         l2_subp0_write_tex_sector_queries    15480000    15480000    15480000    15480000
          1         l2_subp1_write_tex_sector_queries    15480000    15480000    15480000    15480000
          1             l2_subp0_read_tex_hit_sectors    18600616    18600616    18600616    18600616
          1             l2_subp1_read_tex_hit_sectors    18599368    18599368    18599368    18599368
          1            l2_subp0_write_tex_hit_sectors    15360000    15360000    15360000    15360000
          1            l2_subp1_write_tex_hit_sectors    15360000    15360000    15360000    15360000
          1        l2_subp0_total_read_sector_queries    18720688    18720688    18720688    18720688
          1        l2_subp1_total_read_sector_queries    18719447    18719447    18719447    18719447
          1       l2_subp0_total_write_sector_queries    15480004    15480004    15480004    15480004
          1       l2_subp1_total_write_sector_queries    15480002    15480002    15480002    15480002
          1       l2_subp0_read_sysmem_sector_queries           0           0           0           0
          1       l2_subp1_read_sysmem_sector_queries           0           0           0           0
          1      l2_subp0_write_sysmem_sector_queries           4           4           4           4
          1      l2_subp1_write_sysmem_sector_queries           1           1           1           1
          1                         elapsed_cycles_sm    56918828    56918828    56918828    56918828
          1                             gld_inst_8bit           0           0           0           0
          1                            gld_inst_16bit           0           0           0           0
          1                            gld_inst_32bit   245760000   245760000   245760000   245760000
          1                            gld_inst_64bit           0           0           0           0
          1                           gld_inst_128bit           0           0           0           0
          1                             gst_inst_8bit           0           0           0           0
          1                            gst_inst_16bit           0           0           0           0
          1                            gst_inst_32bit   247680000   247680000   247680000   247680000
          1                            gst_inst_64bit           0           0           0           0
          1                           gst_inst_128bit           0           0           0           0
          1                           prof_trigger_00           0           0           0           0
          1                           prof_trigger_01           0           0           0           0
          1                           prof_trigger_02           0           0           0           0
          1                           prof_trigger_03           0           0           0           0
          1                           prof_trigger_04           0           0           0           0
          1                           prof_trigger_05           0           0           0           0
          1                           prof_trigger_06           0           0           0           0
          1                           prof_trigger_07           0           0           0           0
          1                            warps_launched       60000       60000       60000       60000
          1                              inst_issued0   141130448   141130448   141130448   141130448
          1                              inst_issued1    70323939    70323939    70323939    70323939
          1                              inst_issued2    15360000    15360000    15360000    15360000
          1                             inst_executed   101040000   101040000   101040000   101040000
          1                      thread_inst_executed  3233280000  3233280000  3233280000  3233280000
          1   not_predicated_off_thread_inst_executed  3229440000  3229440000  3229440000  3229440000
          1                               local_store           0           0           0           0
          1                                local_load           0           0           0           0
          1                               shared_load           0           0           0           0
          1                              shared_store           0           0           0           0
          1                           shared_atom_cas           0           0           0           0
          1                               shared_atom           0           0           0           0
          1                           global_atom_cas           0           0           0           0
          1                                atom_count           0           0           0           0
          1                                gred_count           0           0           0           0
          1                               global_load     7680000     7680000     7680000     7680000
          1                              global_store     7740000     7740000     7740000     7740000
          1                          divergent_branch           0           0           0           0
          1                                    branch     7800000     7800000     7800000     7800000
          1                             active_cycles    56674851    56674851    56674851    56674851
          1                              active_warps  3588136974  3588136974  3588136974  3588136974
          1                               active_ctas   903065734   903065734   903065734   903065734
          1                           sm_cta_launched       15000       15000       15000       15000
          1                   shared_ld_bank_conflict           0           0           0           0
          1                   shared_st_bank_conflict           0           0           0           0
          1                    shared_ld_transactions           0           0           0           0
          1                    shared_st_transactions           0           0           0           0
    Kernel: conv_gpu_shared_memory(float const *, float*, float const *, int, int)
          1                 tex0_cache_sector_queries    67680000    67680000    67680000    67680000
          1                 tex1_cache_sector_queries    67680000    67680000    67680000    67680000
          1                  tex0_cache_sector_misses    49800000    49800000    49800000    49800000
          1                  tex1_cache_sector_misses    49800000    49800000    49800000    49800000
          1                     fb_subp0_read_sectors      120023      120023      120023      120023
          1                     fb_subp1_read_sectors      120016      120016      120016      120016
          1                    fb_subp0_write_sectors      121978      121978      121978      121978
          1                    fb_subp1_write_sectors      121912      121912      121912      121912
          1              l2_subp0_write_sector_misses      121965      121965      121965      121965
          1              l2_subp1_write_sector_misses      121937      121937      121937      121937
          1               l2_subp0_read_sector_misses      120016      120016      120016      120016
          1               l2_subp1_read_sector_misses      120023      120023      120023      120023
          1          l2_subp0_read_tex_sector_queries    18840624    18840624    18840624    18840624
          1          l2_subp1_read_tex_sector_queries    18839376    18839376    18839376    18839376
          1         l2_subp0_write_tex_sector_queries    15480000    15480000    15480000    15480000
          1         l2_subp1_write_tex_sector_queries    15480000    15480000    15480000    15480000
          1             l2_subp0_read_tex_hit_sectors    18720608    18720608    18720608    18720608
          1             l2_subp1_read_tex_hit_sectors    18719360    18719360    18719360    18719360
          1            l2_subp0_write_tex_hit_sectors    15360000    15360000    15360000    15360000
          1            l2_subp1_write_tex_hit_sectors    15360000    15360000    15360000    15360000
          1        l2_subp0_total_read_sector_queries    18840752    18840752    18840752    18840752
          1        l2_subp1_total_read_sector_queries    18839511    18839511    18839511    18839511
          1       l2_subp0_total_write_sector_queries    15480000    15480000    15480000    15480000
          1       l2_subp1_total_write_sector_queries    15480006    15480006    15480006    15480006
          1       l2_subp0_read_sysmem_sector_queries           0           0           0           0
          1       l2_subp1_read_sysmem_sector_queries           0           0           0           0
          1      l2_subp0_write_sysmem_sector_queries           0           0           0           0
          1      l2_subp1_write_sysmem_sector_queries           5           5           5           5
          1                         elapsed_cycles_sm    57280972    57280972    57280972    57280972
          1                             gld_inst_8bit           0           0           0           0
          1                            gld_inst_16bit           0           0           0           0
          1                            gld_inst_32bit   247680000   247680000   247680000   247680000
          1                            gld_inst_64bit           0           0           0           0
          1                           gld_inst_128bit           0           0           0           0
          1                             gst_inst_8bit           0           0           0           0
          1                            gst_inst_16bit           0           0           0           0
          1                            gst_inst_32bit   247680000   247680000   247680000   247680000
          1                            gst_inst_64bit           0           0           0           0
          1                           gst_inst_128bit           0           0           0           0
          1                           prof_trigger_00           0           0           0           0
          1                           prof_trigger_01           0           0           0           0
          1                           prof_trigger_02           0           0           0           0
          1                           prof_trigger_03           0           0           0           0
          1                           prof_trigger_04           0           0           0           0
          1                           prof_trigger_05           0           0           0           0
          1                           prof_trigger_06           0           0           0           0
          1                           prof_trigger_07           0           0           0           0
          1                            warps_launched       60000       60000       60000       60000
          1                              inst_issued0   194772962   194772962   194772962   194772962
          1                              inst_issued1    17281642    17281642    17281642    17281642
          1                              inst_issued2    15541046    15541046    15541046    15541046
          1                             inst_executed    48360000    48360000    48360000    48360000
          1                      thread_inst_executed  1547520000  1547520000  1547520000  1547520000
          1   not_predicated_off_thread_inst_executed  1541760000  1541760000  1541760000  1541760000
          1                               local_store           0           0           0           0
          1                                local_load           0           0           0           0
          1                               shared_load     7680000     7680000     7680000     7680000
          1                              shared_store       60000       60000       60000       60000
          1                           shared_atom_cas           0           0           0           0
          1                               shared_atom           0           0           0           0
          1                           global_atom_cas           0           0           0           0
          1                                atom_count           0           0           0           0
          1                                gred_count           0           0           0           0
          1                               global_load     7740000     7740000     7740000     7740000
          1                              global_store     7740000     7740000     7740000     7740000
          1                          divergent_branch           0           0           0           0
          1                                    branch     2160000     2160000     2160000     2160000
          1                             active_cycles    56890226    56890226    56890226    56890226
          1                              active_warps  3606226330  3606226330  3606226330  3606226330
          1                               active_ctas   908050991   908050991   908050991   908050991
          1                           sm_cta_launched       15000       15000       15000       15000
          1                   shared_ld_bank_conflict           0           0           0           0
          1                   shared_st_bank_conflict           0           0           0           0
          1                    shared_ld_transactions     7680000     7680000     7680000     7680000
          1                    shared_st_transactions       60000       60000       60000       60000
    Kernel: conv_gpu(float const *, float*, float const *, int, int)
          1                 tex0_cache_sector_queries    82800000    82800000    82800000    82800000
          1                 tex1_cache_sector_queries    82800000    82800000    82800000    82800000
          1                  tex0_cache_sector_misses    53520000    53520000    53520000    53520000
          1                  tex1_cache_sector_misses    53520000    53520000    53520000    53520000
          1                     fb_subp0_read_sectors      120023      120023      120023      120023
          1                     fb_subp1_read_sectors      120024      120024      120024      120024
          1                    fb_subp0_write_sectors      122176      122176      122176      122176
          1                    fb_subp1_write_sectors      121886      121886      121886      121886
          1              l2_subp0_write_sector_misses      122029      122029      122029      122029
          1              l2_subp1_write_sector_misses      122113      122113      122113      122113
          1               l2_subp0_read_sector_misses      120016      120016      120016      120016
          1               l2_subp1_read_sector_misses      120023      120023      120023      120023
          1          l2_subp0_read_tex_sector_queries    22560624    22560624    22560624    22560624
          1          l2_subp1_read_tex_sector_queries    22559376    22559376    22559376    22559376
          1         l2_subp0_write_tex_sector_queries    15480000    15480000    15480000    15480000
          1         l2_subp1_write_tex_sector_queries    15480000    15480000    15480000    15480000
          1             l2_subp0_read_tex_hit_sectors    22440608    22440608    22440608    22440608
          1             l2_subp1_read_tex_hit_sectors    22439360    22439360    22439360    22439360
          1            l2_subp0_write_tex_hit_sectors    15360000    15360000    15360000    15360000
          1            l2_subp1_write_tex_hit_sectors    15360000    15360000    15360000    15360000
          1        l2_subp0_total_read_sector_queries    22560688    22560688    22560688    22560688
          1        l2_subp1_total_read_sector_queries    22559479    22559479    22559479    22559479
          1       l2_subp0_total_write_sector_queries    15480000    15480000    15480000    15480000
          1       l2_subp1_total_write_sector_queries    15480006    15480006    15480006    15480006
          1       l2_subp0_read_sysmem_sector_queries           0           0           0           0
          1       l2_subp1_read_sysmem_sector_queries           0           0           0           0
          1      l2_subp0_write_sysmem_sector_queries           0           0           0           0
          1      l2_subp1_write_sysmem_sector_queries           5           5           5           5
          1                         elapsed_cycles_sm   119549684   119549684   119549684   119549684
          1                             gld_inst_8bit           0           0           0           0
          1                            gld_inst_16bit           0           0           0           0
          1                            gld_inst_32bit   491520000   491520000   491520000   491520000
          1                            gld_inst_64bit           0           0           0           0
          1                           gld_inst_128bit           0           0           0           0
          1                             gst_inst_8bit           0           0           0           0
          1                            gst_inst_16bit           0           0           0           0
          1                            gst_inst_32bit   247680000   247680000   247680000   247680000
          1                            gst_inst_64bit           0           0           0           0
          1                           gst_inst_128bit           0           0           0           0
          1                           prof_trigger_00           0           0           0           0
          1                           prof_trigger_01           0           0           0           0
          1                           prof_trigger_02           0           0           0           0
          1                           prof_trigger_03           0           0           0           0
          1                           prof_trigger_04           0           0           0           0
          1                           prof_trigger_05           0           0           0           0
          1                           prof_trigger_06           0           0           0           0
          1                           prof_trigger_07           0           0           0           0
          1                            warps_launched       60000       60000       60000       60000
          1                              inst_issued0   382927587   382927587   382927587   382927587
          1                              inst_issued1    93423261    93423261    93423261    93423261
          1                              inst_issued2     7680000     7680000     7680000     7680000
          1                             inst_executed   108780000   108780000   108780000   108780000
          1                      thread_inst_executed  3480960000  3480960000  3480960000  3480960000
          1   not_predicated_off_thread_inst_executed  3477120000  3477120000  3477120000  3477120000
          1                               local_store           0           0           0           0
          1                                local_load           0           0           0           0
          1                               shared_load           0           0           0           0
          1                              shared_store           0           0           0           0
          1                           shared_atom_cas           0           0           0           0
          1                               shared_atom           0           0           0           0
          1                           global_atom_cas           0           0           0           0
          1                                atom_count           0           0           0           0
          1                                gred_count           0           0           0           0
          1                               global_load    15360000    15360000    15360000    15360000
          1                              global_store     7740000     7740000     7740000     7740000
          1                          divergent_branch           0           0           0           0
          1                                    branch     7800000     7800000     7800000     7800000
          1                             active_cycles   119096432   119096432   119096432   119096432
          1                              active_warps  7585637380  7585637380  7585637380  7585637380
          1                               active_ctas  1901292669  1901292669  1901292669  1901292669
          1                           sm_cta_launched       15000       15000       15000       15000
          1                   shared_ld_bank_conflict           0           0           0           0
          1                   shared_st_bank_conflict           0           0           0           0
          1                    shared_ld_transactions           0           0           0           0
          1                    shared_st_transactions           0           0           0           0
