Input size N: 1280000
Filter size M: 128

Device 0: "GeForce GTX TITAN X" 
d_filter y d_input, tiempo de memcpy HtoD: 1.530240
houtput <- doutput tiempo de memcpy DtoH: 3.875456
[N/M/ms_cpu/ms_gpu/ms_gpu_sm/ms_gpu_cm]= [1280000/128/653.840383/1228.975098/1006.951050/1081.029907] 
