Input size N: 2560000
Filter size M: 128

Device 0: "GeForce GTX 980" 
d_filter y d_input, tiempo de memcpy HtoD: 16.498240
houtput <- doutput tiempo de memcpy DtoH: 7.825952
[N/M/ms_cpu/ms_gpu/ms_gpu_sm/ms_gpu_cm]= [2560000/128/1256.903910/577.683228/359.169495/365.663635] 
891] 
