
Device 0: "Tesla V100-PCIE-16GB" 
Usando filtro ENFOCADO
Imagen leída
Filtro ENFOCADO incializado
host to device memcpy time: 0.395328
Escribiendo en archivo: output_enfocado_sec.txt 
Filtro secuencial aplicado
h_imagen_out <- d_imagen_out memcpy time: 1.346624
Escribiendo en archivo: output_enfocado_par.txt 
Filtro -> [(Filas x Columnas) imagen /ms_cpu/ms_gpu]= (750x499) 14.145582 0.104064
