srun: job 1482746 queued and waiting for resources
srun: job 1482746 has been allocated resources
==3259== NVPROF is profiling process 3259, command: ./suma_matrices 5000 5000 1000 1000 5 50
==3259== Profiling application: ./suma_matrices 5000 5000 1000 1000 5 50
==3259== Profiling result:
Time(%)      Time     Calls       Avg       Min       Max  Name
 78.28%  152.84ms         2  76.422ms  72.840ms  80.004ms  [CUDA memcpy HtoD]
 18.17%  35.476ms         1  35.476ms  35.476ms  35.476ms  [CUDA memcpy DtoH]
  3.55%  6.9258ms         1  6.9258ms  6.9258ms  6.9258ms  sum_matrix_par(float*, float*, float*, int, int)

==3259== API calls:
Time(%)      Time     Calls       Avg       Min       Max  Name
 52.14%  231.11ms         3  77.037ms  310.72us  230.48ms  cudaMalloc
 42.83%  189.84ms         3  63.281ms  35.982ms  80.579ms  cudaMemcpy
  3.15%  13.963ms         3  4.6545ms  1.1135ms  6.4648ms  cudaFree
  1.57%  6.9414ms         1  6.9414ms  6.9414ms  6.9414ms  cudaDeviceSynchronize
  0.12%  533.60us        91  5.8630us     260ns  242.03us  cuDeviceGetAttribute
  0.11%  469.12us         1  469.12us  469.12us  469.12us  cudaGetDeviceProperties
  0.03%  150.82us         1  150.82us  150.82us  150.82us  cuDeviceTotalMem
  0.02%  95.088us         1  95.088us  95.088us  95.088us  cudaLaunch
  0.01%  59.539us         1  59.539us  59.539us  59.539us  cuDeviceGetName
  0.01%  25.334us         2  12.667us  1.3130us  24.021us  cudaEventCreate
  0.01%  24.725us         3  8.2410us  3.3890us  15.846us  cudaEventRecord
  0.00%  18.947us         1  18.947us  18.947us  18.947us  cudaSetDevice
  0.00%  8.3960us         2  4.1980us  1.1930us  7.2030us  cudaEventDestroy
  0.00%  5.0150us         1  5.0150us  5.0150us  5.0150us  cudaEventSynchronize
  0.00%  4.6140us         1  4.6140us  4.6140us  4.6140us  cudaEventElapsedTime
  0.00%  4.1650us         5     833ns     194ns  2.1700us  cudaSetupArgument
  0.00%  3.4850us         3  1.1610us     408ns  2.4430us  cuDeviceGetCount
  0.00%  3.1780us         1  3.1780us  3.1780us  3.1780us  cudaConfigureCall
  0.00%  2.0550us         3     685ns     381ns  1.1100us  cuDeviceGet
  0.00%     618ns         1     618ns     618ns     618ns  cudaGetLastError
LastError
