Dimension de la grilla: 1000 x 1000 bloques
Dimension del bloque: 5 x 50 threads
Se usa placa 0: Tesla V100-PCIE-16GB
Tamanio de Matrix : 5000 x  5000 
Inicializacion de matrices en host  1027.233261 msec
Suma de matrices en host  85.480663 msec
Último índice: x = 0..4999 ; y = 0..49999
Suma de matrices en GPU  2.119424 msec
Test pasado! 

