Dimension de la grilla: 16 x 16 bloques
Dimension del bloque: 32 x 32 threads
Se usa placa 0: GeForce GTX 980
Tamanio de Matrix : 500 x  500 
Inicializacion de matrices en host  18.008803 msec
Suma de matrices en host  1.631576 msec
Último índice: x = 0..511 ; y = 0..511
Suma de matrices en GPU  255.052032 msec
Test pasado! 

