Dimension de la grilla: 157 x 5000 bloques
Dimension del bloque: 1024 x 1 threads
Se usa placa 0: GeForce GTX 980
Tamanio de Matrix : 5000 x  5000 
Inicializacion de matrices en host  1115.513563 msec
Suma de matrices en host  112.715114 msec
Último índice: x = 0..160767 ; y = 0..4999
Suma de matrices en GPU  17.197727 msec
Test pasado! 

