Dimension de la grilla: 157 x 5000 bloques
Dimension del bloque: 1024 x 1 threads
Se usa placa 0: Tesla V100-PCIE-16GB
Tamanio de Matrix : 5000 x  5000 
Inicializacion de matrices en host  1101.101032 msec
Suma de matrices en host  91.884081 msec
Último índice: x = 0..160767 ; y = 0..4999
Suma de matrices en GPU  1.819040 msec
Test pasado! 

