srun: job 1482784 queued and waiting for resources
srun: job 1482784 has been allocated resources
==5489== NVPROF is profiling process 5489, command: ./suma_matrices 5000 5000 10000 10000 5 5
==5489== Some kernel(s) will be replayed on device 0 in order to collect all events/metrics.
==5489== Profiling application: ./suma_matrices 5000 5000 10000 10000 5 5
==5489== Profiling result:
==5489== Event result:
Invocations                                Event Name         Min         Max         Avg       Total
Device "GeForce GTX 980 (0)"
    Kernel: sum_matrix_par(float*, float*, float*, int, int)
          1                 tex0_cache_sector_queries    17811822    17811822    17811822    17811822
          1                 tex1_cache_sector_queries    17813178    17813178    17813178    17813178
          1                  tex0_cache_sector_misses    13435132    13435132    13435132    13435132
          1                  tex1_cache_sector_misses    13439868    13439868    13439868    13439868
          1                     fb_subp0_read_sectors     3125175     3125175     3125175     3125175
          1                     fb_subp1_read_sectors     3125036     3125036     3125036     3125036
          1                    fb_subp0_write_sectors     1568508     1568508     1568508     1568508
          1                    fb_subp1_write_sectors     1566784     1566784     1566784     1566784
          1              l2_subp0_write_sector_misses     1568467     1568467     1568467     1568467
          1              l2_subp1_write_sector_misses     1568407     1568407     1568407     1568407
          1               l2_subp0_read_sector_misses     3125152     3125152     3125152     3125152
          1               l2_subp1_read_sector_misses     3125159     3125159     3125159     3125159
          1          l2_subp0_read_tex_sector_queries     7499887     7499887     7499887     7499887
          1          l2_subp1_read_tex_sector_queries     7500113     7500113     7500113     7500113
          1         l2_subp0_write_tex_sector_queries     5866498     5866498     5866498     5866498
          1         l2_subp1_write_tex_sector_queries     5867099     5867099     5867099     5867099
          1             l2_subp0_read_tex_hit_sectors     4374887     4374887     4374887     4374887
          1             l2_subp1_read_tex_hit_sectors     4375113     4375113     4375113     4375113
          1            l2_subp0_write_tex_hit_sectors     5454895     5454895     5454895     5454895
          1            l2_subp1_write_tex_hit_sectors     5455277     5455277     5455277     5455277
          1        l2_subp0_total_read_sector_queries     7499983     7499983     7499983     7499983
          1        l2_subp1_total_read_sector_queries     7500200     7500200     7500200     7500200
          1       l2_subp0_total_write_sector_queries     5866502     5866502     5866502     5866502
          1       l2_subp1_total_write_sector_queries     5867101     5867101     5867101     5867101
          1       l2_subp0_read_sysmem_sector_queries           0           0           0           0
          1       l2_subp1_read_sysmem_sector_queries           0           0           0           0
          1      l2_subp0_write_sysmem_sector_queries           4           4           4           4
          1      l2_subp1_write_sysmem_sector_queries           1           1           1           1
          1                         elapsed_cycles_sm  3523572452  3523572452  3523572452  3523572452
          1                             gld_inst_8bit           0           0           0           0
          1                            gld_inst_16bit           0           0           0           0
          1                            gld_inst_32bit    50000000    50000000    50000000    50000000
          1                            gld_inst_64bit           0           0           0           0
          1                           gld_inst_128bit           0           0           0           0
          1                             gst_inst_8bit           0           0           0           0
          1                            gst_inst_16bit           0           0           0           0
          1                            gst_inst_32bit    25000000    25000000    25000000    25000000
          1                            gst_inst_64bit           0           0           0           0
          1                           gst_inst_128bit           0           0           0           0
          1                           prof_trigger_00           0           0           0           0
          1                           prof_trigger_01           0           0           0           0
          1                           prof_trigger_02           0           0           0           0
          1                           prof_trigger_03           0           0           0           0
          1                           prof_trigger_04           0           0           0           0
          1                           prof_trigger_05           0           0           0           0
          1                           prof_trigger_06           0           0           0           0
          1                           prof_trigger_07           0           0           0           0
          1                            warps_launched   100000000   100000000   100000000   100000000
          1                              inst_issued0  7237866219  7237866219  7237866219  7237866219
          1                              inst_issued1  1414072121  1414072121  1414072121  1414072121
          1                              inst_issued2     1000012     1000012     1000012     1000012
          1                             inst_executed  1416000000  1416000000  1416000000  1416000000
          1                      thread_inst_executed  3.5400e+10  3.5400e+10  3.5400e+10  3.5400e+10
          1   not_predicated_off_thread_inst_executed  3.5375e+10  3.5375e+10  3.5375e+10  3.5375e+10
          1                               local_store           0           0           0           0
          1                                local_load           0           0           0           0
          1                               shared_load           0           0           0           0
          1                              shared_store           0           0           0           0
          1                           shared_atom_cas           0           0           0           0
          1                               shared_atom           0           0           0           0
          1                           global_atom_cas           0           0           0           0
          1                                atom_count           0           0           0           0
          1                                gred_count           0           0           0           0
          1                               global_load     2000000     2000000     2000000     2000000
          1                              global_store     1000000     1000000     1000000     1000000
          1                          divergent_branch           0           0           0           0
          1                                    branch   101000000   101000000   101000000   101000000
          1                             active_cycles  3427291389  3427291389  3427291389  3427291389
          1                              active_warps  1.5138e+10  1.5138e+10  1.5138e+10  1.5138e+10
          1                               active_ctas  1.5259e+10  1.5259e+10  1.5259e+10  1.5259e+10
          1                           sm_cta_launched   100000000   100000000   100000000   100000000
          1                   shared_ld_bank_conflict           0           0           0           0
          1                   shared_st_bank_conflict           0           0           0           0
          1                    shared_ld_transactions           0           0           0           0
          1                    shared_st_transactions           0           0           0           0
          0
