Dimension de la grilla: 10000 x 10000 bloques
Dimension del bloque: 5 x 5 threads
Se usa placa 0: Tesla V100-PCIE-16GB
Tamanio de Matrix : 5000 x  5000 
Inicializacion de matrices en host  1026.862176 msec
Suma de matrices en host  85.502946 msec
Último índice: x = 0..49999 ; y = 0..49999
Suma de matrices en GPU  172.078400 msec
Test pasado! 

