Dimension de la grilla: 157 x 157 bloques
Dimension del bloque: 32 x 32 threads
Se usa placa 0: GeForce GTX 980
Tamanio de Matrix : 5000 x  5000 
Inicializacion de matrices en host  1150.390724 msec
Suma de matrices en host  90.886365 msec
Último índice: x = 0..5023 ; y = 0..5023
Suma de matrices en GPU  888.521057 msec
Test pasado! 


