Dimension de la grilla: 157 x 157 bloques
Dimension del bloque: 32 x 32 threads
Se usa placa 0: Tesla V100-PCIE-16GB
Tamanio de Matrix : 5000 x  5000 
Inicializacion de matrices en host  1026.924956 msec
Suma de matrices en host  85.514949 msec
Último índice: x = 0..5023 ; y = 0..5023
Suma de matrices en GPU  0.413632 msec
Test pasado! 

