Input size N: 3200000
Filter size M: 128

Device 0: "Tesla V100-PCIE-16GB" 
Tiempo de memcpy HtoD: 4.502528
Tiempo de memcpy DtoH: 20.923201
[N M / ms_cpu ms_gpu]= [3200000 128 / 1267.051729 2.440192] 
