srun: job 1485249 queued and waiting for resources
srun: job 1485249 has been allocated resources
==75862== NVPROF is profiling process 75862, command: ./convolucion_double 1280000 32
==75862== Some kernel(s) will be replayed on device 0 in order to collect all events/metrics.
==75862== Profiling application: ./convolucion_double 1280000 32
==75862== Profiling result:
==75862== Event result:
Invocations                                Event Name         Min         Max         Avg       Total
Device "GeForce GTX 980 (0)"
    Kernel: conv_gpu(double const *, double*, double const *, int, int)
          1                 tex0_cache_sector_queries    16800000    16800000    16800000    16800000
          1                 tex1_cache_sector_queries    16800000    16800000    16800000    16800000
          1                  tex0_cache_sector_misses    11520000    11520000    11520000    11520000
          1                  tex1_cache_sector_misses    11520000    11520000    11520000    11520000
          1                     fb_subp0_read_sectors      160015      160015      160015      160015
          1                     fb_subp1_read_sectors      160008      160008      160008      160008
          1                    fb_subp0_write_sectors      162006      162006      162006      162006
          1                    fb_subp1_write_sectors      161980      161980      161980      161980
          1              l2_subp0_write_sector_misses      162003      162003      162003      162003
          1              l2_subp1_write_sector_misses      162043      162043      162043      162043
          1               l2_subp0_read_sector_misses      160000      160000      160000      160000
          1               l2_subp1_read_sector_misses      160023      160023      160023      160023
          1          l2_subp0_read_tex_sector_queries     5599864     5599864     5599864     5599864
          1          l2_subp1_read_tex_sector_queries     6880136     6880136     6880136     6880136
          1         l2_subp0_write_tex_sector_queries     5280000     5280000     5280000     5280000
          1         l2_subp1_write_tex_sector_queries     5280000     5280000     5280000     5280000
          1             l2_subp0_read_tex_hit_sectors     5439864     5439864     5439864     5439864
          1             l2_subp1_read_tex_hit_sectors     6720120     6720120     6720120     6720120
          1            l2_subp0_write_tex_hit_sectors     5120000     5120000     5120000     5120000
          1            l2_subp1_write_tex_hit_sectors     5120000     5120000     5120000     5120000
          1        l2_subp0_total_read_sector_queries     5599960     5599960     5599960     5599960
          1        l2_subp1_total_read_sector_queries     6880239     6880239     6880239     6880239
          1       l2_subp0_total_write_sector_queries     5280000     5280000     5280000     5280000
          1       l2_subp1_total_write_sector_queries     5280006     5280006     5280006     5280006
          1       l2_subp0_read_sysmem_sector_queries           0           0           0           0
          1       l2_subp1_read_sysmem_sector_queries           0           0           0           0
          1      l2_subp0_write_sysmem_sector_queries           0           0           0           0
          1      l2_subp1_write_sysmem_sector_queries           5           5           5           5
          1                         elapsed_cycles_sm    36500040    36500040    36500040    36500040
          1                             gld_inst_8bit           0           0           0           0
          1                            gld_inst_16bit           0           0           0           0
          1                            gld_inst_32bit           0           0           0           0
          1                            gld_inst_64bit    81920000    81920000    81920000    81920000
          1                           gld_inst_128bit           0           0           0           0
          1                             gst_inst_8bit           0           0           0           0
          1                            gst_inst_16bit           0           0           0           0
          1                            gst_inst_32bit           0           0           0           0
          1                            gst_inst_64bit    42240000    42240000    42240000    42240000
          1                           gst_inst_128bit           0           0           0           0
          1                           prof_trigger_00           0           0           0           0
          1                           prof_trigger_01           0           0           0           0
          1                           prof_trigger_02           0           0           0           0
          1                           prof_trigger_03           0           0           0           0
          1                           prof_trigger_04           0           0           0           0
          1                           prof_trigger_05           0           0           0           0
          1                           prof_trigger_06           0           0           0           0
          1                           prof_trigger_07           0           0           0           0
          1                            warps_launched       40000       40000       40000       40000
          1                              inst_issued0   126751790   126751790   126751790   126751790
          1                              inst_issued1    17521497    17521497    17521497    17521497
          1                              inst_issued2     1280000     1280000     1280000     1280000
          1                             inst_executed    20080000    20080000    20080000    20080000
          1                      thread_inst_executed   642560000   642560000   642560000   642560000
          1   not_predicated_off_thread_inst_executed   640000000   640000000   640000000   640000000
          1                               local_store           0           0           0           0
          1                                local_load           0           0           0           0
          1                               shared_load           0           0           0           0
          1                              shared_store           0           0           0           0
          1                           shared_atom_cas           0           0           0           0
          1                               shared_atom           0           0           0           0
          1                           global_atom_cas           0           0           0           0
          1                                atom_count           0           0           0           0
          1                                gred_count           0           0           0           0
          1                               global_load     2560000     2560000     2560000     2560000
          1                              global_store     1320000     1320000     1320000     1320000
          1                          divergent_branch           0           0           0           0
          1                                    branch     1360000     1360000     1360000     1360000
          1                             active_cycles    36382812    36382812    36382812    36382812
          1                              active_warps  1157250832  1157250832  1157250832  1157250832
          1                               active_ctas  1158683897  1158683897  1158683897  1158683897
          1                           sm_cta_launched       40000       40000       40000       40000
          1                   shared_ld_bank_conflict           0           0           0           0
          1                   shared_st_bank_conflict           0           0           0           0
          1                    shared_ld_transactions           0           0           0           0
          1                    shared_st_transactions           0           0           0           0
