srun: job 1485404 queued and waiting for resources
srun: job 1485404 has been allocated resources
==93263== NVPROF is profiling process 93263, command: ./convolucion_double 1280000 200
==93263== Profiling application: ./convolucion_double 1280000 200
==93263== Profiling result:
Time(%)      Time     Calls       Avg       Min       Max  Name
 53.69%  7.3686ms         1  7.3686ms  7.3686ms  7.3686ms  conv_gpu(double const *, double*, double const *, int, int)
 29.47%  4.0445ms         1  4.0445ms  4.0445ms  4.0445ms  [CUDA memcpy DtoH]
 16.83%  2.3105ms         2  1.1553ms  1.2480us  2.3093ms  [CUDA memcpy HtoD]
  0.01%  1.0880us         1  1.0880us  1.0880us  1.0880us  [CUDA memset]

==93263== API calls:
Time(%)      Time     Calls       Avg       Min       Max  Name
 90.67%  183.37ms         3  61.122ms  135.50us  183.09ms  cudaMalloc
  3.79%  7.6650ms         3  2.5550ms  306.68us  5.2003ms  cudaMemcpy
  3.64%  7.3671ms         3  2.4557ms  4.3830us  7.3580ms  cudaEventSynchronize
  1.04%  2.1109ms         3  703.63us  335.18us  905.32us  cudaFree
  0.26%  515.75us        91  5.6670us     303ns  229.96us  cuDeviceGetAttribute
  0.23%  468.95us         1  468.95us  468.95us  468.95us  cudaGetDeviceProperties
  0.19%  391.63us         1  391.63us  391.63us  391.63us  cuDeviceTotalMem
  0.05%  91.722us         1  91.722us  91.722us  91.722us  cudaLaunch
  0.03%  59.826us         1  59.826us  59.826us  59.826us  cuDeviceGetName
  0.03%  51.303us         6  8.5500us     558ns  42.528us  cudaEventCreate
  0.03%  50.999us         9  5.6660us  1.8390us  19.765us  cudaEventRecord
  0.02%  42.336us         1  42.336us  42.336us  42.336us  cudaMemset
  0.01%  25.411us         1  25.411us  25.411us  25.411us  cudaGetDevice
  0.00%  9.5970us         3  3.1990us  1.6170us  5.6690us  cudaEventElapsedTime
  0.00%  6.4890us         6  1.0810us     689ns  2.8280us  cudaEventDestroy
  0.00%  5.3310us         1  5.3310us  5.3310us  5.3310us  cudaConfigureCall
  0.00%  4.1240us         6     687ns     363ns  1.6010us  cudaGetLastError
  0.00%  2.9880us         3     996ns     330ns  2.1150us  cuDeviceGetCount
  0.00%  2.0550us         3     685ns     323ns  1.0950us  cuDeviceGet
  0.00%  1.5350us         5     307ns     144ns     592ns  cudaSetupArgument
