Input size N: 1280000
Filter size M: 128

Device 0: "Tesla V100-PCIE-16GB" 
Tiempo de memcpy HtoD: 1.000064
Tiempo de memcpy DtoH: 6.763552
[N M / ms_cpu ms_gpu]= [1280000 128 / 540.349208 0.532320] 
