Input size N: 1280000
Filter size M: 200

Device 0: "Tesla V100-PCIE-16GB" 
Tiempo de memcpy HtoD: 1.916896
Tiempo de memcpy DtoH: 8.496576
[N M / ms_cpu ms_gpu]= [1280000 200 / 783.937987 1.519616] 
