srun: job 1485317 queued and waiting for resources
srun: job 1485317 has been allocated resources
==109230== NVPROF is profiling process 109230, command: ./convolucion_float 1920000 128
==109230== Some kernel(s) will be replayed on device 0 in order to collect all events/metrics.
==109230== Profiling application: ./convolucion_float 1920000 128
==109230== Profiling result:
==109230== Event result:
Invocations                                Event Name         Min         Max         Avg       Total
Device "GeForce GTX TITAN X (0)"
    Kernel: conv_gpu(float const *, float*, float const *, int, int)
          1                 tex0_cache_sector_queries    82800000    82800000    82800000    82800000
          1                 tex1_cache_sector_queries    82800000    82800000    82800000    82800000
          1                  tex0_cache_sector_misses    53520000    53520000    53520000    53520000
          1                  tex1_cache_sector_misses    53520000    53520000    53520000    53520000
          1                     fb_subp0_read_sectors      120016      120016      120016      120016
          1                     fb_subp1_read_sectors      120039      120039      120039      120039
          1                    fb_subp0_write_sectors      122729      122729      122729      122729
          1                    fb_subp1_write_sectors      122635      122635      122635      122635
          1              l2_subp0_write_sector_misses      122810      122810      122810      122810
          1              l2_subp1_write_sector_misses      122710      122710      122710      122710
          1               l2_subp0_read_sector_misses      120023      120023      120023      120023
          1               l2_subp1_read_sector_misses      120016      120016      120016      120016
          1          l2_subp0_read_tex_sector_queries    22559376    22559376    22559376    22559376
          1          l2_subp1_read_tex_sector_queries    22560624    22560624    22560624    22560624
          1         l2_subp0_write_tex_sector_queries    15480000    15480000    15480000    15480000
          1         l2_subp1_write_tex_sector_queries    15480000    15480000    15480000    15480000
          1             l2_subp0_read_tex_hit_sectors    22439360    22439360    22439360    22439360
          1             l2_subp1_read_tex_hit_sectors    22440608    22440608    22440608    22440608
          1            l2_subp0_write_tex_hit_sectors    15360000    15360000    15360000    15360000
          1            l2_subp1_write_tex_hit_sectors    15360000    15360000    15360000    15360000
          1        l2_subp0_total_read_sector_queries    22559524    22559524    22559524    22559524
          1        l2_subp1_total_read_sector_queries    22560783    22560783    22560783    22560783
          1       l2_subp0_total_write_sector_queries    15480000    15480000    15480000    15480000
          1       l2_subp1_total_write_sector_queries    15480006    15480006    15480006    15480006
          1       l2_subp0_read_sysmem_sector_queries           0           0           0           0
          1       l2_subp1_read_sysmem_sector_queries           0           0           0           0
          1      l2_subp0_write_sysmem_sector_queries           0           0           0           0
          1      l2_subp1_write_sysmem_sector_queries           5           5           5           5
          1                         elapsed_cycles_sm   166437036   166437036   166437036   166437036
          1                             gld_inst_8bit           0           0           0           0
          1                            gld_inst_16bit           0           0           0           0
          1                            gld_inst_32bit   491520000   491520000   491520000   491520000
          1                            gld_inst_64bit           0           0           0           0
          1                           gld_inst_128bit           0           0           0           0
          1                             gst_inst_8bit           0           0           0           0
          1                            gst_inst_16bit           0           0           0           0
          1                            gst_inst_32bit   247680000   247680000   247680000   247680000
          1                            gst_inst_64bit           0           0           0           0
          1                           gst_inst_128bit           0           0           0           0
          1                           prof_trigger_00           0           0           0           0
          1                           prof_trigger_01           0           0           0           0
          1                           prof_trigger_02           0           0           0           0
          1                           prof_trigger_03           0           0           0           0
          1                           prof_trigger_04           0           0           0           0
          1                           prof_trigger_05           0           0           0           0
          1                           prof_trigger_06           0           0           0           0
          1                           prof_trigger_07           0           0           0           0
          1                            warps_launched       60000       60000       60000       60000
          1                              inst_issued0   554013774   554013774   554013774   554013774
          1                              inst_issued1    93423677    93423677    93423677    93423677
          1                              inst_issued2     7680000     7680000     7680000     7680000
          1                             inst_executed   108780000   108780000   108780000   108780000
          1                      thread_inst_executed  3480960000  3480960000  3480960000  3480960000
          1   not_predicated_off_thread_inst_executed  3477120000  3477120000  3477120000  3477120000
          1                               local_store           0           0           0           0
          1                                local_load           0           0           0           0
          1                               shared_load           0           0           0           0
          1                              shared_store           0           0           0           0
          1                           shared_atom_cas           0           0           0           0
          1                               shared_atom           0           0           0           0
          1                           global_atom_cas           0           0           0           0
          1                                atom_count           0           0           0           0
          1                                gred_count           0           0           0           0
          1                               global_load    15360000    15360000    15360000    15360000
          1                              global_store     7740000     7740000     7740000     7740000
          1                          divergent_branch           0           0           0           0
          1                                    branch     7800000     7800000     7800000     7800000
          1                             active_cycles   165374502   165374502   165374502   165374502
          1                              active_warps  1.0525e+10  1.0525e+10  1.0525e+10  1.0525e+10
          1                               active_ctas  2573800796  2573800796  2573800796  2573800796
          1                           sm_cta_launched       15000       15000       15000       15000
          1                   shared_ld_bank_conflict           0           0           0           0
          1                   shared_st_bank_conflict           0           0           0           0
          1                    shared_ld_transactions           0           0           0           0
          1                    shared_st_transactions           0           0           0           0
