Input size N: 1280000
Filter size M: 100

Device 0: "Tesla V100-PCIE-16GB" 
Tiempo de memcpy HtoD: 1.885152
Tiempo de memcpy DtoH: 8.460384
[N M / ms_cpu ms_gpu]= [1280000 100 / 405.337526 0.796672] 
