srun: job 1485216 queued and waiting for resources
srun: job 1485216 has been allocated resources
==71860== NVPROF is profiling process 71860, command: ./convolucion_float 320000 128
==71860== Profiling application: ./convolucion_float 320000 128
==71860== Profiling result:
Time(%)      Time     Calls       Avg       Min       Max  Name
 64.32%  1.3541ms         1  1.3541ms  1.3541ms  1.3541ms  conv_gpu(float const *, float*, float const *, int, int)
 20.06%  422.18us         2  211.09us     800ns  421.38us  [CUDA memcpy HtoD]
 15.57%  327.71us         1  327.71us  327.71us  327.71us  [CUDA memcpy DtoH]
  0.05%  1.1200us         1  1.1200us  1.1200us  1.1200us  [CUDA memset]

==71860== API calls:
Time(%)      Time     Calls       Avg       Min       Max  Name
 97.67%  248.53ms         3  82.843ms  139.16us  248.24ms  cudaMalloc
  0.98%  2.5052ms         3  835.08us  199.24us  1.3682ms  cudaMemcpy
  0.54%  1.3615ms         3  453.84us  3.7820us  1.3517ms  cudaEventSynchronize
  0.23%  589.42us         3  196.47us  165.71us  255.46us  cudaFree
  0.20%  506.12us        91  5.5610us     268ns  219.62us  cuDeviceGetAttribute
  0.19%  493.10us         1  493.10us  493.10us  493.10us  cudaGetDeviceProperties
  0.06%  151.97us         1  151.97us  151.97us  151.97us  cuDeviceTotalMem
  0.03%  72.387us         1  72.387us  72.387us  72.387us  cuDeviceGetName
  0.02%  61.762us         1  61.762us  61.762us  61.762us  cudaLaunch
  0.02%  60.356us         1  60.356us  60.356us  60.356us  cudaMemset
  0.02%  51.982us         9  5.7750us  2.8090us  14.145us  cudaEventRecord
  0.01%  25.749us         1  25.749us  25.749us  25.749us  cudaGetDevice
  0.01%  23.612us         6  3.9350us     825ns  11.539us  cudaEventCreate
  0.00%  10.144us         3  3.3810us  1.7310us  4.8500us  cudaEventElapsedTime
  0.00%  6.9940us         6  1.1650us     634ns  3.4480us  cudaEventDestroy
  0.00%  3.7620us         6     627ns     383ns  1.0120us  cudaGetLastError
  0.00%  3.7360us         3  1.2450us     378ns  2.7940us  cuDeviceGetCount
  0.00%  2.3470us         5     469ns     192ns     941ns  cudaSetupArgument
  0.00%  2.1330us         1  2.1330us  2.1330us  2.1330us  cudaConfigureCall
  0.00%  2.0520us         3     684ns     308ns  1.0600us  cuDeviceGet
