Input size N: 1280000
Filter size M: 200

Device 0: "Tesla V100-PCIE-16GB" 
Tiempo de memcpy HtoD: 1.027392
Tiempo de memcpy DtoH: 6.668416
[N M / ms_cpu ms_gpu]= [1280000 200 / 784.520909 0.833760] 
