srun: job 1485408 queued and waiting for resources
srun: job 1485408 has been allocated resources
==55831== NVPROF is profiling process 55831, command: ./convolucion_float 1280000 200
==55831== Profiling application: ./convolucion_float 1280000 200
==55831== Profiling result:
Time(%)      Time     Calls       Avg       Min       Max  Name
 60.55%  8.8685ms         1  8.8685ms  8.8685ms  8.8685ms  conv_gpu(float const *, float*, float const *, int, int)
 24.78%  3.6290ms         2  1.8145ms  1.0880us  3.6280ms  [CUDA memcpy HtoD]
 14.67%  2.1487ms         1  2.1487ms  2.1487ms  2.1487ms  [CUDA memcpy DtoH]
  0.01%  1.1520us         1  1.1520us  1.1520us  1.1520us  [CUDA memset]

==55831== API calls:
Time(%)      Time     Calls       Avg       Min       Max  Name
 92.92%  239.04ms         3  79.681ms  227.05us  238.58ms  cudaMalloc
  3.45%  8.8808ms         3  2.9603ms  4.0170us  8.8672ms  cudaEventSynchronize
  2.64%  6.7791ms         3  2.2597ms  231.28us  4.1158ms  cudaMemcpy
  0.42%  1.0859ms         3  361.97us  239.90us  423.57us  cudaFree
  0.19%  482.72us        91  5.3040us     258ns  210.34us  cuDeviceGetAttribute
  0.18%  473.53us         1  473.53us  473.53us  473.53us  cudaGetDeviceProperties
  0.06%  151.41us         1  151.41us  151.41us  151.41us  cuDeviceTotalMem
  0.04%  95.377us         1  95.377us  95.377us  95.377us  cudaMemset
  0.02%  58.001us         9  6.4440us  2.2190us  15.379us  cudaEventRecord
  0.02%  56.934us         1  56.934us  56.934us  56.934us  cuDeviceGetName
  0.02%  55.828us         1  55.828us  55.828us  55.828us  cudaLaunch
  0.01%  29.149us         6  4.8580us  1.0000us  12.238us  cudaEventCreate
  0.01%  24.770us         1  24.770us  24.770us  24.770us  cudaGetDevice
  0.00%  11.888us         3  3.9620us  1.3600us  8.0890us  cudaEventElapsedTime
  0.00%  6.3930us         6  1.0650us     640ns  2.8850us  cudaEventDestroy
  0.00%  4.9040us         6     817ns     498ns  1.6140us  cudaGetLastError
  0.00%  3.3840us         3  1.1280us     391ns  2.5590us  cuDeviceGetCount
  0.00%  1.8150us         3     605ns     311ns     953ns  cuDeviceGet
  0.00%  1.6010us         5     320ns     144ns     604ns  cudaSetupArgument
  0.00%  1.4410us         1  1.4410us  1.4410us  1.4410us  cudaConfigureCall
