Input size N: 1280000
Filter size M: 128

Device 0: "Tesla V100-PCIE-16GB" 
Tiempo de memcpy HtoD: 2.508320
Tiempo de memcpy DtoH: 5.116256
[N M / ms_cpu ms_gpu]= [1280000 128 / 517.898085 1.003424] 
