srun: job 1485218 queued and waiting for resources
srun: job 1485218 has been allocated resources
==72056== NVPROF is profiling process 72056, command: ./convolucion_float 1280000 128
==72056== Some kernel(s) will be replayed on device 0 in order to collect all events/metrics.
==72056== Profiling application: ./convolucion_float 1280000 128
==72056== Profiling result:
==72056== Event result:
Invocations                                Event Name         Min         Max         Avg       Total
Device "GeForce GTX 980 (0)"
    Kernel: conv_gpu(float const *, float*, float const *, int, int)
          1                 tex0_cache_sector_queries    55200000    55200000    55200000    55200000
          1                 tex1_cache_sector_queries    55200000    55200000    55200000    55200000
          1                  tex0_cache_sector_misses    35680000    35680000    35680000    35680000
          1                  tex1_cache_sector_misses    35680000    35680000    35680000    35680000
          1                     fb_subp0_read_sectors       80039       80039       80039       80039
          1                     fb_subp1_read_sectors       80020       80020       80020       80020
          1                    fb_subp0_write_sectors       82044       82044       82044       82044
          1                    fb_subp1_write_sectors       79816       79816       79816       79816
          1              l2_subp0_write_sector_misses       82043       82043       82043       82043
          1              l2_subp1_write_sector_misses       81963       81963       81963       81963
          1               l2_subp0_read_sector_misses       80016       80016       80016       80016
          1               l2_subp1_read_sector_misses       80023       80023       80023       80023
          1          l2_subp0_read_tex_sector_queries    15040000    15040000    15040000    15040000
          1          l2_subp1_read_tex_sector_queries    15040000    15040000    15040000    15040000
          1         l2_subp0_write_tex_sector_queries    10320000    10320000    10320000    10320000
          1         l2_subp1_write_tex_sector_queries    10320000    10320000    10320000    10320000
          1             l2_subp0_read_tex_hit_sectors    14959984    14959984    14959984    14959984
          1             l2_subp1_read_tex_hit_sectors    14959984    14959984    14959984    14959984
          1            l2_subp0_write_tex_hit_sectors    10240000    10240000    10240000    10240000
          1            l2_subp1_write_tex_hit_sectors    10240000    10240000    10240000    10240000
          1        l2_subp0_total_read_sector_queries    15040048    15040048    15040048    15040048
          1        l2_subp1_total_read_sector_queries    15040063    15040063    15040063    15040063
          1       l2_subp0_total_write_sector_queries    10320005    10320005    10320005    10320005
          1       l2_subp1_total_write_sector_queries    10320001    10320001    10320001    10320001
          1       l2_subp0_read_sysmem_sector_queries           0           0           0           0
          1       l2_subp1_read_sysmem_sector_queries           0           0           0           0
          1      l2_subp0_write_sysmem_sector_queries           5           5           5           5
          1      l2_subp1_write_sysmem_sector_queries           0           0           0           0
          1                         elapsed_cycles_sm    81978384    81978384    81978384    81978384
          1                             gld_inst_8bit           0           0           0           0
          1                            gld_inst_16bit           0           0           0           0
          1                            gld_inst_32bit   327680000   327680000   327680000   327680000
          1                            gld_inst_64bit           0           0           0           0
          1                           gld_inst_128bit           0           0           0           0
          1                             gst_inst_8bit           0           0           0           0
          1                            gst_inst_16bit           0           0           0           0
          1                            gst_inst_32bit   165120000   165120000   165120000   165120000
          1                            gst_inst_64bit           0           0           0           0
          1                           gst_inst_128bit           0           0           0           0
          1                           prof_trigger_00           0           0           0           0
          1                           prof_trigger_01           0           0           0           0
          1                           prof_trigger_02           0           0           0           0
          1                           prof_trigger_03           0           0           0           0
          1                           prof_trigger_04           0           0           0           0
          1                           prof_trigger_05           0           0           0           0
          1                           prof_trigger_06           0           0           0           0
          1                           prof_trigger_07           0           0           0           0
          1                            warps_launched       40000       40000       40000       40000
          1                              inst_issued0   249953696   249953696   249953696   249953696
          1                              inst_issued1    62282818    62282818    62282818    62282818
          1                              inst_issued2     5120000     5120000     5120000     5120000
          1                             inst_executed    72520000    72520000    72520000    72520000
          1                      thread_inst_executed  2320640000  2320640000  2320640000  2320640000
          1   not_predicated_off_thread_inst_executed  2318080000  2318080000  2318080000  2318080000
          1                               local_store           0           0           0           0
          1                                local_load           0           0           0           0
          1                               shared_load           0           0           0           0
          1                              shared_store           0           0           0           0
          1                           shared_atom_cas           0           0           0           0
          1                               shared_atom           0           0           0           0
          1                           global_atom_cas           0           0           0           0
          1                                atom_count           0           0           0           0
          1                                gred_count           0           0           0           0
          1                               global_load    10240000    10240000    10240000    10240000
          1                              global_store     5160000     5160000     5160000     5160000
          1                          divergent_branch           0           0           0           0
          1                                    branch     5200000     5200000     5200000     5200000
          1                             active_cycles    81380469    81380469    81380469    81380469
          1                              active_warps  5183816660  5183816660  5183816660  5183816660
          1                               active_ctas  1300341804  1300341804  1300341804  1300341804
          1                           sm_cta_launched       10000       10000       10000       10000
          1                   shared_ld_bank_conflict           0           0           0           0
          1                   shared_st_bank_conflict           0           0           0           0
          1                    shared_ld_transactions           0           0           0           0
          1                    shared_st_transactions           0           0           0           0
