Input size N: 1920000
Filter size M: 128

Device 0: "Tesla V100-PCIE-16GB" 
Tiempo de memcpy HtoD: 2.775040
Tiempo de memcpy DtoH: 12.604864
[N M / ms_cpu ms_gpu]= [1920000 128 / 759.881560 1.488864] 
