srun: job 1485285 queued and waiting for resources
srun: job 1485285 has been allocated resources
==104322== NVPROF is profiling process 104322, command: ./convolucion_float 2560000 128
==104322== Some kernel(s) will be replayed on device 0 in order to collect all events/metrics.
==104322== Profiling application: ./convolucion_float 2560000 128
==104322== Profiling result:
==104322== Event result:
Invocations                                Event Name         Min         Max         Avg       Total
Device "GeForce GTX TITAN X (0)"
    Kernel: conv_gpu(float const *, float*, float const *, int, int)
          1                 tex0_cache_sector_queries   110400000   110400000   110400000   110400000
          1                 tex1_cache_sector_queries   110400000   110400000   110400000   110400000
          1                  tex0_cache_sector_misses    71360000    71360000    71360000    71360000
          1                  tex1_cache_sector_misses    71360000    71360000    71360000    71360000
          1                     fb_subp0_read_sectors      160032      160032      160032      160032
          1                     fb_subp1_read_sectors      160151      160151      160151      160151
          1                    fb_subp0_write_sectors      162977      162977      162977      162977
          1                    fb_subp1_write_sectors      162979      162979      162979      162979
          1              l2_subp0_write_sector_misses      162926      162926      162926      162926
          1              l2_subp1_write_sector_misses      162762      162762      162762      162762
          1               l2_subp0_read_sector_misses      160039      160039      160039      160039
          1               l2_subp1_read_sector_misses      160032      160032      160032      160032
          1          l2_subp0_read_tex_sector_queries    30080000    30080000    30080000    30080000
          1          l2_subp1_read_tex_sector_queries    30080000    30080000    30080000    30080000
          1         l2_subp0_write_tex_sector_queries    20640000    20640000    20640000    20640000
          1         l2_subp1_write_tex_sector_queries    20640000    20640000    20640000    20640000
          1             l2_subp0_read_tex_hit_sectors    29919984    29919984    29919984    29919984
          1             l2_subp1_read_tex_hit_sectors    29919984    29919984    29919984    29919984
          1            l2_subp0_write_tex_hit_sectors    20480000    20480000    20480000    20480000
          1            l2_subp1_write_tex_hit_sectors    20480000    20480000    20480000    20480000
          1        l2_subp0_total_read_sector_queries    30080080    30080080    30080080    30080080
          1        l2_subp1_total_read_sector_queries    30080087    30080087    30080087    30080087
          1       l2_subp0_total_write_sector_queries    20640004    20640004    20640004    20640004
          1       l2_subp1_total_write_sector_queries    20640002    20640002    20640002    20640002
          1       l2_subp0_read_sysmem_sector_queries           0           0           0           0
          1       l2_subp1_read_sysmem_sector_queries           0           0           0           0
          1      l2_subp0_write_sysmem_sector_queries           4           4           4           4
          1      l2_subp1_write_sysmem_sector_queries           1           1           1           1
          1                         elapsed_cycles_sm   214078888   214078888   214078888   214078888
          1                             gld_inst_8bit           0           0           0           0
          1                            gld_inst_16bit           0           0           0           0
          1                            gld_inst_32bit   655360000   655360000   655360000   655360000
          1                            gld_inst_64bit           0           0           0           0
          1                           gld_inst_128bit           0           0           0           0
          1                             gst_inst_8bit           0           0           0           0
          1                            gst_inst_16bit           0           0           0           0
          1                            gst_inst_32bit   330240000   330240000   330240000   330240000
          1                            gst_inst_64bit           0           0           0           0
          1                           gst_inst_128bit           0           0           0           0
          1                           prof_trigger_00           0           0           0           0
          1                           prof_trigger_01           0           0           0           0
          1                           prof_trigger_02           0           0           0           0
          1                           prof_trigger_03           0           0           0           0
          1                           prof_trigger_04           0           0           0           0
          1                           prof_trigger_05           0           0           0           0
          1                           prof_trigger_06           0           0           0           0
          1                           prof_trigger_07           0           0           0           0
          1                            warps_launched       80000       80000       80000       80000
          1                              inst_issued0   700625123   700625123   700625123   700625123
          1                              inst_issued1   124565653   124565653   124565653   124565653
          1                              inst_issued2    10240000    10240000    10240000    10240000
          1                             inst_executed   145040000   145040000   145040000   145040000
          1                      thread_inst_executed  4641280000  4641280000  4641280000  4641280000
          1   not_predicated_off_thread_inst_executed  4636160000  4636160000  4636160000  4636160000
          1                               local_store           0           0           0           0
          1                                local_load           0           0           0           0
          1                               shared_load           0           0           0           0
          1                              shared_store           0           0           0           0
          1                           shared_atom_cas           0           0           0           0
          1                               shared_atom           0           0           0           0
          1                           global_atom_cas           0           0           0           0
          1                                atom_count           0           0           0           0
          1                                gred_count           0           0           0           0
          1                               global_load    20480000    20480000    20480000    20480000
          1                              global_store    10320000    10320000    10320000    10320000
          1                          divergent_branch           0           0           0           0
          1                                    branch    10400000    10400000    10400000    10400000
          1                             active_cycles   213040972   213040972   213040972   213040972
          1                              active_warps  1.3564e+10  1.3564e+10  1.3564e+10  1.3564e+10
          1                               active_ctas  3355946179  3355946179  3355946179  3355946179
          1                           sm_cta_launched       20000       20000       20000       20000
          1                   shared_ld_bank_conflict           0           0           0           0
          1                   shared_st_bank_conflict           0           0           0           0
          1                    shared_ld_transactions           0           0           0           0
          1                    shared_st_transactions           0           0           0           0
