Input size N: 1280000
Filter size M: 128

Device 0: "Tesla V100-PCIE-16GB" 
Tiempo de memcpy HtoD: 1.038368
Tiempo de memcpy DtoH: 4.310144
[N M / ms_cpu ms_gpu]= [1280000 128 / 502.602841 0.514080] 
