Input size N: 2560000
Filter size M: 128

Device 0: "GeForce GTX 980" 
Tiempo de memcpy HtoD: 16.778624
Tiempo de memcpy DtoH: 7.642496
[N M / ms_cpu ms_gpu]= [2560000 128 / 1256.573405 1907.406738] 
 
