srun: job 1485403 queued and waiting for resources
srun: job 1485403 has been allocated resources
==55261== NVPROF is profiling process 55261, command: ./convolucion_float 1280000 256
==55261== Profiling application: ./convolucion_float 1280000 256
==55261== Profiling result:
Time(%)      Time     Calls       Avg       Min       Max  Name
 61.62%  8.9895ms         1  8.9895ms  8.9895ms  8.9895ms  conv_gpu(float const *, float*, float const *, int, int)
 25.11%  3.6633ms         2  1.8316ms  1.0880us  3.6622ms  [CUDA memcpy HtoD]
 13.25%  1.9336ms         1  1.9336ms  1.9336ms  1.9336ms  [CUDA memcpy DtoH]
  0.01%  1.1840us         1  1.1840us  1.1840us  1.1840us  [CUDA memset]

==55261== API calls:
Time(%)      Time     Calls       Avg       Min       Max  Name
 93.01%  257.77ms         3  85.923ms  188.11us  257.37ms  cudaMalloc
  3.25%  8.9985ms         3  2.9995ms  3.5870us  8.9873ms  cudaEventSynchronize
  2.73%  7.5689ms         3  2.5230ms  215.39us  4.1641ms  cudaMemcpy
  0.41%  1.1344ms         3  378.12us  242.56us  468.74us  cudaFree
  0.22%  596.31us        91  6.5520us     344ns  257.58us  cuDeviceGetAttribute
  0.20%  559.30us         1  559.30us  559.30us  559.30us  cudaGetDeviceProperties
  0.07%  184.18us         1  184.18us  184.18us  184.18us  cuDeviceTotalMem
  0.03%  71.628us         1  71.628us  71.628us  71.628us  cudaMemset
  0.03%  69.424us         1  69.424us  69.424us  69.424us  cuDeviceGetName
  0.02%  54.832us         1  54.832us  54.832us  54.832us  cudaLaunch
  0.02%  54.446us         9  6.0490us  2.3810us  15.649us  cudaEventRecord
  0.01%  30.133us         1  30.133us  30.133us  30.133us  cudaGetDevice
  0.01%  27.383us         6  4.5630us     603ns  14.028us  cudaEventCreate
  0.00%  10.721us         3  3.5730us  1.7690us  6.1790us  cudaEventElapsedTime
  0.00%  6.5850us         6  1.0970us     642ns  2.9190us  cudaEventDestroy
  0.00%  4.1100us         3  1.3700us     548ns  2.9840us  cuDeviceGetCount
  0.00%  3.7560us         6     626ns     311ns  1.2110us  cudaGetLastError
  0.00%  2.6500us         3     883ns     358ns  1.6270us  cuDeviceGet
  0.00%  1.6420us         5     328ns     180ns     586ns  cudaSetupArgument
  0.00%  1.3540us         1  1.3540us  1.3540us  1.3540us  cudaConfigureCall
