Input size N: 2560000
Filter size M: 128

Device 0: "GeForce GTX TITAN X" 
Tiempo de memcpy HtoD: 2.583552
Tiempo de memcpy DtoH: 8.898240
[N M / ms_cpu ms_gpu]= [2560000 128 / 1167.452470 10.879584] 
