Input size N: 1920000
Filter size M: 128

Device 0: "Tesla V100-PCIE-16GB" 
Tiempo de memcpy HtoD: 1.839136
Tiempo de memcpy DtoH: 3.844000
[N M / ms_cpu ms_gpu]= [1920000 128 / 752.833653 0.796704] 
