Input size N: 1280000
Filter size M: 256

Device 0: "Tesla V100-PCIE-16GB" 
Tiempo de memcpy HtoD: 2.423168
Tiempo de memcpy DtoH: 5.016480
[N M / ms_cpu ms_gpu]= [1280000 256 / 995.954096 1.904544] 
