srun: job 1485318 queued and waiting for resources
srun: job 1485318 has been allocated resources
==85348== NVPROF is profiling process 85348, command: ./convolucion_double 1280000 128
==85348== Profiling application: ./convolucion_double 1280000 128
==85348== Profiling result:
Time(%)      Time     Calls       Avg       Min       Max  Name
 41.59%  7.7513ms         2  3.8756ms  1.0880us  7.7502ms  [CUDA memcpy HtoD]
 31.00%  5.7768ms         1  5.7768ms  5.7768ms  5.7768ms  conv_gpu(double const *, double*, double const *, int, int)
 27.40%  5.1069ms         1  5.1069ms  5.1069ms  5.1069ms  [CUDA memcpy DtoH]
  0.01%  1.1520us         1  1.1520us  1.1520us  1.1520us  [CUDA memset]

==85348== API calls:
Time(%)      Time     Calls       Avg       Min       Max  Name
 91.46%  246.19ms         3  82.063ms  161.39us  245.86ms  cudaMalloc
  5.14%  13.830ms         3  4.6099ms  181.09us  8.2708ms  cudaMemcpy
  2.15%  5.7866ms         3  1.9289ms  3.2240us  5.7760ms  cudaEventSynchronize
  0.70%  1.8723ms         3  624.09us  289.47us  794.26us  cudaFree
  0.20%  536.46us        91  5.8950us     278ns  234.11us  cuDeviceGetAttribute
  0.18%  483.80us         1  483.80us  483.80us  483.80us  cudaGetDeviceProperties
  0.06%  160.94us         1  160.94us  160.94us  160.94us  cuDeviceTotalMem
  0.02%  63.639us         1  63.639us  63.639us  63.639us  cuDeviceGetName
  0.02%  62.130us         1  62.130us  62.130us  62.130us  cudaLaunch
  0.02%  58.870us         1  58.870us  58.870us  58.870us  cudaMemset
  0.02%  58.528us         9  6.5030us  2.9630us  15.569us  cudaEventRecord
  0.01%  27.206us         6  4.5340us     882ns  14.044us  cudaEventCreate
  0.01%  25.619us         1  25.619us  25.619us  25.619us  cudaGetDevice
  0.00%  11.701us         3  3.9000us  2.1350us  4.8430us  cudaEventElapsedTime
  0.00%  9.0060us         6  1.5010us     837ns  4.4300us  cudaEventDestroy
  0.00%  4.0270us         6     671ns     359ns  1.0170us  cudaGetLastError
  0.00%  3.9660us         3  1.3220us     393ns  2.9490us  cuDeviceGetCount
  0.00%  2.3260us         5     465ns     193ns  1.0150us  cudaSetupArgument
  0.00%  2.0910us         1  2.0910us  2.0910us  2.0910us  cudaConfigureCall
  0.00%  1.9520us         3     650ns     334ns     967ns  cuDeviceGet
