srun: job 1485268 queued and waiting for resources
srun: job 1485268 has been allocated resources
==78268== NVPROF is profiling process 78268, command: ./convolucion_double 320000 128
==78268== Some kernel(s) will be replayed on device 0 in order to collect all events/metrics.
==78268== Profiling application: ./convolucion_double 320000 128
==78268== Profiling result:
==78268== Metric result:
Invocations                               Metric Name                                    Metric Description         Min         Max         Avg
Device "GeForce GTX 980 (0)"
    Kernel: conv_gpu(double const *, double*, double const *, int, int)
          1                             sm_efficiency                               Multiprocessor Activity      97.50%      97.50%      97.50%
          1                        achieved_occupancy                                    Achieved Occupancy    0.992603    0.992603    0.992603
          1                                       ipc                                          Executed IPC    0.706178    0.706178    0.706178
          1                                issued_ipc                                            Issued IPC    0.696328    0.696328    0.696328
          1                             inst_per_warp                                 Instructions per warp  1.9420e+03  1.9420e+03  1.9420e+03
          1                         branch_efficiency                                     Branch Efficiency     100.00%     100.00%     100.00%
          1                 warp_execution_efficiency                             Warp Execution Efficiency     100.00%     100.00%     100.00%
          1         warp_nonpred_execution_efficiency              Warp Non-Predicated Execution Efficiency      99.90%      99.90%      99.90%
          1                      inst_replay_overhead                           Instruction Replay Overhead    0.000147    0.000147    0.000147
          1                    issue_slot_utilization                                Issue Slot Utilization      16.26%      16.26%      16.26%
          1      shared_load_transactions_per_request           Shared Memory Load Transactions Per Request    0.000000    0.000000    0.000000
          1     shared_store_transactions_per_request          Shared Memory Store Transactions Per Request    0.000000    0.000000    0.000000
          1       local_load_transactions_per_request            Local Memory Load Transactions Per Request    0.000000    0.000000    0.000000
          1      local_store_transactions_per_request           Local Memory Store Transactions Per Request    0.000000    0.000000    0.000000
          1              gld_transactions_per_request                  Global Load Transactions Per Request    9.000000    9.000000    9.000000
          1              gst_transactions_per_request                 Global Store Transactions Per Request    8.000000    8.000000    8.000000
          1                 shared_store_transactions                             Shared Store Transactions           0           0           0
          1                  shared_load_transactions                              Shared Load Transactions           0           0           0
          1                   local_load_transactions                               Local Load Transactions           0           0           0
          1                  local_store_transactions                              Local Store Transactions           0           0           0
          1                          gld_transactions                              Global Load Transactions    23040000    23040000    23040000
          1                          gst_transactions                             Global Store Transactions    10320000    10320000    10320000
          1                    dram_read_transactions                       Device Memory Read Transactions       80087       80087       80087
          1                   dram_write_transactions                      Device Memory Write Transactions       83706       83706       83706
          1                           global_hit_rate                                       Global Hit Rate      45.83%      45.83%      45.83%
          1                            local_hit_rate                                        Local Hit Rate       0.00%       0.00%       0.00%
          1                  gld_requested_throughput                      Requested Global Load Throughput  196.70GB/s  196.70GB/s  196.70GB/s
          1                  gst_requested_throughput                     Requested Global Store Throughput  192.22GB/s  192.22GB/s  192.22GB/s
          1                            gld_throughput                                Global Load Throughput  232.46GB/s  232.46GB/s  232.46GB/s
          1                            gst_throughput                               Global Store Throughput  192.22GB/s  192.22GB/s  192.22GB/s
          1                      dram_read_throughput                         Device Memory Read Throughput  1.4917GB/s  1.4917GB/s  1.4910GB/s
          1                     dram_write_throughput                        Device Memory Write Throughput  1.5591GB/s  1.5591GB/s  1.5590GB/s
          1                      tex_cache_throughput                              Unified Cache Throughput  381.47GB/s  381.47GB/s  381.47GB/s
          1                     local_load_throughput                          Local Memory Load Throughput  0.00000B/s  0.00000B/s  0.00000B/s
          1                    local_store_throughput                         Local Memory Store Throughput  0.00000B/s  0.00000B/s  0.00000B/s
          1                    shared_load_throughput                         Shared Memory Load Throughput  0.00000B/s  0.00000B/s  0.00000B/s
          1                   shared_store_throughput                        Shared Memory Store Throughput  0.00000B/s  0.00000B/s  0.00000B/s
          1                            gld_efficiency                         Global Memory Load Efficiency      84.62%      84.62%      84.62%
          1                            gst_efficiency                        Global Memory Store Efficiency     100.00%     100.00%     100.00%
          1                    tex_cache_transactions                            Unified Cache Transactions    20480000    20480000    20480000
          1                         cf_fu_utilization                Control-Flow Function Unit Utilization     Low (1)     Low (1)     Low (1)
          1                        tex_fu_utilization                     Texture Function Unit Utilization     Mid (4)     Mid (4)     Mid (4)
          1                       ldst_fu_utilization                  Load/Store Function Unit Utilization     Low (1)     Low (1)     Low (1)
          1           double_precision_fu_utilization            Double-Precision Function Unit Utilization     Mid (4)     Mid (4)     Mid (4)
          1                    special_fu_utilization                     Special Function Unit Utilization    Idle (0)    Idle (0)    Idle (0)
          1           single_precision_fu_utilization            Single-Precision Function Unit Utilization     Low (2)     Low (2)     Low (2)
          1                             flop_count_dp           Floating Point Operations(Double Precision)    81920000    81920000    81920000
          1                         flop_count_dp_add       Floating Point Operations(Double Precision Add)           0           0           0
          1                         flop_count_dp_fma       Floating Point Operations(Double Precision FMA)    40960000    40960000    40960000
          1                         flop_count_dp_mul       Floating Point Operations(Double Precision Mul)           0           0           0
          1                             flop_count_sp           Floating Point Operations(Single Precision)           0           0           0
          1                         flop_count_sp_add       Floating Point Operations(Single Precision Add)           0           0           0
          1                         flop_count_sp_fma       Floating Point Operations(Single Precision FMA)           0           0           0
          1                         flop_count_sp_mul        Floating Point Operation(Single Precision Mul)           0           0           0
          1                     flop_count_sp_special   Floating Point Operations(Single Precision Special)           0           0           0
          1                             inst_executed                                 Instructions Executed    19420000    19420000    19420000
          1                               inst_issued                                   Instructions Issued    19422940    19422940    19422940
          1                          dram_utilization                             Device Memory Utilization     Low (1)     Low (1)     Low (1)
          1                           tex_utilization                             Unified Cache Utilization     Mid (4)     Mid (4)     Mid (4)
          1                         shared_efficiency                              Shared Memory Efficiency       0.00%       0.00%       0.00%
          1                        shared_utilization                             Shared Memory Utilization    Idle (0)    Idle (0)    Idle (0)
          1                                inst_fp_32                               FP Instructions(Single)           0           0           0
          1                                inst_fp_64                               FP Instructions(Double)    40960000    40960000    40960000
          1                              inst_integer                                  Integer Instructions   248960000   248960000   248960000
          1                          inst_bit_convert                              Bit-Convert Instructions           0           0           0
          1                              inst_control                             Control-Flow Instructions    40960000    40960000    40960000
          1                        inst_compute_ld_st                               Load/Store Instructions   123200000   123200000   123200000
          1                                 inst_misc                                     Misc Instructions   166720000   166720000   166720000
          1           inst_inter_thread_communication                             Inter-Thread Instructions           0           0           0
          1                               issue_slots                                           Issue Slots    18142940    18142940    18142940
          1                                 cf_issued                      Issued Control-Flow Instructions     1300000     1300000     1300000
          1                               cf_executed                    Executed Control-Flow Instructions     1300000     1300000     1300000
          1                               ldst_issued                        Issued Load/Store Instructions    20580000    20580000    20580000
          1                             ldst_executed                      Executed Load/Store Instructions     3870000     3870000     3870000
          1                       atomic_transactions                                   Atomic Transactions           0           0           0
          1           atomic_transactions_per_request                       Atomic Transactions Per Request    0.000000    0.000000    0.000000
          1                          stall_inst_fetch              Issue Stall Reasons (Instructions Fetch)       0.30%       0.30%       0.30%
          1                     stall_exec_dependency            Issue Stall Reasons (Execution Dependency)       7.40%       7.40%       7.40%
          1                   stall_memory_dependency                    Issue Stall Reasons (Data Request)      91.81%      91.81%      91.81%
          1                             stall_texture                         Issue Stall Reasons (Texture)       0.00%       0.00%       0.00%
          1                                stall_sync                 Issue Stall Reasons (Synchronization)       0.00%       0.00%       0.00%
          1                               stall_other                           Issue Stall Reasons (Other)       0.39%       0.39%       0.39%
          1          stall_constant_memory_dependency              Issue Stall Reasons (Immediate constant)       0.01%       0.01%       0.01%
          1                           stall_pipe_busy                       Issue Stall Reasons (Pipe Busy)       0.00%       0.00%       0.00%
          1                     stall_memory_throttle                 Issue Stall Reasons (Memory Throttle)       0.03%       0.03%       0.03%
          1                        stall_not_selected                    Issue Stall Reasons (Not Selected)       0.05%       0.05%       0.05%
          1                  sysmem_read_transactions                       System Memory Read Transactions           0           0           0
          1                 sysmem_write_transactions                      System Memory Write Transactions           5           5           5
          1                      l2_read_transactions                                  L2 Read Transactions    12480071    12480071    12480071
          1                     l2_write_transactions                                 L2 Write Transactions    10320006    10320006    10320006
          1                          ecc_transactions                                      ECC Transactions           0           0           0
          1                     local_memory_overhead                                 Local Memory Overhead       0.00%       0.00%       0.00%
          1                        tex_cache_hit_rate                                Unified Cache Hit Rate      31.65%      31.65%      31.65%
          1                      l2_tex_read_hit_rate                           L2 Hit Rate (Texture Reads)      99.36%      99.36%      99.36%
          1                     l2_tex_write_hit_rate                          L2 Hit Rate (Texture Writes)      99.22%      99.22%      99.22%
          1                    l2_tex_read_throughput                         L2 Throughput (Texture Reads)  232.46GB/s  232.46GB/s  232.46GB/s
          1                   l2_tex_write_throughput                        L2 Throughput (Texture Writes)  192.22GB/s  192.22GB/s  192.22GB/s
          1                  l2_tex_read_transactions                       L2 Transactions (Texture Reads)    12480000    12480000    12480000
          1                 l2_tex_write_transactions                      L2 Transactions (Texture Writes)    10320000    10320000    10320000
          1                        l2_read_throughput                                 L2 Throughput (Reads)  232.46GB/s  232.46GB/s  232.46GB/s
          1                       l2_write_throughput                                L2 Throughput (Writes)  192.23GB/s  192.23GB/s  192.22GB/s
          1                    sysmem_read_throughput                         System Memory Read Throughput  0.00000B/s  0.00000B/s  0.00000B/s
          1                   sysmem_write_throughput                        System Memory Write Throughput  97.656KB/s  97.656KB/s  0.00000B/s
          1                            l2_utilization                                  L2 Cache Utilization    High (9)    High (9)    High (9)
          1                      l2_atomic_throughput                       L2 Throughput (Atomic requests)  0.00000B/s  0.00000B/s  0.00000B/s
          1                    l2_atomic_transactions                     L2 Transactions (Atomic requests)           0           0           0
          1                        sysmem_utilization                             System Memory Utilization     Low (1)     Low (1)     Low (1)
          1                            ecc_throughput                                        ECC Throughput  0.00000B/s  0.00000B/s  0.00000B/s
          1                   sysmem_read_utilization                        System Memory Read Utilization    Idle (0)    Idle (0)    Idle (0)
          1                  sysmem_write_utilization                       System Memory Write Utilization     Low (1)     Low (1)     Low (1)
          1                  eligible_warps_per_cycle                       Eligible Warps Per Active Cycle    0.682820    0.682820    0.682820
          1                        flop_sp_efficiency                          FLOP Efficiency(Peak Single)       0.00%       0.00%       0.00%
          1                        flop_dp_efficiency                          FLOP Efficiency(Peak Double)      36.48%      36.48%      36.48%
