srun: job 1485189 queued and waiting for resources
srun: job 1485189 has been allocated resources
==79323== NVPROF is profiling process 79323, command: ./convolucion_float 1280000 128
==79323== Some kernel(s) will be replayed on device 0 in order to collect all events/metrics.
==79323== Profiling application: ./convolucion_float 1280000 128
==79323== Profiling result:
==79323== Event result:
Invocations                                Event Name         Min         Max         Avg       Total
Device "GeForce GTX TITAN X (0)"
    Kernel: conv_gpu(float const *, float*, float const *, int, int)
          1                 tex0_cache_sector_queries    55200000    55200000    55200000    55200000
          1                 tex1_cache_sector_queries    55200000    55200000    55200000    55200000
          1                  tex0_cache_sector_misses    35680000    35680000    35680000    35680000
          1                  tex1_cache_sector_misses    35680000    35680000    35680000    35680000
          1                     fb_subp0_read_sectors       80016       80016       80016       80016
          1                     fb_subp1_read_sectors       80023       80023       80023       80023
          1                    fb_subp0_write_sectors       82853       82853       82853       82853
          1                    fb_subp1_write_sectors       82885       82885       82885       82885
          1              l2_subp0_write_sector_misses       82806       82806       82806       82806
          1              l2_subp1_write_sector_misses       82798       82798       82798       82798
          1               l2_subp0_read_sector_misses       80023       80023       80023       80023
          1               l2_subp1_read_sector_misses       80016       80016       80016       80016
          1          l2_subp0_read_tex_sector_queries    15039376    15039376    15039376    15039376
          1          l2_subp1_read_tex_sector_queries    15040624    15040624    15040624    15040624
          1         l2_subp0_write_tex_sector_queries    10320000    10320000    10320000    10320000
          1         l2_subp1_write_tex_sector_queries    10320000    10320000    10320000    10320000
          1             l2_subp0_read_tex_hit_sectors    14959360    14959360    14959360    14959360
          1             l2_subp1_read_tex_hit_sectors    14960608    14960608    14960608    14960608
          1            l2_subp0_write_tex_hit_sectors    10240000    10240000    10240000    10240000
          1            l2_subp1_write_tex_hit_sectors    10240000    10240000    10240000    10240000
          1        l2_subp0_total_read_sector_queries    15039520    15039520    15039520    15039520
          1        l2_subp1_total_read_sector_queries    15040775    15040775    15040775    15040775
          1       l2_subp0_total_write_sector_queries    10320000    10320000    10320000    10320000
          1       l2_subp1_total_write_sector_queries    10320006    10320006    10320006    10320006
          1       l2_subp0_read_sysmem_sector_queries           0           0           0           0
          1       l2_subp1_read_sysmem_sector_queries           0           0           0           0
          1      l2_subp0_write_sysmem_sector_queries           0           0           0           0
          1      l2_subp1_write_sysmem_sector_queries           5           5           5           5
          1                         elapsed_cycles_sm   110898324   110898324   110898324   110898324
          1                             gld_inst_8bit           0           0           0           0
          1                            gld_inst_16bit           0           0           0           0
          1                            gld_inst_32bit   327680000   327680000   327680000   327680000
          1                            gld_inst_64bit           0           0           0           0
          1                           gld_inst_128bit           0           0           0           0
          1                             gst_inst_8bit           0           0           0           0
          1                            gst_inst_16bit           0           0           0           0
          1                            gst_inst_32bit   165120000   165120000   165120000   165120000
          1                            gst_inst_64bit           0           0           0           0
          1                           gst_inst_128bit           0           0           0           0
          1                           prof_trigger_00           0           0           0           0
          1                           prof_trigger_01           0           0           0           0
          1                           prof_trigger_02           0           0           0           0
          1                           prof_trigger_03           0           0           0           0
          1                           prof_trigger_04           0           0           0           0
          1                           prof_trigger_05           0           0           0           0
          1                           prof_trigger_06           0           0           0           0
          1                           prof_trigger_07           0           0           0           0
          1                            warps_launched       40000       40000       40000       40000
          1                              inst_issued0   388855325   388855325   388855325   388855325
          1                              inst_issued1    62283043    62283043    62283043    62283043
          1                              inst_issued2     5120000     5120000     5120000     5120000
          1                             inst_executed    72520000    72520000    72520000    72520000
          1                      thread_inst_executed  2320640000  2320640000  2320640000  2320640000
          1   not_predicated_off_thread_inst_executed  2318080000  2318080000  2318080000  2318080000
          1                               local_store           0           0           0           0
          1                                local_load           0           0           0           0
          1                               shared_load           0           0           0           0
          1                              shared_store           0           0           0           0
          1                           shared_atom_cas           0           0           0           0
          1                               shared_atom           0           0           0           0
          1                           global_atom_cas           0           0           0           0
          1                                atom_count           0           0           0           0
          1                                gred_count           0           0           0           0
          1                               global_load    10240000    10240000    10240000    10240000
          1                              global_store     5160000     5160000     5160000     5160000
          1                          divergent_branch           0           0           0           0
          1                                    branch     5200000     5200000     5200000     5200000
          1                             active_cycles   109912386   109912386   109912386   109912386
          1                              active_warps  6997699636  6997699636  6997699636  6997699636
          1                               active_ctas  1759465574  1759465574  1759465574  1759465574
          1                           sm_cta_launched       10000       10000       10000       10000
          1                   shared_ld_bank_conflict           0           0           0           0
          1                   shared_st_bank_conflict           0           0           0           0
          1                    shared_ld_transactions           0           0           0           0
          1                    shared_st_transactions           0           0           0           0
