srun: job 1482742 queued and waiting for resources
srun: job 1482742 has been allocated resources
==2899== NVPROF is profiling process 2899, command: ./suma_matrices 2500 2500 79 79 32 32
==2899== Profiling application: ./suma_matrices 2500 2500 79 79 32 32
==2899== Profiling result:
Time(%)      Time     Calls       Avg       Min       Max  Name
 80.92%  39.440ms         2  19.720ms  19.546ms  19.893ms  [CUDA memcpy HtoD]
 18.18%  8.8611ms         1  8.8611ms  8.8611ms  8.8611ms  [CUDA memcpy DtoH]
  0.90%  440.67us         1  440.67us  440.67us  440.67us  sum_matrix_par(float*, float*, float*, int, int)

==2899== API calls:
Time(%)      Time     Calls       Avg       Min       Max  Name
 81.11%  240.00ms         3  79.999ms  181.82us  239.62ms  cudaMalloc
 16.91%  50.047ms         3  16.682ms  9.4789ms  20.402ms  cudaMemcpy
  1.33%  3.9482ms         3  1.3161ms  311.01us  1.8234ms  cudaFree
  0.18%  519.40us        91  5.7070us     275ns  225.79us  cuDeviceGetAttribute
  0.16%  487.96us         1  487.96us  487.96us  487.96us  cudaGetDeviceProperties
  0.16%  483.75us         1  483.75us  483.75us  483.75us  cudaDeviceSynchronize
  0.05%  151.64us         1  151.64us  151.64us  151.64us  cuDeviceTotalMem
  0.03%  94.299us         1  94.299us  94.299us  94.299us  cudaLaunch
  0.02%  60.662us         1  60.662us  60.662us  60.662us  cuDeviceGetName
  0.01%  25.782us         2  12.891us  1.3830us  24.399us  cudaEventCreate
  0.01%  23.372us         3  7.7900us  2.9250us  16.042us  cudaEventRecord
  0.01%  19.655us         1  19.655us  19.655us  19.655us  cudaSetDevice
  0.00%  6.2040us         2  3.1020us     992ns  5.2120us  cudaEventDestroy
  0.00%  5.0030us         1  5.0030us  5.0030us  5.0030us  cudaEventSynchronize
  0.00%  4.5670us         1  4.5670us  4.5670us  4.5670us  cudaEventElapsedTime
  0.00%  4.0900us         3  1.3630us     556ns  2.8620us  cuDeviceGetCount
  0.00%  3.3760us         5     675ns     194ns  1.7510us  cudaSetupArgument
  0.00%  2.8250us         1  2.8250us  2.8250us  2.8250us  cudaConfigureCall
  0.00%  2.2310us         3     743ns     344ns  1.2250us  cuDeviceGet
  0.00%     837ns         1     837ns     837ns     837ns  cudaGetLastError
LastError
