Dimension de la grilla: 500 x 5000 bloques
Dimension del bloque: 1000 x 1 threads
Se usa placa 0: Tesla V100-PCIE-16GB
Tamanio de Matrix : 5000 x  5000 
Inicializacion de matrices en host  1084.628899 msec
Suma de matrices en host  86.115314 msec
Último índice: x = 0..499999 ; y = 0..4999
Suma de matrices en GPU  5.380896 msec
Test pasado! 

