srun: job 2090845 queued and waiting for resources
srun: job 2090845 has been allocated resources
==121372== NVPROF is profiling process 121372, command: ./suma_matrices 5000 5000 500 5000 1000 1
==121372== Some kernel(s) will be replayed on device 0 in order to collect all events/metrics.
==121372== Profiling application: ./suma_matrices 5000 5000 500 5000 1000 1
==121372== Profiling result:
==121372== Event result:
Invocations                                Event Name         Min         Max         Avg       Total
Device "GeForce GTX TITAN X (0)"
    Kernel: sum_matrix_par(float*, float*, float*, int, int)
          1                 tex0_cache_sector_queries     9376386     9376386     9376386     9376386
          1                 tex1_cache_sector_queries     9373614     9373614     9373614     9373614
          1                  tex0_cache_sector_misses     6249280     6249280     6249280     6249280
          1                  tex1_cache_sector_misses     6250720     6250720     6250720     6250720
          1                     fb_subp0_read_sectors     3125008     3125008     3125008     3125008
          1                     fb_subp1_read_sectors     3124999     3124999     3124999     3124999
          1                    fb_subp0_write_sectors     1570815     1570815     1570815     1570815
          1                    fb_subp1_write_sectors     1570915     1570915     1570915     1570915
          1              l2_subp0_write_sector_misses     1570850     1570850     1570850     1570850
          1              l2_subp1_write_sector_misses     1570834     1570834     1570834     1570834
          1               l2_subp0_read_sector_misses     3125007     3125007     3125007     3125007
          1               l2_subp1_read_sector_misses     3125000     3125000     3125000     3125000
          1          l2_subp0_read_tex_sector_queries     3125000     3125000     3125000     3125000
          1          l2_subp1_read_tex_sector_queries     3125000     3125000     3125000     3125000
          1         l2_subp0_write_tex_sector_queries     1562504     1562504     1562504     1562504
          1         l2_subp1_write_tex_sector_queries     1562496     1562496     1562496     1562496
          1             l2_subp0_read_tex_hit_sectors           0           0           0           0
          1             l2_subp1_read_tex_hit_sectors           0           0           0           0
          1            l2_subp0_write_tex_hit_sectors      583890      583890      583890      583890
          1            l2_subp1_write_tex_hit_sectors      587115      587115      587115      587115
          1        l2_subp0_total_read_sector_queries     3125048     3125048     3125048     3125048
          1        l2_subp1_total_read_sector_queries     3125055     3125055     3125055     3125055
          1       l2_subp0_total_write_sector_queries     1562509     1562509     1562509     1562509
          1       l2_subp1_total_write_sector_queries     1562497     1562497     1562497     1562497
          1       l2_subp0_read_sysmem_sector_queries           0           0           0           0
          1       l2_subp1_read_sysmem_sector_queries           0           0           0           0
          1      l2_subp0_write_sysmem_sector_queries           2           2           2           2
          1      l2_subp1_write_sysmem_sector_queries           3           3           3           3
          1                         elapsed_cycles_sm   532586640   532586640   532586640   532586640
          1                             gld_inst_8bit           0           0           0           0
          1                            gld_inst_16bit           0           0           0           0
          1                            gld_inst_32bit    50000000    50000000    50000000    50000000
          1                            gld_inst_64bit           0           0           0           0
          1                           gld_inst_128bit           0           0           0           0
          1                             gst_inst_8bit           0           0           0           0
          1                            gst_inst_16bit           0           0           0           0
          1                            gst_inst_32bit    25000000    25000000    25000000    25000000
          1                            gst_inst_64bit           0           0           0           0
          1                           gst_inst_128bit           0           0           0           0
          1                           prof_trigger_00           0           0           0           0
          1                           prof_trigger_01           0           0           0           0
          1                           prof_trigger_02           0           0           0           0
          1                           prof_trigger_03           0           0           0           0
          1                           prof_trigger_04           0           0           0           0
          1                           prof_trigger_05           0           0           0           0
          1                           prof_trigger_06           0           0           0           0
          1                           prof_trigger_07           0           0           0           0
          1                            warps_launched    80000000    80000000    80000000    80000000
          1                              inst_issued0   773371341   773371341   773371341   773371341
          1                              inst_issued1  1131243506  1131243506  1131243506  1131243506
          1                              inst_issued2      800005      800005      800005      800005
          1                             inst_executed  1132800000  1132800000  1132800000  1132800000
          1                      thread_inst_executed  3.5400e+10  3.5400e+10  3.5400e+10  3.5400e+10
          1   not_predicated_off_thread_inst_executed  3.5375e+10  3.5375e+10  3.5375e+10  3.5375e+10
          1                               local_store           0           0           0           0
          1                                local_load           0           0           0           0
          1                               shared_load           0           0           0           0
          1                              shared_store           0           0           0           0
          1                           shared_atom_cas           0           0           0           0
          1                               shared_atom           0           0           0           0
          1                           global_atom_cas           0           0           0           0
          1                                atom_count           0           0           0           0
          1                                gred_count           0           0           0           0
          1                               global_load     1600000     1600000     1600000     1600000
          1                              global_store      800000      800000      800000      800000
          1                          divergent_branch           0           0           0           0
          1                                    branch    80800000    80800000    80800000    80800000
          1                             active_cycles   510892662   510892662   510892662   510892662
          1                              active_warps  1.6214e+10  1.6214e+10  1.6214e+10  1.6214e+10
          1                               active_ctas   727990437   727990437   727990437   727990437
          1                           sm_cta_launched     2500000     2500000     2500000     2500000
          1                   shared_ld_bank_conflict           0           0           0           0
          1                   shared_st_bank_conflict           0           0           0           0
          1                    shared_ld_transactions           0           0           0           0
          1                    shared_st_transactions           0           0           0           0
